"N","min(Temp)","q1(Temp)","med(Temp)","q3(Temp)","max(Temp)","avg(Temp)","std(Temp)","min(vtkOriginalPointIds)","q1(vtkOriginalPointIds)","med(vtkOriginalPointIds)","q3(vtkOriginalPointIds)","max(vtkOriginalPointIds)","avg(vtkOriginalPointIds)","std(vtkOriginalPointIds)","min(X)","q1(X)","med(X)","q3(X)","max(X)","avg(X)","std(X)","min(Y)","q1(Y)","med(Y)","q3(Y)","max(Y)","avg(Y)","std(Y)","min(Z)","q1(Z)","med(Z)","q3(Z)","max(Z)","avg(Z)","std(Z)","vtkValidPointMask","Time"
3,0,0,0,0,0,0,0,37910,37910,37911,37911,37912,37911,1,4.8333,4.8333,5,5.0833,5.1667,5,0.16667,2.6667,2.6667,2.6667,2.6667,2.6667,2.6667,0,2.5,2.5,2.5,2.5,2.5,2.5,0,1,0
3,1.7688,1.7688,1.7688,1.794,1.8192,1.7856,0.029083,37910,37910,37911,37911,37912,37911,1,4.8333,4.8333,5,5.0833,5.1667,5,0.16667,2.6667,2.6667,2.6667,2.6667,2.6667,2.6667,0,2.5,2.5,2.5,2.5,2.5,2.5,0,1,1
3,8.9945,8.9945,8.9945,9.1217,9.249,9.0793,0.14693,37910,37910,37911,37911,37912,37911,1,4.8333,4.8333,5,5.0833,5.1667,5,0.16667,2.6667,2.6667,2.6667,2.6667,2.6667,2.6667,0,2.5,2.5,2.5,2.5,2.5,2.5,0,1,2
3,32.583,32.583,32.583,33.042,33.501,32.889,0.52991,37910,37910,37911,37911,37912,37911,1,4.8333,4.8333,5,5.0833,5.1667,5,0.16667,2.6667,2.6667,2.6667,2.6667,2.6667,2.6667,0,2.5,2.5,2.5,2.5,2.5,2.5,0,1,3
3,95.275,95.275,95.275,96.612,97.948,96.166,1.5434,37910,37910,37911,37911,37912,37911,1,4.8333,4.8333,5,5.0833,5.1667,5,0.16667,2.6667,2.6667,2.6667,2.6667,2.6667,2.6667,0,2.5,2.5,2.5,2.5,2.5,2.5,0,1,4
3,231.38,231.38,231.38,234.61,237.85,233.54,3.7325,37910,37910,37911,37911,37912,37911,1,4.8333,4.8333,5,5.0833,5.1667,5,0.16667,2.6667,2.6667,2.6667,2.6667,2.6667,2.6667,0,2.5,2.5,2.5,2.5,2.5,2.5,0,1,5
3,472.76,472.76,472.76,479.33,485.9,477.14,7.5869,37910,37910,37911,37911,37912,37911,1,4.8333,4.8333,5,5.0833,5.1667,5,0.16667,2.6667,2.6667,2.6667,2.6667,2.6667,2.6667,0,2.5,2.5,2.5,2.5,2.5,2.5,0,1,6
3,821.8,821.8,821.8,833.14,844.49,829.36,13.103,37910,37910,37911,37911,37912,37911,1,4.8333,4.8333,5,5.0833,5.1667,5,0.16667,2.6667,2.6667,2.6667,2.6667,2.6667,2.6667,0,2.5,2.5,2.5,2.5,2.5,2.5,0,1,7
3,1231.7,1231.7,1231.7,1248.5,1265.4,1242.9,19.433,37910,37910,37911,37911,37912,37911,1,4.8333,4.8333,5,5.0833,5.1667,5,0.16667,2.6667,2.6667,2.6667,2.6667,2.6667,2.6667,0,2.5,2.5,2.5,2.5,2.5,2.5,0,1,8
3,1526.5,1526.5,1526.5,1544.7,1562.9,1538.6,21.013,37910,37910,37911,37911,37912,37911,1,4.8333,4.8333,5,5.0833,5.1667,5,0.16667,2.6667,2.6667,2.6667,2.6667,2.6667,2.6667,0,2.5,2.5,2.5,2.5,2.5,2.5,0,1,9
3,1553.3,1553.3,1553.3,1650.4,1747.5,1618.1,112.08,37910,37910,37911,37911,37912,37911,1,4.8333,4.8333,5,5.0833,5.1667,5,0.16667,2.6667,2.6667,2.6667,2.6667,2.6667,2.6667,0,2.5,2.5,2.5,2.5,2.5,2.5,0,1,10
3,1694.7,1694.7,1694.7,1759.6,1824.5,1738,74.937,37910,37910,37911,37911,37912,37911,1,4.8333,4.8333,5,5.0833,5.1667,5,0.16667,2.6667,2.6667,2.6667,2.6667,2.6667,2.6667,0,2.5,2.5,2.5,2.5,2.5,2.5,0,1,11
3,1782.5,1782.5,1782.5,1823.5,1864.4,1809.8,47.243,37910,37910,37911,37911,37912,37911,1,4.8333,4.8333,5,5.0833,5.1667,5,0.16667,2.6667,2.6667,2.6667,2.6667,2.6667,2.6667,0,2.5,2.5,2.5,2.5,2.5,2.5,0,1,12
3,1774.4,1774.4,1774.4,1808.8,1843.2,1797.3,39.746,37910,37910,37911,37911,37912,37911,1,4.8333,4.8333,5,5.0833,5.1667,5,0.16667,2.6667,2.6667,2.6667,2.6667,2.6667,2.6667,0,2.5,2.5,2.5,2.5,2.5,2.5,0,1,13
3,1736.5,1736.5,1736.5,1763.9,1791.4,1754.8,31.706,37910,37910,37911,37911,37912,37911,1,4.8333,4.8333,5,5.0833,5.1667,5,0.16667,2.6667,2.6667,2.6667,2.6667,2.6667,2.6667,0,2.5,2.5,2.5,2.5,2.5,2.5,0,1,14
3,1689.2,1689.2,1689.2,1710.8,1732.3,1703.6,24.892,37910,37910,37911,37911,37912,37911,1,4.8333,4.8333,5,5.0833,5.1667,5,0.16667,2.6667,2.6667,2.6667,2.6667,2.6667,2.6667,0,2.5,2.5,2.5,2.5,2.5,2.5,0,1,15
3,1641.7,1641.7,1641.7,1658.6,1675.5,1653,19.562,37910,37910,37911,37911,37912,37911,1,4.8333,4.8333,5,5.0833,5.1667,5,0.16667,2.6667,2.6667,2.6667,2.6667,2.6667,2.6667,0,2.5,2.5,2.5,2.5,2.5,2.5,0,1,16
3,1599.2,1599.2,1599.2,1611.5,1623.9,1607.4,14.225,37910,37910,37911,37911,37912,37911,1,4.8333,4.8333,5,5.0833,5.1667,5,0.16667,2.6667,2.6667,2.6667,2.6667,2.6667,2.6667,0,2.5,2.5,2.5,2.5,2.5,2.5,0,1,17
3,1564.9,1564.9,1564.9,1571.9,1578.9,1569.6,8.0656,37910,37910,37911,37911,37912,37911,1,4.8333,4.8333,5,5.0833,5.1667,5,0.16667,2.6667,2.6667,2.6667,2.6667,2.6667,2.6667,0,2.5,2.5,2.5,2.5,2.5,2.5,0,1,18
3,1560.6,1560.6,1562.3,1562.3,1562.3,1561.7,0.98585,37910,37910,37911,37911,37912,37911,1,4.8333,4.8333,5,5.0833,5.1667,5,0.16667,2.6667,2.6667,2.6667,2.6667,2.6667,2.6667,0,2.5,2.5,2.5,2.5,2.5,2.5,0,1,19
3,1558.2,1558.2,1559.5,1559.5,1559.5,1559,0.72979,37910,37910,37911,37911,37912,37911,1,4.8333,4.8333,5,5.0833,5.1667,5,0.16667,2.6667,2.6667,2.6667,2.6667,2.6667,2.6667,0,2.5,2.5,2.5,2.5,2.5,2.5,0,1,20
3,1555.8,1555.8,1556.6,1556.6,1556.6,1556.4,0.46203,37910,37910,37911,37911,37912,37911,1,4.8333,4.8333,5,5.0833,5.1667,5,0.16667,2.6667,2.6667,2.6667,2.6667,2.6667,2.6667,0,2.5,2.5,2.5,2.5,2.5,2.5,0,1,21
3,1553.5,1553.5,1553.8,1553.8,1553.8,1553.7,0.1796,37910,37910,37911,37911,37912,37911,1,4.8333,4.8333,5,5.0833,5.1667,5,0.16667,2.6667,2.6667,2.6667,2.6667,2.6667,2.6667,0,2.5,2.5,2.5,2.5,2.5,2.5,0,1,22
3,1551,1551,1551,1551.1,1551.2,1551,0.11936,37910,37910,37911,37911,37912,37911,1,4.8333,4.8333,5,5.0833,5.1667,5,0.16667,2.6667,2.6667,2.6667,2.6667,2.6667,2.6667,0,2.5,2.5,2.5,2.5,2.5,2.5,0,1,23
3,1548.1,1548.1,1548.1,1548.5,1548.8,1548.3,0.43569,37910,37910,37911,37911,37912,37911,1,4.8333,4.8333,5,5.0833,5.1667,5,0.16667,2.6667,2.6667,2.6667,2.6667,2.6667,2.6667,0,2.5,2.5,2.5,2.5,2.5,2.5,0,1,24
3,1545.2,1545.2,1545.2,1545.9,1546.5,1545.7,0.76975,37910,37910,37911,37911,37912,37911,1,4.8333,4.8333,5,5.0833,5.1667,5,0.16667,2.6667,2.6667,2.6667,2.6667,2.6667,2.6667,0,2.5,2.5,2.5,2.5,2.5,2.5,0,1,25
3,1541.6,1541.6,1541.6,1542.9,1544.3,1542.5,1.553,37910,37910,37911,37911,37912,37911,1,4.8333,4.8333,5,5.0833,5.1667,5,0.16667,2.6667,2.6667,2.6667,2.6667,2.6667,2.6667,0,2.5,2.5,2.5,2.5,2.5,2.5,0,1,26
3,1537.1,1537.1,1537.1,1539.5,1541.9,1538.7,2.7994,37910,37910,37911,37911,37912,37911,1,4.8333,4.8333,5,5.0833,5.1667,5,0.16667,2.6667,2.6667,2.6667,2.6667,2.6667,2.6667,0,2.5,2.5,2.5,2.5,2.5,2.5,0,1,27
3,1532,1532,1532,1535.8,1539.5,1534.5,4.3136,37910,37910,37911,37911,37912,37911,1,4.8333,4.8333,5,5.0833,5.1667,5,0.16667,2.6667,2.6667,2.6667,2.6667,2.6667,2.6667,0,2.5,2.5,2.5,2.5,2.5,2.5,0,1,28
3,1526.7,1526.7,1526.7,1531.9,1537,1530.1,5.9766,37910,37910,37911,37911,37912,37911,1,4.8333,4.8333,5,5.0833,5.1667,5,0.16667,2.6667,2.6667,2.6667,2.6667,2.6667,2.6667,0,2.5,2.5,2.5,2.5,2.5,2.5,0,1,29
3,1521.1,1521.1,1521.1,1527.8,1534.5,1525.6,7.7127,37910,37910,37911,37911,37912,37911,1,4.8333,4.8333,5,5.0833,5.1667,5,0.16667,2.6667,2.6667,2.6667,2.6667,2.6667,2.6667,0,2.5,2.5,2.5,2.5,2.5,2.5,0,1,30
3,1515.3,1515.3,1515.3,1523.6,1531.8,1520.8,9.5136,37910,37910,37911,37911,37912,37911,1,4.8333,4.8333,5,5.0833,5.1667,5,0.16667,2.6667,2.6667,2.6667,2.6667,2.6667,2.6667,0,2.5,2.5,2.5,2.5,2.5,2.5,0,1,31
3,1458,1458,1458,1493.1,1528.2,1481.4,40.524,37910,37910,37911,37911,37912,37911,1,4.8333,4.8333,5,5.0833,5.1667,5,0.16667,2.6667,2.6667,2.6667,2.6667,2.6667,2.6667,0,2.5,2.5,2.5,2.5,2.5,2.5,0,1,32
3,1416.4,1416.4,1416.4,1469.5,1522.6,1451.8,61.308,37910,37910,37911,37911,37912,37911,1,4.8333,4.8333,5,5.0833,5.1667,5,0.16667,2.6667,2.6667,2.6667,2.6667,2.6667,2.6667,0,2.5,2.5,2.5,2.5,2.5,2.5,0,1,33
3,1386.5,1386.5,1386.5,1451.2,1515.9,1429.6,74.722,37910,37910,37911,37911,37912,37911,1,4.8333,4.8333,5,5.0833,5.1667,5,0.16667,2.6667,2.6667,2.6667,2.6667,2.6667,2.6667,0,2.5,2.5,2.5,2.5,2.5,2.5,0,1,34
3,1356.3,1356.3,1356.3,1399.1,1442,1384.8,49.478,37910,37910,37911,37911,37912,37911,1,4.8333,4.8333,5,5.0833,5.1667,5,0.16667,2.6667,2.6667,2.6667,2.6667,2.6667,2.6667,0,2.5,2.5,2.5,2.5,2.5,2.5,0,1,35
3,1320.2,1320.2,1320.2,1350.7,1381.2,1340.5,35.214,37910,37910,37911,37911,37912,37911,1,4.8333,4.8333,5,5.0833,5.1667,5,0.16667,2.6667,2.6667,2.6667,2.6667,2.6667,2.6667,0,2.5,2.5,2.5,2.5,2.5,2.5,0,1,36
3,1283.6,1283.6,1283.6,1307.5,1331.4,1299.5,27.565,37910,37910,37911,37911,37912,37911,1,4.8333,4.8333,5,5.0833,5.1667,5,0.16667,2.6667,2.6667,2.6667,2.6667,2.6667,2.6667,0,2.5,2.5,2.5,2.5,2.5,2.5,0,1,37
3,1248.4,1248.4,1248.4,1268.3,1288.2,1261.7,22.965,37910,37910,37911,37911,37912,37911,1,4.8333,4.8333,5,5.0833,5.1667,5,0.16667,2.6667,2.6667,2.6667,2.6667,2.6667,2.6667,0,2.5,2.5,2.5,2.5,2.5,2.5,0,1,38
3,1215,1215,1215,1232.2,1249.5,1226.5,19.917,37910,37910,37911,37911,37912,37911,1,4.8333,4.8333,5,5.0833,5.1667,5,0.16667,2.6667,2.6667,2.6667,2.6667,2.6667,2.6667,0,2.5,2.5,2.5,2.5,2.5,2.5,0,1,39
3,1183.4,1183.4,1183.4,1198.7,1214.1,1193.6,17.727,37910,37910,37911,37911,37912,37911,1,4.8333,4.8333,5,5.0833,5.1667,5,0.16667,2.6667,2.6667,2.6667,2.6667,2.6667,2.6667,0,2.5,2.5,2.5,2.5,2.5,2.5,0,1,40
3,1153.6,1153.6,1153.6,1167.5,1181.4,1162.8,16.053,37910,37910,37911,37911,37912,37911,1,4.8333,4.8333,5,5.0833,5.1667,5,0.16667,2.6667,2.6667,2.6667,2.6667,2.6667,2.6667,0,2.5,2.5,2.5,2.5,2.5,2.5,0,1,41
3,1125.4,1125.4,1125.4,1138.1,1150.9,1133.9,14.716,37910,37910,37911,37911,37912,37911,1,4.8333,4.8333,5,5.0833,5.1667,5,0.16667,2.6667,2.6667,2.6667,2.6667,2.6667,2.6667,0,2.5,2.5,2.5,2.5,2.5,2.5,0,1,42
3,1098.7,1098.7,1098.7,1110.5,1122.3,1106.5,13.61,37910,37910,37911,37911,37912,37911,1,4.8333,4.8333,5,5.0833,5.1667,5,0.16667,2.6667,2.6667,2.6667,2.6667,2.6667,2.6667,0,2.5,2.5,2.5,2.5,2.5,2.5,0,1,43
3,1073.3,1073.3,1073.3,1084.3,1095.3,1080.7,12.674,37910,37910,37911,37911,37912,37911,1,4.8333,4.8333,5,5.0833,5.1667,5,0.16667,2.6667,2.6667,2.6667,2.6667,2.6667,2.6667,0,2.5,2.5,2.5,2.5,2.5,2.5,0,1,44
3,1049.2,1049.2,1049.2,1059.5,1069.8,1056.1,11.867,37910,37910,37911,37911,37912,37911,1,4.8333,4.8333,5,5.0833,5.1667,5,0.16667,2.6667,2.6667,2.6667,2.6667,2.6667,2.6667,0,2.5,2.5,2.5,2.5,2.5,2.5,0,1,45
3,1026.3,1026.3,1026.3,1035.9,1045.6,1032.7,11.161,37910,37910,37911,37911,37912,37911,1,4.8333,4.8333,5,5.0833,5.1667,5,0.16667,2.6667,2.6667,2.6667,2.6667,2.6667,2.6667,0,2.5,2.5,2.5,2.5,2.5,2.5,0,1,46
3,1004.4,1004.4,1004.4,1013.5,1022.6,1010.4,10.536,37910,37910,37911,37911,37912,37911,1,4.8333,4.8333,5,5.0833,5.1667,5,0.16667,2.6667,2.6667,2.6667,2.6667,2.6667,2.6667,0,2.5,2.5,2.5,2.5,2.5,2.5,0,1,47
3,983.41,983.41,983.41,992.05,1000.7,989.17,9.9778,37910,37910,37911,37911,37912,37911,1,4.8333,4.8333,5,5.0833,5.1667,5,0.16667,2.6667,2.6667,2.6667,2.6667,2.6667,2.6667,0,2.5,2.5,2.5,2.5,2.5,2.5,0,1,48
3,963.37,963.37,963.37,971.57,979.78,968.84,9.4747,37910,37910,37911,37911,37912,37911,1,4.8333,4.8333,5,5.0833,5.1667,5,0.16667,2.6667,2.6667,2.6667,2.6667,2.6667,2.6667,0,2.5,2.5,2.5,2.5,2.5,2.5,0,1,49
3,944.16,944.16,944.16,951.97,959.78,949.37,9.0186,37910,37910,37911,37911,37912,37911,1,4.8333,4.8333,5,5.0833,5.1667,5,0.16667,2.6667,2.6667,2.6667,2.6667,2.6667,2.6667,0,2.5,2.5,2.5,2.5,2.5,2.5,0,1,50
3,925.73,925.73,925.73,933.18,940.63,930.7,8.6026,37910,37910,37911,37911,37912,37911,1,4.8333,4.8333,5,5.0833,5.1667,5,0.16667,2.6667,2.6667,2.6667,2.6667,2.6667,2.6667,0,2.5,2.5,2.5,2.5,2.5,2.5,0,1,51
3,908.03,908.03,908.03,915.15,922.27,912.77,8.2211,37910,37910,37911,37911,37912,37911,1,4.8333,4.8333,5,5.0833,5.1667,5,0.16667,2.6667,2.6667,2.6667,2.6667,2.6667,2.6667,0,2.5,2.5,2.5,2.5,2.5,2.5,0,1,52
3,891.01,891.01,891.01,897.82,904.64,895.55,7.8699,37910,37910,37911,37911,37912,37911,1,4.8333,4.8333,5,5.0833,5.1667,5,0.16667,2.6667,2.6667,2.6667,2.6667,2.6667,2.6667,0,2.5,2.5,2.5,2.5,2.5,2.5,0,1,53
3,874.62,874.62,874.62,881.16,887.69,878.98,7.5452,37910,37910,37911,37911,37912,37911,1,4.8333,4.8333,5,5.0833,5.1667,5,0.16667,2.6667,2.6667,2.6667,2.6667,2.6667,2.6667,0,2.5,2.5,2.5,2.5,2.5,2.5,0,1,54
3,858.84,858.84,858.84,865.12,871.39,863.03,7.2439,37910,37910,37911,37911,37912,37911,1,4.8333,4.8333,5,5.0833,5.1667,5,0.16667,2.6667,2.6667,2.6667,2.6667,2.6667,2.6667,0,2.5,2.5,2.5,2.5,2.5,2.5,0,1,55
3,843.63,843.63,843.63,849.66,855.69,847.65,6.9634,37910,37910,37911,37911,37912,37911,1,4.8333,4.8333,5,5.0833,5.1667,5,0.16667,2.6667,2.6667,2.6667,2.6667,2.6667,2.6667,0,2.5,2.5,2.5,2.5,2.5,2.5,0,1,56
3,828.95,828.95,828.95,834.75,840.55,832.81,6.7017,37910,37910,37911,37911,37912,37911,1,4.8333,4.8333,5,5.0833,5.1667,5,0.16667,2.6667,2.6667,2.6667,2.6667,2.6667,2.6667,0,2.5,2.5,2.5,2.5,2.5,2.5,0,1,57
3,814.77,814.77,814.77,820.36,825.95,818.49,6.4567,37910,37910,37911,37911,37912,37911,1,4.8333,4.8333,5,5.0833,5.1667,5,0.16667,2.6667,2.6667,2.6667,2.6667,2.6667,2.6667,0,2.5,2.5,2.5,2.5,2.5,2.5,0,1,58
3,801.06,801.06,801.06,806.46,811.85,804.66,6.2268,37910,37910,37911,37911,37912,37911,1,4.8333,4.8333,5,5.0833,5.1667,5,0.16667,2.6667,2.6667,2.6667,2.6667,2.6667,2.6667,0,2.5,2.5,2.5,2.5,2.5,2.5,0,1,59
3,787.81,787.81,787.81,793.02,798.22,791.28,6.0107,37910,37910,37911,37911,37912,37911,1,4.8333,4.8333,5,5.0833,5.1667,5,0.16667,2.6667,2.6667,2.6667,2.6667,2.6667,2.6667,0,2.5,2.5,2.5,2.5,2.5,2.5,0,1,60
3,774.99,774.99,774.99,780.02,785.05,778.34,5.8071,37910,37910,37911,37911,37912,37911,1,4.8333,4.8333,5,5.0833,5.1667,5,0.16667,2.6667,2.6667,2.6667,2.6667,2.6667,2.6667,0,2.5,2.5,2.5,2.5,2.5,2.5,0,1,61
3,762.57,762.57,762.57,767.43,772.29,765.81,5.615,37910,37910,37911,37911,37912,37911,1,4.8333,4.8333,5,5.0833,5.1667,5,0.16667,2.6667,2.6667,2.6667,2.6667,2.6667,2.6667,0,2.5,2.5,2.5,2.5,2.5,2.5,0,1,62
3,750.54,750.54,750.54,755.24,759.95,753.67,5.4333,37910,37910,37911,37911,37912,37911,1,4.8333,4.8333,5,5.0833,5.1667,5,0.16667,2.6667,2.6667,2.6667,2.6667,2.6667,2.6667,0,2.5,2.5,2.5,2.5,2.5,2.5,0,1,63
3,738.87,738.87,738.87,743.43,747.98,741.91,5.2612,37910,37910,37911,37911,37912,37911,1,4.8333,4.8333,5,5.0833,5.1667,5,0.16667,2.6667,2.6667,2.6667,2.6667,2.6667,2.6667,0,2.5,2.5,2.5,2.5,2.5,2.5,0,1,64
3,727.55,727.55,727.55,731.97,736.38,730.5,5.098,37910,37910,37911,37911,37912,37911,1,4.8333,4.8333,5,5.0833,5.1667,5,0.16667,2.6667,2.6667,2.6667,2.6667,2.6667,2.6667,0,2.5,2.5,2.5,2.5,2.5,2.5,0,1,65
3,716.57,716.57,716.57,720.85,725.13,719.42,4.943,37910,37910,37911,37911,37912,37911,1,4.8333,4.8333,5,5.0833,5.1667,5,0.16667,2.6667,2.6667,2.6667,2.6667,2.6667,2.6667,0,2.5,2.5,2.5,2.5,2.5,2.5,0,1,66
3,705.9,705.9,705.9,710.05,714.21,708.67,4.7956,37910,37910,37911,37911,37912,37911,1,4.8333,4.8333,5,5.0833,5.1667,5,0.16667,2.6667,2.6667,2.6667,2.6667,2.6667,2.6667,0,2.5,2.5,2.5,2.5,2.5,2.5,0,1,67
3,695.54,695.54,695.54,699.57,703.6,698.22,4.6552,37910,37910,37911,37911,37912,37911,1,4.8333,4.8333,5,5.0833,5.1667,5,0.16667,2.6667,2.6667,2.6667,2.6667,2.6667,2.6667,0,2.5,2.5,2.5,2.5,2.5,2.5,0,1,68
3,685.46,685.46,685.46,689.38,693.29,688.07,4.5214,37910,37910,37911,37911,37912,37911,1,4.8333,4.8333,5,5.0833,5.1667,5,0.16667,2.6667,2.6667,2.6667,2.6667,2.6667,2.6667,0,2.5,2.5,2.5,2.5,2.5,2.5,0,1,69
3,675.66,675.66,675.66,679.47,683.27,678.2,4.3937,37910,37910,37911,37911,37912,37911,1,4.8333,4.8333,5,5.0833,5.1667,5,0.16667,2.6667,2.6667,2.6667,2.6667,2.6667,2.6667,0,2.5,2.5,2.5,2.5,2.5,2.5,0,1,70
3,666.13,666.13,666.13,669.83,673.53,668.6,4.2717,37910,37910,37911,37911,37912,37911,1,4.8333,4.8333,5,5.0833,5.1667,5,0.16667,2.6667,2.6667,2.6667,2.6667,2.6667,2.6667,0,2.5,2.5,2.5,2.5,2.5,2.5,0,1,71
3,656.85,656.85,656.85,660.45,664.05,659.25,4.1551,37910,37910,37911,37911,37912,37911,1,4.8333,4.8333,5,5.0833,5.1667,5,0.16667,2.6667,2.6667,2.6667,2.6667,2.6667,2.6667,0,2.5,2.5,2.5,2.5,2.5,2.5,0,1,72
3,647.81,647.81,647.81,651.31,654.82,650.15,4.0434,37910,37910,37911,37911,37912,37911,1,4.8333,4.8333,5,5.0833,5.1667,5,0.16667,2.6667,2.6667,2.6667,2.6667,2.6667,2.6667,0,2.5,2.5,2.5,2.5,2.5,2.5,0,1,73
3,639.01,639.01,639.01,642.42,645.83,641.28,3.9364,37910,37910,37911,37911,37912,37911,1,4.8333,4.8333,5,5.0833,5.1667,5,0.16667,2.6667,2.6667,2.6667,2.6667,2.6667,2.6667,0,2.5,2.5,2.5,2.5,2.5,2.5,0,1,74
3,630.43,630.43,630.43,633.75,637.07,632.64,3.8338,37910,37910,37911,37911,37912,37911,1,4.8333,4.8333,5,5.0833,5.1667,5,0.16667,2.6667,2.6667,2.6667,2.6667,2.6667,2.6667,0,2.5,2.5,2.5,2.5,2.5,2.5,0,1,75
3,622.06,622.06,622.06,625.3,628.53,624.22,3.7354,37910,37910,37911,37911,37912,37911,1,4.8333,4.8333,5,5.0833,5.1667,5,0.16667,2.6667,2.6667,2.6667,2.6667,2.6667,2.6667,0,2.5,2.5,2.5,2.5,2.5,2.5,0,1,76
3,613.9,613.9,613.9,617.05,620.21,616,3.6409,37910,37910,37911,37911,37912,37911,1,4.8333,4.8333,5,5.0833,5.1667,5,0.16667,2.6667,2.6667,2.6667,2.6667,2.6667,2.6667,0,2.5,2.5,2.5,2.5,2.5,2.5,0,1,77
3,605.94,605.94,605.94,609.01,612.09,607.99,3.5501,37910,37910,37911,37911,37912,37911,1,4.8333,4.8333,5,5.0833,5.1667,5,0.16667,2.6667,2.6667,2.6667,2.6667,2.6667,2.6667,0,2.5,2.5,2.5,2.5,2.5,2.5,0,1,78
3,598.17,598.17,598.17,601.17,604.17,600.17,3.4627,37910,37910,37911,37911,37912,37911,1,4.8333,4.8333,5,5.0833,5.1667,5,0.16667,2.6667,2.6667,2.6667,2.6667,2.6667,2.6667,0,2.5,2.5,2.5,2.5,2.5,2.5,0,1,79
3,590.58,590.58,590.58,593.51,596.43,592.53,3.3787,37910,37910,37911,37911,37912,37911,1,4.8333,4.8333,5,5.0833,5.1667,5,0.16667,2.6667,2.6667,2.6667,2.6667,2.6667,2.6667,0,2.5,2.5,2.5,2.5,2.5,2.5,0,1,80
3,583.17,583.17,583.17,586.03,588.88,585.07,3.2977,37910,37910,37911,37911,37912,37911,1,4.8333,4.8333,5,5.0833,5.1667,5,0.16667,2.6667,2.6667,2.6667,2.6667,2.6667,2.6667,0,2.5,2.5,2.5,2.5,2.5,2.5,0,1,81
3,575.93,575.93,575.93,578.72,581.51,577.79,3.2197,37910,37910,37911,37911,37912,37911,1,4.8333,4.8333,5,5.0833,5.1667,5,0.16667,2.6667,2.6667,2.6667,2.6667,2.6667,2.6667,0,2.5,2.5,2.5,2.5,2.5,2.5,0,1,82
3,568.85,568.85,568.85,571.58,574.3,570.67,3.1446,37910,37910,37911,37911,37912,37911,1,4.8333,4.8333,5,5.0833,5.1667,5,0.16667,2.6667,2.6667,2.6667,2.6667,2.6667,2.6667,0,2.5,2.5,2.5,2.5,2.5,2.5,0,1,83
3,561.94,561.94,561.94,564.6,567.26,563.71,3.072,37910,37910,37911,37911,37912,37911,1,4.8333,4.8333,5,5.0833,5.1667,5,0.16667,2.6667,2.6667,2.6667,2.6667,2.6667,2.6667,0,2.5,2.5,2.5,2.5,2.5,2.5,0,1,84
3,555.17,555.17,555.17,557.77,560.37,556.9,3.002,37910,37910,37911,37911,37912,37911,1,4.8333,4.8333,5,5.0833,5.1667,5,0.16667,2.6667,2.6667,2.6667,2.6667,2.6667,2.6667,0,2.5,2.5,2.5,2.5,2.5,2.5,0,1,85
3,548.55,548.55,548.55,551.09,553.63,550.25,2.9344,37910,37910,37911,37911,37912,37911,1,4.8333,4.8333,5,5.0833,5.1667,5,0.16667,2.6667,2.6667,2.6667,2.6667,2.6667,2.6667,0,2.5,2.5,2.5,2.5,2.5,2.5,0,1,86
3,542.07,542.07,542.07,544.56,547.04,543.73,2.8691,37910,37910,37911,37911,37912,37911,1,4.8333,4.8333,5,5.0833,5.1667,5,0.16667,2.6667,2.6667,2.6667,2.6667,2.6667,2.6667,0,2.5,2.5,2.5,2.5,2.5,2.5,0,1,87
3,535.74,535.74,535.74,538.17,540.6,537.36,2.8059,37910,37910,37911,37911,37912,37911,1,4.8333,4.8333,5,5.0833,5.1667,5,0.16667,2.6667,2.6667,2.6667,2.6667,2.6667,2.6667,0,2.5,2.5,2.5,2.5,2.5,2.5,0,1,88
3,529.53,529.53,529.53,531.91,534.28,531.11,2.7449,37910,37910,37911,37911,37912,37911,1,4.8333,4.8333,5,5.0833,5.1667,5,0.16667,2.6667,2.6667,2.6667,2.6667,2.6667,2.6667,0,2.5,2.5,2.5,2.5,2.5,2.5,0,1,89
3,523.45,523.45,523.45,525.78,528.1,525,2.6858,37910,37910,37911,37911,37912,37911,1,4.8333,4.8333,5,5.0833,5.1667,5,0.16667,2.6667,2.6667,2.6667,2.6667,2.6667,2.6667,0,2.5,2.5,2.5,2.5,2.5,2.5,0,1,90
3,517.5,517.5,517.5,519.78,522.05,519.02,2.6286,37910,37910,37911,37911,37912,37911,1,4.8333,4.8333,5,5.0833,5.1667,5,0.16667,2.6667,2.6667,2.6667,2.6667,2.6667,2.6667,0,2.5,2.5,2.5,2.5,2.5,2.5,0,1,91
3,511.67,511.67,511.67,513.89,516.12,513.15,2.5732,37910,37910,37911,37911,37912,37911,1,4.8333,4.8333,5,5.0833,5.1667,5,0.16667,2.6667,2.6667,2.6667,2.6667,2.6667,2.6667,0,2.5,2.5,2.5,2.5,2.5,2.5,0,1,92
3,505.95,505.95,505.95,508.13,510.31,507.4,2.5196,37910,37910,37911,37911,37912,37911,1,4.8333,4.8333,5,5.0833,5.1667,5,0.16667,2.6667,2.6667,2.6667,2.6667,2.6667,2.6667,0,2.5,2.5,2.5,2.5,2.5,2.5,0,1,93
3,500.35,500.35,500.35,502.48,504.62,501.77,2.4676,37910,37910,37911,37911,37912,37911,1,4.8333,4.8333,5,5.0833,5.1667,5,0.16667,2.6667,2.6667,2.6667,2.6667,2.6667,2.6667,0,2.5,2.5,2.5,2.5,2.5,2.5,0,1,94
3,494.85,494.85,494.85,496.94,499.04,496.25,2.4172,37910,37910,37911,37911,37912,37911,1,4.8333,4.8333,5,5.0833,5.1667,5,0.16667,2.6667,2.6667,2.6667,2.6667,2.6667,2.6667,0,2.5,2.5,2.5,2.5,2.5,2.5,0,1,95
3,489.46,489.46,489.46,491.51,493.56,490.83,2.3682,37910,37910,37911,37911,37912,37911,1,4.8333,4.8333,5,5.0833,5.1667,5,0.16667,2.6667,2.6667,2.6667,2.6667,2.6667,2.6667,0,2.5,2.5,2.5,2.5,2.5,2.5,0,1,96
3,484.18,484.18,484.18,486.19,488.2,485.52,2.3208,37910,37910,37911,37911,37912,37911,1,4.8333,4.8333,5,5.0833,5.1667,5,0.16667,2.6667,2.6667,2.6667,2.6667,2.6667,2.6667,0,2.5,2.5,2.5,2.5,2.5,2.5,0,1,97
3,478.99,478.99,478.99,480.96,482.93,480.3,2.2747,37910,37910,37911,37911,37912,37911,1,4.8333,4.8333,5,5.0833,5.1667,5,0.16667,2.6667,2.6667,2.6667,2.6667,2.6667,2.6667,0,2.5,2.5,2.5,2.5,2.5,2.5,0,1,98
3,473.9,473.9,473.9,475.83,477.76,475.19,2.23,37910,37910,37911,37911,37912,37911,1,4.8333,4.8333,5,5.0833,5.1667,5,0.16667,2.6667,2.6667,2.6667,2.6667,2.6667,2.6667,0,2.5,2.5,2.5,2.5,2.5,2.5,0,1,99
3,468.9,468.9,468.9,470.8,472.69,470.17,2.1866,37910,37910,37911,37911,37912,37911,1,4.8333,4.8333,5,5.0833,5.1667,5,0.16667,2.6667,2.6667,2.6667,2.6667,2.6667,2.6667,0,2.5,2.5,2.5,2.5,2.5,2.5,0,1,100
3,464,464,464,465.85,467.71,465.24,2.1444,37910,37910,37911,37911,37912,37911,1,4.8333,4.8333,5,5.0833,5.1667,5,0.16667,2.6667,2.6667,2.6667,2.6667,2.6667,2.6667,0,2.5,2.5,2.5,2.5,2.5,2.5,0,1,101
3,459.18,459.18,459.18,461,462.82,460.39,2.1033,37910,37910,37911,37911,37912,37911,1,4.8333,4.8333,5,5.0833,5.1667,5,0.16667,2.6667,2.6667,2.6667,2.6667,2.6667,2.6667,0,2.5,2.5,2.5,2.5,2.5,2.5,0,1,102
3,454.45,454.45,454.45,456.24,458.02,455.64,2.0635,37910,37910,37911,37911,37912,37911,1,4.8333,4.8333,5,5.0833,5.1667,5,0.16667,2.6667,2.6667,2.6667,2.6667,2.6667,2.6667,0,2.5,2.5,2.5,2.5,2.5,2.5,0,1,103
3,449.8,449.8,449.8,451.55,453.31,450.97,2.0247,37910,37910,37911,37911,37912,37911,1,4.8333,4.8333,5,5.0833,5.1667,5,0.16667,2.6667,2.6667,2.6667,2.6667,2.6667,2.6667,0,2.5,2.5,2.5,2.5,2.5,2.5,0,1,104
3,445.23,445.23,445.23,446.95,448.68,446.38,1.9869,37910,37910,37911,37911,37912,37911,1,4.8333,4.8333,5,5.0833,5.1667,5,0.16667,2.6667,2.6667,2.6667,2.6667,2.6667,2.6667,0,2.5,2.5,2.5,2.5,2.5,2.5,0,1,105
3,440.75,440.75,440.75,442.43,444.12,441.87,1.9502,37910,37910,37911,37911,37912,37911,1,4.8333,4.8333,5,5.0833,5.1667,5,0.16667,2.6667,2.6667,2.6667,2.6667,2.6667,2.6667,0,2.5,2.5,2.5,2.5,2.5,2.5,0,1,106
3,436.33,436.33,436.33,437.99,439.65,437.44,1.9145,37910,37910,37911,37911,37912,37911,1,4.8333,4.8333,5,5.0833,5.1667,5,0.16667,2.6667,2.6667,2.6667,2.6667,2.6667,2.6667,0,2.5,2.5,2.5,2.5,2.5,2.5,0,1,107
3,432,432,432,433.62,435.25,433.08,1.8797,37910,37910,37911,37911,37912,37911,1,4.8333,4.8333,5,5.0833,5.1667,5,0.16667,2.6667,2.6667,2.6667,2.6667,2.6667,2.6667,0,2.5,2.5,2.5,2.5,2.5,2.5,0,1,108
3,427.73,427.73,427.73,429.33,430.93,428.8,1.8458,37910,37910,37911,37911,37912,37911,1,4.8333,4.8333,5,5.0833,5.1667,5,0.16667,2.6667,2.6667,2.6667,2.6667,2.6667,2.6667,0,2.5,2.5,2.5,2.5,2.5,2.5,0,1,109
3,423.54,423.54,423.54,425.11,426.68,424.58,1.8128,37910,37910,37911,37911,37912,37911,1,4.8333,4.8333,5,5.0833,5.1667,5,0.16667,2.6667,2.6667,2.6667,2.6667,2.6667,2.6667,0,2.5,2.5,2.5,2.5,2.5,2.5,0,1,110
3,419.41,419.41,419.41,420.95,422.5,420.44,1.7806,37910,37910,37911,37911,37912,37911,1,4.8333,4.8333,5,5.0833,5.1667,5,0.16667,2.6667,2.6667,2.6667,2.6667,2.6667,2.6667,0,2.5,2.5,2.5,2.5,2.5,2.5,0,1,111
3,415.35,415.35,415.35,416.87,418.38,416.36,1.7492,37910,37910,37911,37911,37912,37911,1,4.8333,4.8333,5,5.0833,5.1667,5,0.16667,2.6667,2.6667,2.6667,2.6667,2.6667,2.6667,0,2.5,2.5,2.5,2.5,2.5,2.5,0,1,112
3,411.36,411.36,411.36,412.85,414.34,412.35,1.7186,37910,37910,37911,37911,37912,37911,1,4.8333,4.8333,5,5.0833,5.1667,5,0.16667,2.6667,2.6667,2.6667,2.6667,2.6667,2.6667,0,2.5,2.5,2.5,2.5,2.5,2.5,0,1,113
3,407.43,407.43,407.43,408.89,410.36,408.41,1.6888,37910,37910,37911,37911,37912,37911,1,4.8333,4.8333,5,5.0833,5.1667,5,0.16667,2.6667,2.6667,2.6667,2.6667,2.6667,2.6667,0,2.5,2.5,2.5,2.5,2.5,2.5,0,1,114
3,403.56,403.56,403.56,405,406.44,404.52,1.6598,37910,37910,37911,37911,37912,37911,1,4.8333,4.8333,5,5.0833,5.1667,5,0.16667,2.6667,2.6667,2.6667,2.6667,2.6667,2.6667,0,2.5,2.5,2.5,2.5,2.5,2.5,0,1,115
3,399.76,399.76,399.76,401.17,402.58,400.7,1.6314,37910,37910,37911,37911,37912,37911,1,4.8333,4.8333,5,5.0833,5.1667,5,0.16667,2.6667,2.6667,2.6667,2.6667,2.6667,2.6667,0,2.5,2.5,2.5,2.5,2.5,2.5,0,1,116
3,396.01,396.01,396.01,397.4,398.79,396.93,1.6037,37910,37910,37911,37911,37912,37911,1,4.8333,4.8333,5,5.0833,5.1667,5,0.16667,2.6667,2.6667,2.6667,2.6667,2.6667,2.6667,0,2.5,2.5,2.5,2.5,2.5,2.5,0,1,117
3,392.32,392.32,392.32,393.68,395.05,393.23,1.5767,37910,37910,37911,37911,37912,37911,1,4.8333,4.8333,5,5.0833,5.1667,5,0.16667,2.6667,2.6667,2.6667,2.6667,2.6667,2.6667,0,2.5,2.5,2.5,2.5,2.5,2.5,0,1,118
3,388.68,388.68,388.68,390.03,391.37,389.58,1.5503,37910,37910,37911,37911,37912,37911,1,4.8333,4.8333,5,5.0833,5.1667,5,0.16667,2.6667,2.6667,2.6667,2.6667,2.6667,2.6667,0,2.5,2.5,2.5,2.5,2.5,2.5,0,1,119
3,385.1,385.1,385.1,386.42,387.74,385.98,1.5245,37910,37910,37911,37911,37912,37911,1,4.8333,4.8333,5,5.0833,5.1667,5,0.16667,2.6667,2.6667,2.6667,2.6667,2.6667,2.6667,0,2.5,2.5,2.5,2.5,2.5,2.5,0,1,120
3,381.58,381.58,381.58,382.87,384.17,382.44,1.4994,37910,37910,37911,37911,37912,37911,1,4.8333,4.8333,5,5.0833,5.1667,5,0.16667,2.6667,2.6667,2.6667,2.6667,2.6667,2.6667,0,2.5,2.5,2.5,2.5,2.5,2.5,0,1,121
3,378.1,378.1,378.1,379.38,380.66,378.95,1.4748,37910,37910,37911,37911,37912,37911,1,4.8333,4.8333,5,5.0833,5.1667,5,0.16667,2.6667,2.6667,2.6667,2.6667,2.6667,2.6667,0,2.5,2.5,2.5,2.5,2.5,2.5,0,1,122
3,374.68,374.68,374.68,375.93,377.19,375.51,1.4508,37910,37910,37911,37911,37912,37911,1,4.8333,4.8333,5,5.0833,5.1667,5,0.16667,2.6667,2.6667,2.6667,2.6667,2.6667,2.6667,0,2.5,2.5,2.5,2.5,2.5,2.5,0,1,123
3,371.3,371.3,371.3,372.54,373.77,372.13,1.4273,37910,37910,37911,37911,37912,37911,1,4.8333,4.8333,5,5.0833,5.1667,5,0.16667,2.6667,2.6667,2.6667,2.6667,2.6667,2.6667,0,2.5,2.5,2.5,2.5,2.5,2.5,0,1,124
3,367.98,367.98,367.98,369.19,370.41,368.79,1.4044,37910,37910,37911,37911,37912,37911,1,4.8333,4.8333,5,5.0833,5.1667,5,0.16667,2.6667,2.6667,2.6667,2.6667,2.6667,2.6667,0,2.5,2.5,2.5,2.5,2.5,2.5,0,1,125
3,364.7,364.7,364.7,365.9,367.09,365.5,1.382,37910,37910,37911,37911,37912,37911,1,4.8333,4.8333,5,5.0833,5.1667,5,0.16667,2.6667,2.6667,2.6667,2.6667,2.6667,2.6667,0,2.5,2.5,2.5,2.5,2.5,2.5,0,1,126
3,361.47,361.47,361.47,362.64,363.82,362.25,1.3601,37910,37910,37911,37911,37912,37911,1,4.8333,4.8333,5,5.0833,5.1667,5,0.16667,2.6667,2.6667,2.6667,2.6667,2.6667,2.6667,0,2.5,2.5,2.5,2.5,2.5,2.5,0,1,127
3,358.28,358.28,358.28,359.44,360.6,359.05,1.3386,37910,37910,37911,37911,37912,37911,1,4.8333,4.8333,5,5.0833,5.1667,5,0.16667,2.6667,2.6667,2.6667,2.6667,2.6667,2.6667,0,2.5,2.5,2.5,2.5,2.5,2.5,0,1,128
3,355.14,355.14,355.14,356.28,357.42,355.9,1.3177,37910,37910,37911,37911,37912,37911,1,4.8333,4.8333,5,5.0833,5.1667,5,0.16667,2.6667,2.6667,2.6667,2.6667,2.6667,2.6667,0,2.5,2.5,2.5,2.5,2.5,2.5,0,1,129
3,352.04,352.04,352.04,353.16,354.28,352.79,1.2972,37910,37910,37911,37911,37912,37911,1,4.8333,4.8333,5,5.0833,5.1667,5,0.16667,2.6667,2.6667,2.6667,2.6667,2.6667,2.6667,0,2.5,2.5,2.5,2.5,2.5,2.5,0,1,130
3,348.98,348.98,348.98,350.09,351.19,349.72,1.2771,37910,37910,37911,37911,37912,37911,1,4.8333,4.8333,5,5.0833,5.1667,5,0.16667,2.6667,2.6667,2.6667,2.6667,2.6667,2.6667,0,2.5,2.5,2.5,2.5,2.5,2.5,0,1,131
3,345.97,345.97,345.97,347.05,348.14,346.69,1.2574,37910,37910,37911,37911,37912,37911,1,4.8333,4.8333,5,5.0833,5.1667,5,0.16667,2.6667,2.6667,2.6667,2.6667,2.6667,2.6667,0,2.5,2.5,2.5,2.5,2.5,2.5,0,1,132
3,342.99,342.99,342.99,344.06,345.13,343.71,1.2382,37910,37910,37911,37911,37912,37911,1,4.8333,4.8333,5,5.0833,5.1667,5,0.16667,2.6667,2.6667,2.6667,2.6667,2.6667,2.6667,0,2.5,2.5,2.5,2.5,2.5,2.5,0,1,133
3,340.05,340.05,340.05,341.11,342.17,340.76,1.2194,37910,37910,37911,37911,37912,37911,1,4.8333,4.8333,5,5.0833,5.1667,5,0.16667,2.6667,2.6667,2.6667,2.6667,2.6667,2.6667,0,2.5,2.5,2.5,2.5,2.5,2.5,0,1,134
3,337.16,337.16,337.16,338.2,339.24,337.85,1.201,37910,37910,37911,37911,37912,37911,1,4.8333,4.8333,5,5.0833,5.1667,5,0.16667,2.6667,2.6667,2.6667,2.6667,2.6667,2.6667,0,2.5,2.5,2.5,2.5,2.5,2.5,0,1,135
3,334.3,334.3,334.3,335.32,336.35,334.98,1.1829,37910,37910,37911,37911,37912,37911,1,4.8333,4.8333,5,5.0833,5.1667,5,0.16667,2.6667,2.6667,2.6667,2.6667,2.6667,2.6667,0,2.5,2.5,2.5,2.5,2.5,2.5,0,1,136
3,331.48,331.48,331.48,332.49,333.5,332.15,1.1653,37910,37910,37911,37911,37912,37911,1,4.8333,4.8333,5,5.0833,5.1667,5,0.16667,2.6667,2.6667,2.6667,2.6667,2.6667,2.6667,0,2.5,2.5,2.5,2.5,2.5,2.5,0,1,137
3,328.69,328.69,328.69,329.69,330.68,329.36,1.1479,37910,37910,37911,37911,37912,37911,1,4.8333,4.8333,5,5.0833,5.1667,5,0.16667,2.6667,2.6667,2.6667,2.6667,2.6667,2.6667,0,2.5,2.5,2.5,2.5,2.5,2.5,0,1,138
3,325.94,325.94,325.94,326.92,327.9,326.6,1.131,37910,37910,37911,37911,37912,37911,1,4.8333,4.8333,5,5.0833,5.1667,5,0.16667,2.6667,2.6667,2.6667,2.6667,2.6667,2.6667,0,2.5,2.5,2.5,2.5,2.5,2.5,0,1,139
3,323.23,323.23,323.23,324.2,325.16,323.87,1.1144,37910,37910,37911,37911,37912,37911,1,4.8333,4.8333,5,5.0833,5.1667,5,0.16667,2.6667,2.6667,2.6667,2.6667,2.6667,2.6667,0,2.5,2.5,2.5,2.5,2.5,2.5,0,1,140
3,320.55,320.55,320.55,321.5,322.45,321.18,1.0981,37910,37910,37911,37911,37912,37911,1,4.8333,4.8333,5,5.0833,5.1667,5,0.16667,2.6667,2.6667,2.6667,2.6667,2.6667,2.6667,0,2.5,2.5,2.5,2.5,2.5,2.5,0,1,141
3,317.9,317.9,317.9,318.84,319.78,318.53,1.0821,37910,37910,37911,37911,37912,37911,1,4.8333,4.8333,5,5.0833,5.1667,5,0.16667,2.6667,2.6667,2.6667,2.6667,2.6667,2.6667,0,2.5,2.5,2.5,2.5,2.5,2.5,0,1,142
3,315.29,315.29,315.29,316.21,317.14,315.91,1.0665,37910,37910,37911,37911,37912,37911,1,4.8333,4.8333,5,5.0833,5.1667,5,0.16667,2.6667,2.6667,2.6667,2.6667,2.6667,2.6667,0,2.5,2.5,2.5,2.5,2.5,2.5,0,1,143
3,312.71,312.71,312.71,313.62,314.53,313.32,1.0511,37910,37910,37911,37911,37912,37911,1,4.8333,4.8333,5,5.0833,5.1667,5,0.16667,2.6667,2.6667,2.6667,2.6667,2.6667,2.6667,0,2.5,2.5,2.5,2.5,2.5,2.5,0,1,144
3,310.16,310.16,310.16,311.06,311.95,310.76,1.0361,37910,37910,37911,37911,37912,37911,1,4.8333,4.8333,5,5.0833,5.1667,5,0.16667,2.6667,2.6667,2.6667,2.6667,2.6667,2.6667,0,2.5,2.5,2.5,2.5,2.5,2.5,0,1,145
3,307.64,307.64,307.64,308.53,309.41,308.23,1.0213,37910,37910,37911,37911,37912,37911,1,4.8333,4.8333,5,5.0833,5.1667,5,0.16667,2.6667,2.6667,2.6667,2.6667,2.6667,2.6667,0,2.5,2.5,2.5,2.5,2.5,2.5,0,1,146
3,305.15,305.15,305.15,306.03,306.9,305.73,1.0069,37910,37910,37911,37911,37912,37911,1,4.8333,4.8333,5,5.0833,5.1667,5,0.16667,2.6667,2.6667,2.6667,2.6667,2.6667,2.6667,0,2.5,2.5,2.5,2.5,2.5,2.5,0,1,147
3,302.7,302.7,302.7,303.56,304.41,303.27,0.99269,37910,37910,37911,37911,37912,37911,1,4.8333,4.8333,5,5.0833,5.1667,5,0.16667,2.6667,2.6667,2.6667,2.6667,2.6667,2.6667,0,2.5,2.5,2.5,2.5,2.5,2.5,0,1,148
3,300.27,300.27,300.27,301.11,301.96,300.83,0.97877,37910,37910,37911,37911,37912,37911,1,4.8333,4.8333,5,5.0833,5.1667,5,0.16667,2.6667,2.6667,2.6667,2.6667,2.6667,2.6667,0,2.5,2.5,2.5,2.5,2.5,2.5,0,1,149
3,297.87,297.87,297.87,298.7,299.54,298.42,0.96511,37910,37910,37911,37911,37912,37911,1,4.8333,4.8333,5,5.0833,5.1667,5,0.16667,2.6667,2.6667,2.6667,2.6667,2.6667,2.6667,0,2.5,2.5,2.5,2.5,2.5,2.5,0,1,150
3,295.49,295.49,295.49,296.32,297.14,296.04,0.95171,37910,37910,37911,37911,37912,37911,1,4.8333,4.8333,5,5.0833,5.1667,5,0.16667,2.6667,2.6667,2.6667,2.6667,2.6667,2.6667,0,2.5,2.5,2.5,2.5,2.5,2.5,0,1,151
3,293.15,293.15,293.15,293.96,294.78,293.69,0.93856,37910,37910,37911,37911,37912,37911,1,4.8333,4.8333,5,5.0833,5.1667,5,0.16667,2.6667,2.6667,2.6667,2.6667,2.6667,2.6667,0,2.5,2.5,2.5,2.5,2.5,2.5,0,1,152
3,290.83,290.83,290.83,291.63,292.44,291.37,0.92565,37910,37910,37911,37911,37912,37911,1,4.8333,4.8333,5,5.0833,5.1667,5,0.16667,2.6667,2.6667,2.6667,2.6667,2.6667,2.6667,0,2.5,2.5,2.5,2.5,2.5,2.5,0,1,153
3,288.54,288.54,288.54,289.33,290.12,289.07,0.91298,37910,37910,37911,37911,37912,37911,1,4.8333,4.8333,5,5.0833,5.1667,5,0.16667,2.6667,2.6667,2.6667,2.6667,2.6667,2.6667,0,2.5,2.5,2.5,2.5,2.5,2.5,0,1,154
3,286.28,286.28,286.28,287.06,287.84,286.8,0.90055,37910,37910,37911,37911,37912,37911,1,4.8333,4.8333,5,5.0833,5.1667,5,0.16667,2.6667,2.6667,2.6667,2.6667,2.6667,2.6667,0,2.5,2.5,2.5,2.5,2.5,2.5,0,1,155
3,284.04,284.04,284.04,284.81,285.58,284.55,0.88833,37910,37910,37911,37911,37912,37911,1,4.8333,4.8333,5,5.0833,5.1667,5,0.16667,2.6667,2.6667,2.6667,2.6667,2.6667,2.6667,0,2.5,2.5,2.5,2.5,2.5,2.5,0,1,156
3,281.83,281.83,281.83,282.59,283.35,282.33,0.87634,37910,37910,37911,37911,37912,37911,1,4.8333,4.8333,5,5.0833,5.1667,5,0.16667,2.6667,2.6667,2.6667,2.6667,2.6667,2.6667,0,2.5,2.5,2.5,2.5,2.5,2.5,0,1,157
3,279.64,279.64,279.64,280.39,281.14,280.14,0.86457,37910,37910,37911,37911,37912,37911,1,4.8333,4.8333,5,5.0833,5.1667,5,0.16667,2.6667,2.6667,2.6667,2.6667,2.6667,2.6667,0,2.5,2.5,2.5,2.5,2.5,2.5,0,1,158
3,277.48,277.48,277.48,278.21,278.95,277.97,0.853,37910,37910,37911,37911,37912,37911,1,4.8333,4.8333,5,5.0833,5.1667,5,0.16667,2.6667,2.6667,2.6667,2.6667,2.6667,2.6667,0,2.5,2.5,2.5,2.5,2.5,2.5,0,1,159
3,275.34,275.34,275.34,276.06,276.79,275.82,0.84164,37910,37910,37911,37911,37912,37911,1,4.8333,4.8333,5,5.0833,5.1667,5,0.16667,2.6667,2.6667,2.6667,2.6667,2.6667,2.6667,0,2.5,2.5,2.5,2.5,2.5,2.5,0,1,160
3,273.22,273.22,273.22,273.94,274.66,273.7,0.83048,37910,37910,37911,37911,37912,37911,1,4.8333,4.8333,5,5.0833,5.1667,5,0.16667,2.6667,2.6667,2.6667,2.6667,2.6667,2.6667,0,2.5,2.5,2.5,2.5,2.5,2.5,0,1,161
3,271.13,271.13,271.13,271.84,272.55,271.6,0.81952,37910,37910,37911,37911,37912,37911,1,4.8333,4.8333,5,5.0833,5.1667,5,0.16667,2.6667,2.6667,2.6667,2.6667,2.6667,2.6667,0,2.5,2.5,2.5,2.5,2.5,2.5,0,1,162
3,269.06,269.06,269.06,269.76,270.46,269.52,0.80875,37910,37910,37911,37911,37912,37911,1,4.8333,4.8333,5,5.0833,5.1667,5,0.16667,2.6667,2.6667,2.6667,2.6667,2.6667,2.6667,0,2.5,2.5,2.5,2.5,2.5,2.5,0,1,163
3,267.01,267.01,267.01,267.7,268.39,267.47,0.79817,37910,37910,37911,37911,37912,37911,1,4.8333,4.8333,5,5.0833,5.1667,5,0.16667,2.6667,2.6667,2.6667,2.6667,2.6667,2.6667,0,2.5,2.5,2.5,2.5,2.5,2.5,0,1,164
3,264.98,264.98,264.98,265.66,266.35,265.44,0.78777,37910,37910,37911,37911,37912,37911,1,4.8333,4.8333,5,5.0833,5.1667,5,0.16667,2.6667,2.6667,2.6667,2.6667,2.6667,2.6667,0,2.5,2.5,2.5,2.5,2.5,2.5,0,1,165
3,262.98,262.98,262.98,263.65,264.32,263.43,0.77754,37910,37910,37911,37911,37912,37911,1,4.8333,4.8333,5,5.0833,5.1667,5,0.16667,2.6667,2.6667,2.6667,2.6667,2.6667,2.6667,0,2.5,2.5,2.5,2.5,2.5,2.5,0,1,166
3,261,261,261,261.66,262.32,261.44,0.76749,37910,37910,37911,37911,37912,37911,1,4.8333,4.8333,5,5.0833,5.1667,5,0.16667,2.6667,2.6667,2.6667,2.6667,2.6667,2.6667,0,2.5,2.5,2.5,2.5,2.5,2.5,0,1,167
3,259.03,259.03,259.03,259.69,260.35,259.47,0.75762,37910,37910,37911,37911,37912,37911,1,4.8333,4.8333,5,5.0833,5.1667,5,0.16667,2.6667,2.6667,2.6667,2.6667,2.6667,2.6667,0,2.5,2.5,2.5,2.5,2.5,2.5,0,1,168
3,257.09,257.09,257.09,257.74,258.39,257.52,0.74791,37910,37910,37911,37911,37912,37911,1,4.8333,4.8333,5,5.0833,5.1667,5,0.16667,2.6667,2.6667,2.6667,2.6667,2.6667,2.6667,0,2.5,2.5,2.5,2.5,2.5,2.5,0,1,169
3,255.17,255.17,255.17,255.81,256.45,255.6,0.73836,37910,37910,37911,37911,37912,37911,1,4.8333,4.8333,5,5.0833,5.1667,5,0.16667,2.6667,2.6667,2.6667,2.6667,2.6667,2.6667,0,2.5,2.5,2.5,2.5,2.5,2.5,0,1,170
3,253.27,253.27,253.27,253.9,254.53,253.69,0.72897,37910,37910,37911,37911,37912,37911,1,4.8333,4.8333,5,5.0833,5.1667,5,0.16667,2.6667,2.6667,2.6667,2.6667,2.6667,2.6667,0,2.5,2.5,2.5,2.5,2.5,2.5,0,1,171
3,251.39,251.39,251.39,252.01,252.64,251.8,0.71974,37910,37910,37911,37911,37912,37911,1,4.8333,4.8333,5,5.0833,5.1667,5,0.16667,2.6667,2.6667,2.6667,2.6667,2.6667,2.6667,0,2.5,2.5,2.5,2.5,2.5,2.5,0,1,172
3,249.53,249.53,249.53,250.14,250.76,249.94,0.71066,37910,37910,37911,37911,37912,37911,1,4.8333,4.8333,5,5.0833,5.1667,5,0.16667,2.6667,2.6667,2.6667,2.6667,2.6667,2.6667,0,2.5,2.5,2.5,2.5,2.5,2.5,0,1,173
3,247.68,247.68,247.68,248.29,248.9,248.09,0.70173,37910,37910,37911,37911,37912,37911,1,4.8333,4.8333,5,5.0833,5.1667,5,0.16667,2.6667,2.6667,2.6667,2.6667,2.6667,2.6667,0,2.5,2.5,2.5,2.5,2.5,2.5,0,1,174
3,245.86,245.86,245.86,246.46,247.06,246.26,0.69295,37910,37910,37911,37911,37912,37911,1,4.8333,4.8333,5,5.0833,5.1667,5,0.16667,2.6667,2.6667,2.6667,2.6667,2.6667,2.6667,0,2.5,2.5,2.5,2.5,2.5,2.5,0,1,175
3,244.05,244.05,244.05,244.65,245.24,244.45,0.68431,37910,37910,37911,37911,37912,37911,1,4.8333,4.8333,5,5.0833,5.1667,5,0.16667,2.6667,2.6667,2.6667,2.6667,2.6667,2.6667,0,2.5,2.5,2.5,2.5,2.5,2.5,0,1,176
3,242.27,242.27,242.27,242.85,243.44,242.66,0.67581,37910,37910,37911,37911,37912,37911,1,4.8333,4.8333,5,5.0833,5.1667,5,0.16667,2.6667,2.6667,2.6667,2.6667,2.6667,2.6667,0,2.5,2.5,2.5,2.5,2.5,2.5,0,1,177
3,240.5,240.5,240.5,241.08,241.65,240.88,0.66745,37910,37910,37911,37911,37912,37911,1,4.8333,4.8333,5,5.0833,5.1667,5,0.16667,2.6667,2.6667,2.6667,2.6667,2.6667,2.6667,0,2.5,2.5,2.5,2.5,2.5,2.5,0,1,178
3,238.75,238.75,238.75,239.32,239.89,239.13,0.65922,37910,37910,37911,37911,37912,37911,1,4.8333,4.8333,5,5.0833,5.1667,5,0.16667,2.6667,2.6667,2.6667,2.6667,2.6667,2.6667,0,2.5,2.5,2.5,2.5,2.5,2.5,0,1,179
3,237.01,237.01,237.01,237.58,238.14,237.39,0.65113,37910,37910,37911,37911,37912,37911,1,4.8333,4.8333,5,5.0833,5.1667,5,0.16667,2.6667,2.6667,2.6667,2.6667,2.6667,2.6667,0,2.5,2.5,2.5,2.5,2.5,2.5,0,1,180
3,235.29,235.29,235.29,235.85,236.41,235.67,0.64316,37910,37910,37911,37911,37912,37911,1,4.8333,4.8333,5,5.0833,5.1667,5,0.16667,2.6667,2.6667,2.6667,2.6667,2.6667,2.6667,0,2.5,2.5,2.5,2.5,2.5,2.5,0,1,181
3,233.59,233.59,233.59,234.14,234.69,233.96,0.63532,37910,37910,37911,37911,37912,37911,1,4.8333,4.8333,5,5.0833,5.1667,5,0.16667,2.6667,2.6667,2.6667,2.6667,2.6667,2.6667,0,2.5,2.5,2.5,2.5,2.5,2.5,0,1,182
3,231.91,231.91,231.91,232.45,233,232.27,0.6276,37910,37910,37911,37911,37912,37911,1,4.8333,4.8333,5,5.0833,5.1667,5,0.16667,2.6667,2.6667,2.6667,2.6667,2.6667,2.6667,0,2.5,2.5,2.5,2.5,2.5,2.5,0,1,183
3,230.24,230.24,230.24,230.78,231.32,230.6,0.62001,37910,37910,37911,37911,37912,37911,1,4.8333,4.8333,5,5.0833,5.1667,5,0.16667,2.6667,2.6667,2.6667,2.6667,2.6667,2.6667,0,2.5,2.5,2.5,2.5,2.5,2.5,0,1,184
3,228.59,228.59,228.59,229.12,229.65,228.94,0.61253,37910,37910,37911,37911,37912,37911,1,4.8333,4.8333,5,5.0833,5.1667,5,0.16667,2.6667,2.6667,2.6667,2.6667,2.6667,2.6667,0,2.5,2.5,2.5,2.5,2.5,2.5,0,1,185
3,226.96,226.96,226.96,227.48,228,227.31,0.60517,37910,37910,37911,37911,37912,37911,1,4.8333,4.8333,5,5.0833,5.1667,5,0.16667,2.6667,2.6667,2.6667,2.6667,2.6667,2.6667,0,2.5,2.5,2.5,2.5,2.5,2.5,0,1,186
3,225.34,225.34,225.34,225.85,226.37,225.68,0.59792,37910,37910,37911,37911,37912,37911,1,4.8333,4.8333,5,5.0833,5.1667,5,0.16667,2.6667,2.6667,2.6667,2.6667,2.6667,2.6667,0,2.5,2.5,2.5,2.5,2.5,2.5,0,1,187
3,223.73,223.73,223.73,224.24,224.76,224.07,0.59079,37910,37910,37911,37911,37912,37911,1,4.8333,4.8333,5,5.0833,5.1667,5,0.16667,2.6667,2.6667,2.6667,2.6667,2.6667,2.6667,0,2.5,2.5,2.5,2.5,2.5,2.5,0,1,188
3,222.14,222.14,222.14,222.65,223.15,222.48,0.58376,37910,37910,37911,37911,37912,37911,1,4.8333,4.8333,5,5.0833,5.1667,5,0.16667,2.6667,2.6667,2.6667,2.6667,2.6667,2.6667,0,2.5,2.5,2.5,2.5,2.5,2.5,0,1,189
3,220.57,220.57,220.57,221.07,221.57,220.9,0.57684,37910,37910,37911,37911,37912,37911,1,4.8333,4.8333,5,5.0833,5.1667,5,0.16667,2.6667,2.6667,2.6667,2.6667,2.6667,2.6667,0,2.5,2.5,2.5,2.5,2.5,2.5,0,1,190
3,219.01,219.01,219.01,219.5,220,219.34,0.57003,37910,37910,37911,37911,37912,37911,1,4.8333,4.8333,5,5.0833,5.1667,5,0.16667,2.6667,2.6667,2.6667,2.6667,2.6667,2.6667,0,2.5,2.5,2.5,2.5,2.5,2.5,0,1,191
3,217.47,217.47,217.47,217.95,218.44,217.79,0.56331,37910,37910,37911,37911,37912,37911,1,4.8333,4.8333,5,5.0833,5.1667,5,0.16667,2.6667,2.6667,2.6667,2.6667,2.6667,2.6667,0,2.5,2.5,2.5,2.5,2.5,2.5,0,1,192
3,215.94,215.94,215.94,216.42,216.9,216.26,0.55671,37910,37910,37911,37911,37912,37911,1,4.8333,4.8333,5,5.0833,5.1667,5,0.16667,2.6667,2.6667,2.6667,2.6667,2.6667,2.6667,0,2.5,2.5,2.5,2.5,2.5,2.5,0,1,193
3,214.42,214.42,214.42,214.9,215.37,214.74,0.55019,37910,37910,37911,37911,37912,37911,1,4.8333,4.8333,5,5.0833,5.1667,5,0.16667,2.6667,2.6667,2.6667,2.6667,2.6667,2.6667,0,2.5,2.5,2.5,2.5,2.5,2.5,0,1,194
3,212.92,212.92,212.92,213.39,213.86,213.23,0.54378,37910,37910,37911,37911,37912,37911,1,4.8333,4.8333,5,5.0833,5.1667,5,0.16667,2.6667,2.6667,2.6667,2.6667,2.6667,2.6667,0,2.5,2.5,2.5,2.5,2.5,2.5,0,1,195
3,211.43,211.43,211.43,211.9,212.36,211.74,0.53746,37910,37910,37911,37911,37912,37911,1,4.8333,4.8333,5,5.0833,5.1667,5,0.16667,2.6667,2.6667,2.6667,2.6667,2.6667,2.6667,0,2.5,2.5,2.5,2.5,2.5,2.5,0,1,196
3,209.96,209.96,209.96,210.42,210.88,210.26,0.53124,37910,37910,37911,37911,37912,37911,1,4.8333,4.8333,5,5.0833,5.1667,5,0.16667,2.6667,2.6667,2.6667,2.6667,2.6667,2.6667,0,2.5,2.5,2.5,2.5,2.5,2.5,0,1,197
3,208.5,208.5,208.5,208.95,209.41,208.8,0.52511,37910,37910,37911,37911,37912,37911,1,4.8333,4.8333,5,5.0833,5.1667,5,0.16667,2.6667,2.6667,2.6667,2.6667,2.6667,2.6667,0,2.5,2.5,2.5,2.5,2.5,2.5,0,1,198
3,207.05,207.05,207.05,207.5,207.95,207.35,0.51906,37910,37910,37911,37911,37912,37911,1,4.8333,4.8333,5,5.0833,5.1667,5,0.16667,2.6667,2.6667,2.6667,2.6667,2.6667,2.6667,0,2.5,2.5,2.5,2.5,2.5,2.5,0,1,199
3,205.61,205.61,205.61,206.06,206.5,205.91,0.51311,37910,37910,37911,37911,37912,37911,1,4.8333,4.8333,5,5.0833,5.1667,5,0.16667,2.6667,2.6667,2.6667,2.6667,2.6667,2.6667,0,2.5,2.5,2.5,2.5,2.5,2.5,0,1,200
3,204.19,204.19,204.19,204.63,205.07,204.49,0.50724,37910,37910,37911,37911,37912,37911,1,4.8333,4.8333,5,5.0833,5.1667,5,0.16667,2.6667,2.6667,2.6667,2.6667,2.6667,2.6667,0,2.5,2.5,2.5,2.5,2.5,2.5,0,1,201
3,202.78,202.78,202.78,203.22,203.65,203.07,0.50146,37910,37910,37911,37911,37912,37911,1,4.8333,4.8333,5,5.0833,5.1667,5,0.16667,2.6667,2.6667,2.6667,2.6667,2.6667,2.6667,0,2.5,2.5,2.5,2.5,2.5,2.5,0,1,202
3,201.39,201.39,201.39,201.82,202.25,201.68,0.49576,37910,37910,37911,37911,37912,37911,1,4.8333,4.8333,5,5.0833,5.1667,5,0.16667,2.6667,2.6667,2.6667,2.6667,2.6667,2.6667,0,2.5,2.5,2.5,2.5,2.5,2.5,0,1,203
3,200.01,200.01,200.01,200.43,200.85,200.29,0.49015,37910,37910,37911,37911,37912,37911,1,4.8333,4.8333,5,5.0833,5.1667,5,0.16667,2.6667,2.6667,2.6667,2.6667,2.6667,2.6667,0,2.5,2.5,2.5,2.5,2.5,2.5,0,1,204
3,198.63,198.63,198.63,199.05,199.47,198.91,0.48461,37910,37910,37911,37911,37912,37911,1,4.8333,4.8333,5,5.0833,5.1667,5,0.16667,2.6667,2.6667,2.6667,2.6667,2.6667,2.6667,0,2.5,2.5,2.5,2.5,2.5,2.5,0,1,205
3,197.28,197.28,197.28,197.69,198.11,197.55,0.47915,37910,37910,37911,37911,37912,37911,1,4.8333,4.8333,5,5.0833,5.1667,5,0.16667,2.6667,2.6667,2.6667,2.6667,2.6667,2.6667,0,2.5,2.5,2.5,2.5,2.5,2.5,0,1,206
3,195.93,195.93,195.93,196.34,196.75,196.2,0.47377,37910,37910,37911,37911,37912,37911,1,4.8333,4.8333,5,5.0833,5.1667,5,0.16667,2.6667,2.6667,2.6667,2.6667,2.6667,2.6667,0,2.5,2.5,2.5,2.5,2.5,2.5,0,1,207
3,194.59,194.59,194.59,195,195.41,194.86,0.46847,37910,37910,37911,37911,37912,37911,1,4.8333,4.8333,5,5.0833,5.1667,5,0.16667,2.6667,2.6667,2.6667,2.6667,2.6667,2.6667,0,2.5,2.5,2.5,2.5,2.5,2.5,0,1,208
3,193.27,193.27,193.27,193.67,194.07,193.54,0.46324,37910,37910,37911,37911,37912,37911,1,4.8333,4.8333,5,5.0833,5.1667,5,0.16667,2.6667,2.6667,2.6667,2.6667,2.6667,2.6667,0,2.5,2.5,2.5,2.5,2.5,2.5,0,1,209
3,191.96,191.96,191.96,192.36,192.75,192.22,0.45809,37910,37910,37911,37911,37912,37911,1,4.8333,4.8333,5,5.0833,5.1667,5,0.16667,2.6667,2.6667,2.6667,2.6667,2.6667,2.6667,0,2.5,2.5,2.5,2.5,2.5,2.5,0,1,210
3,190.66,190.66,190.66,191.05,191.44,190.92,0.45301,37910,37910,37911,37911,37912,37911,1,4.8333,4.8333,5,5.0833,5.1667,5,0.16667,2.6667,2.6667,2.6667,2.6667,2.6667,2.6667,0,2.5,2.5,2.5,2.5,2.5,2.5,0,1,211
3,189.37,189.37,189.37,189.76,190.15,189.63,0.448,37910,37910,37911,37911,37912,37911,1,4.8333,4.8333,5,5.0833,5.1667,5,0.16667,2.6667,2.6667,2.6667,2.6667,2.6667,2.6667,0,2.5,2.5,2.5,2.5,2.5,2.5,0,1,212
3,188.09,188.09,188.09,188.48,188.86,188.35,0.44305,37910,37910,37911,37911,37912,37911,1,4.8333,4.8333,5,5.0833,5.1667,5,0.16667,2.6667,2.6667,2.6667,2.6667,2.6667,2.6667,0,2.5,2.5,2.5,2.5,2.5,2.5,0,1,213
3,186.82,186.82,186.82,187.2,187.58,187.08,0.43818,37910,37910,37911,37911,37912,37911,1,4.8333,4.8333,5,5.0833,5.1667,5,0.16667,2.6667,2.6667,2.6667,2.6667,2.6667,2.6667,0,2.5,2.5,2.5,2.5,2.5,2.5,0,1,214
3,185.57,185.57,185.57,185.94,186.32,185.82,0.43338,37910,37910,37911,37911,37912,37911,1,4.8333,4.8333,5,5.0833,5.1667,5,0.16667,2.6667,2.6667,2.6667,2.6667,2.6667,2.6667,0,2.5,2.5,2.5,2.5,2.5,2.5,0,1,215
3,184.32,184.32,184.32,184.7,185.07,184.57,0.42864,37910,37910,37911,37911,37912,37911,1,4.8333,4.8333,5,5.0833,5.1667,5,0.16667,2.6667,2.6667,2.6667,2.6667,2.6667,2.6667,0,2.5,2.5,2.5,2.5,2.5,2.5,0,1,216
3,183.09,183.09,183.09,183.46,183.82,183.33,0.42396,37910,37910,37911,37911,37912,37911,1,4.8333,4.8333,5,5.0833,5.1667,5,0.16667,2.6667,2.6667,2.6667,2.6667,2.6667,2.6667,0,2.5,2.5,2.5,2.5,2.5,2.5,0,1,217
3,181.87,181.87,181.87,182.23,182.59,182.11,0.41935,37910,37910,37911,37911,37912,37911,1,4.8333,4.8333,5,5.0833,5.1667,5,0.16667,2.6667,2.6667,2.6667,2.6667,2.6667,2.6667,0,2.5,2.5,2.5,2.5,2.5,2.5,0,1,218
3,180.65,180.65,180.65,181.01,181.37,180.89,0.4148,37910,37910,37911,37911,37912,37911,1,4.8333,4.8333,5,5.0833,5.1667,5,0.16667,2.6667,2.6667,2.6667,2.6667,2.6667,2.6667,0,2.5,2.5,2.5,2.5,2.5,2.5,0,1,219
3,179.45,179.45,179.45,179.8,180.16,179.69,0.41032,37910,37910,37911,37911,37912,37911,1,4.8333,4.8333,5,5.0833,5.1667,5,0.16667,2.6667,2.6667,2.6667,2.6667,2.6667,2.6667,0,2.5,2.5,2.5,2.5,2.5,2.5,0,1,220
3,178.25,178.25,178.25,178.61,178.96,178.49,0.40589,37910,37910,37911,37911,37912,37911,1,4.8333,4.8333,5,5.0833,5.1667,5,0.16667,2.6667,2.6667,2.6667,2.6667,2.6667,2.6667,0,2.5,2.5,2.5,2.5,2.5,2.5,0,1,221
3,177.07,177.07,177.07,177.42,177.77,177.3,0.40152,37910,37910,37911,37911,37912,37911,1,4.8333,4.8333,5,5.0833,5.1667,5,0.16667,2.6667,2.6667,2.6667,2.6667,2.6667,2.6667,0,2.5,2.5,2.5,2.5,2.5,2.5,0,1,222
3,175.9,175.9,175.9,176.24,176.59,176.13,0.39722,37910,37910,37911,37911,37912,37911,1,4.8333,4.8333,5,5.0833,5.1667,5,0.16667,2.6667,2.6667,2.6667,2.6667,2.6667,2.6667,0,2.5,2.5,2.5,2.5,2.5,2.5,0,1,223
3,174.73,174.73,174.73,175.08,175.42,174.96,0.39297,37910,37910,37911,37911,37912,37911,1,4.8333,4.8333,5,5.0833,5.1667,5,0.16667,2.6667,2.6667,2.6667,2.6667,2.6667,2.6667,0,2.5,2.5,2.5,2.5,2.5,2.5,0,1,224
3,173.58,173.58,173.58,173.92,174.25,173.81,0.38877,37910,37910,37911,37911,37912,37911,1,4.8333,4.8333,5,5.0833,5.1667,5,0.16667,2.6667,2.6667,2.6667,2.6667,2.6667,2.6667,0,2.5,2.5,2.5,2.5,2.5,2.5,0,1,225
3,172.44,172.44,172.44,172.77,173.1,172.66,0.38464,37910,37910,37911,37911,37912,37911,1,4.8333,4.8333,5,5.0833,5.1667,5,0.16667,2.6667,2.6667,2.6667,2.6667,2.6667,2.6667,0,2.5,2.5,2.5,2.5,2.5,2.5,0,1,226
3,171.3,171.3,171.3,171.63,171.96,171.52,0.38055,37910,37910,37911,37911,37912,37911,1,4.8333,4.8333,5,5.0833,5.1667,5,0.16667,2.6667,2.6667,2.6667,2.6667,2.6667,2.6667,0,2.5,2.5,2.5,2.5,2.5,2.5,0,1,227
3,170.18,170.18,170.18,170.5,170.83,170.39,0.37652,37910,37910,37911,37911,37912,37911,1,4.8333,4.8333,5,5.0833,5.1667,5,0.16667,2.6667,2.6667,2.6667,2.6667,2.6667,2.6667,0,2.5,2.5,2.5,2.5,2.5,2.5,0,1,228
3,169.06,169.06,169.06,169.38,169.71,169.27,0.37255,37910,37910,37911,37911,37912,37911,1,4.8333,4.8333,5,5.0833,5.1667,5,0.16667,2.6667,2.6667,2.6667,2.6667,2.6667,2.6667,0,2.5,2.5,2.5,2.5,2.5,2.5,0,1,229
3,167.95,167.95,167.95,168.27,168.59,168.17,0.36862,37910,37910,37911,37911,37912,37911,1,4.8333,4.8333,5,5.0833,5.1667,5,0.16667,2.6667,2.6667,2.6667,2.6667,2.6667,2.6667,0,2.5,2.5,2.5,2.5,2.5,2.5,0,1,230
3,166.85,166.85,166.85,167.17,167.49,167.07,0.36475,37910,37910,37911,37911,37912,37911,1,4.8333,4.8333,5,5.0833,5.1667,5,0.16667,2.6667,2.6667,2.6667,2.6667,2.6667,2.6667,0,2.5,2.5,2.5,2.5,2.5,2.5,0,1,231
3,165.77,165.77,165.77,166.08,166.39,165.97,0.36093,37910,37910,37911,37911,37912,37911,1,4.8333,4.8333,5,5.0833,5.1667,5,0.16667,2.6667,2.6667,2.6667,2.6667,2.6667,2.6667,0,2.5,2.5,2.5,2.5,2.5,2.5,0,1,232
3,164.69,164.69,164.69,164.99,165.3,164.89,0.35716,37910,37910,37911,37911,37912,37911,1,4.8333,4.8333,5,5.0833,5.1667,5,0.16667,2.6667,2.6667,2.6667,2.6667,2.6667,2.6667,0,2.5,2.5,2.5,2.5,2.5,2.5,0,1,233
3,163.61,163.61,163.61,163.92,164.23,163.82,0.35343,37910,37910,37911,37911,37912,37911,1,4.8333,4.8333,5,5.0833,5.1667,5,0.16667,2.6667,2.6667,2.6667,2.6667,2.6667,2.6667,0,2.5,2.5,2.5,2.5,2.5,2.5,0,1,234
3,162.55,162.55,162.55,162.85,163.16,162.75,0.34976,37910,37910,37911,37911,37912,37911,1,4.8333,4.8333,5,5.0833,5.1667,5,0.16667,2.6667,2.6667,2.6667,2.6667,2.6667,2.6667,0,2.5,2.5,2.5,2.5,2.5,2.5,0,1,235
3,161.5,161.5,161.5,161.8,162.1,161.7,0.34613,37910,37910,37911,37911,37912,37911,1,4.8333,4.8333,5,5.0833,5.1667,5,0.16667,2.6667,2.6667,2.6667,2.6667,2.6667,2.6667,0,2.5,2.5,2.5,2.5,2.5,2.5,0,1,236
3,160.45,160.45,160.45,160.75,161.04,160.65,0.34255,37910,37910,37911,37911,37912,37911,1,4.8333,4.8333,5,5.0833,5.1667,5,0.16667,2.6667,2.6667,2.6667,2.6667,2.6667,2.6667,0,2.5,2.5,2.5,2.5,2.5,2.5,0,1,237
3,159.41,159.41,159.41,159.71,160,159.61,0.33901,37910,37910,37911,37911,37912,37911,1,4.8333,4.8333,5,5.0833,5.1667,5,0.16667,2.6667,2.6667,2.6667,2.6667,2.6667,2.6667,0,2.5,2.5,2.5,2.5,2.5,2.5,0,1,238
3,158.38,158.38,158.38,158.67,158.97,158.58,0.33552,37910,37910,37911,37911,37912,37911,1,4.8333,4.8333,5,5.0833,5.1667,5,0.16667,2.6667,2.6667,2.6667,2.6667,2.6667,2.6667,0,2.5,2.5,2.5,2.5,2.5,2.5,0,1,239
3,157.36,157.36,157.36,157.65,157.94,157.55,0.33208,37910,37910,37911,37911,37912,37911,1,4.8333,4.8333,5,5.0833,5.1667,5,0.16667,2.6667,2.6667,2.6667,2.6667,2.6667,2.6667,0,2.5,2.5,2.5,2.5,2.5,2.5,0,1,240
3,156.35,156.35,156.35,156.64,156.92,156.54,0.32867,37910,37910,37911,37911,37912,37911,1,4.8333,4.8333,5,5.0833,5.1667,5,0.16667,2.6667,2.6667,2.6667,2.6667,2.6667,2.6667,0,2.5,2.5,2.5,2.5,2.5,2.5,0,1,241
3,155.35,155.35,155.35,155.63,155.91,155.53,0.32531,37910,37910,37911,37911,37912,37911,1,4.8333,4.8333,5,5.0833,5.1667,5,0.16667,2.6667,2.6667,2.6667,2.6667,2.6667,2.6667,0,2.5,2.5,2.5,2.5,2.5,2.5,0,1,242
3,154.35,154.35,154.35,154.63,154.91,154.53,0.322,37910,37910,37911,37911,37912,37911,1,4.8333,4.8333,5,5.0833,5.1667,5,0.16667,2.6667,2.6667,2.6667,2.6667,2.6667,2.6667,0,2.5,2.5,2.5,2.5,2.5,2.5,0,1,243
3,153.36,153.36,153.36,153.64,153.91,153.54,0.31872,37910,37910,37911,37911,37912,37911,1,4.8333,4.8333,5,5.0833,5.1667,5,0.16667,2.6667,2.6667,2.6667,2.6667,2.6667,2.6667,0,2.5,2.5,2.5,2.5,2.5,2.5,0,1,244
3,152.38,152.38,152.38,152.65,152.92,152.56,0.31548,37910,37910,37911,37911,37912,37911,1,4.8333,4.8333,5,5.0833,5.1667,5,0.16667,2.6667,2.6667,2.6667,2.6667,2.6667,2.6667,0,2.5,2.5,2.5,2.5,2.5,2.5,0,1,245
3,151.41,151.41,151.41,151.68,151.95,151.59,0.31229,37910,37910,37911,37911,37912,37911,1,4.8333,4.8333,5,5.0833,5.1667,5,0.16667,2.6667,2.6667,2.6667,2.6667,2.6667,2.6667,0,2.5,2.5,2.5,2.5,2.5,2.5,0,1,246
3,150.44,150.44,150.44,150.71,150.97,150.62,0.30914,37910,37910,37911,37911,37912,37911,1,4.8333,4.8333,5,5.0833,5.1667,5,0.16667,2.6667,2.6667,2.6667,2.6667,2.6667,2.6667,0,2.5,2.5,2.5,2.5,2.5,2.5,0,1,247
3,149.48,149.48,149.48,149.75,150.01,149.66,0.30602,37910,37910,37911,37911,37912,37911,1,4.8333,4.8333,5,5.0833,5.1667,5,0.16667,2.6667,2.6667,2.6667,2.6667,2.6667,2.6667,0,2.5,2.5,2.5,2.5,2.5,2.5,0,1,248
3,148.53,148.53,148.53,148.79,149.05,148.7,0.30294,37910,37910,37911,37911,37912,37911,1,4.8333,4.8333,5,5.0833,5.1667,5,0.16667,2.6667,2.6667,2.6667,2.6667,2.6667,2.6667,0,2.5,2.5,2.5,2.5,2.5,2.5,0,1,249
