"N","min(Temp)","q1(Temp)","med(Temp)","q3(Temp)","max(Temp)","avg(Temp)","std(Temp)","min(vtkOriginalPointIds)","q1(vtkOriginalPointIds)","med(vtkOriginalPointIds)","q3(vtkOriginalPointIds)","max(vtkOriginalPointIds)","avg(vtkOriginalPointIds)","std(vtkOriginalPointIds)","min(X)","q1(X)","med(X)","q3(X)","max(X)","avg(X)","std(X)","min(Y)","q1(Y)","med(Y)","q3(Y)","max(Y)","avg(Y)","std(Y)","min(Z)","q1(Z)","med(Z)","q3(Z)","max(Z)","avg(Z)","std(Z)","vtkValidPointMask","Time"
3,0,0,0,0,0,0,0,37910,37910,37911,37911,37912,37911,1,4.8333,4.8333,5,5.0833,5.1667,5,0.16667,2.6667,2.6667,2.6667,2.6667,2.6667,2.6667,0,2.5,2.5,2.5,2.5,2.5,2.5,0,1,0
3,1.8488,1.8488,1.8488,1.8751,1.9015,1.8664,0.030386,37910,37910,37911,37911,37912,37911,1,4.8333,4.8333,5,5.0833,5.1667,5,0.16667,2.6667,2.6667,2.6667,2.6667,2.6667,2.6667,0,2.5,2.5,2.5,2.5,2.5,2.5,0,1,1
3,9.4056,9.4056,9.4056,9.5386,9.6716,9.4943,0.15353,37910,37910,37911,37911,37912,37911,1,4.8333,4.8333,5,5.0833,5.1667,5,0.16667,2.6667,2.6667,2.6667,2.6667,2.6667,2.6667,0,2.5,2.5,2.5,2.5,2.5,2.5,0,1,2
3,34.063,34.063,34.063,34.543,35.022,34.383,0.55347,37910,37910,37911,37911,37912,37911,1,4.8333,4.8333,5,5.0833,5.1667,5,0.16667,2.6667,2.6667,2.6667,2.6667,2.6667,2.6667,0,2.5,2.5,2.5,2.5,2.5,2.5,0,1,3
3,99.543,99.543,99.543,100.94,102.33,100.47,1.6108,37910,37910,37911,37911,37912,37911,1,4.8333,4.8333,5,5.0833,5.1667,5,0.16667,2.6667,2.6667,2.6667,2.6667,2.6667,2.6667,0,2.5,2.5,2.5,2.5,2.5,2.5,0,1,4
3,241.57,241.57,241.57,244.94,248.31,243.82,3.8919,37910,37910,37911,37911,37912,37911,1,4.8333,4.8333,5,5.0833,5.1667,5,0.16667,2.6667,2.6667,2.6667,2.6667,2.6667,2.6667,0,2.5,2.5,2.5,2.5,2.5,2.5,0,1,5
3,493.17,493.17,493.17,500.01,506.86,497.73,7.903,37910,37910,37911,37911,37912,37911,1,4.8333,4.8333,5,5.0833,5.1667,5,0.16667,2.6667,2.6667,2.6667,2.6667,2.6667,2.6667,0,2.5,2.5,2.5,2.5,2.5,2.5,0,1,6
3,856.52,856.52,856.52,868.33,880.14,864.4,13.633,37910,37910,37911,37911,37912,37911,1,4.8333,4.8333,5,5.0833,5.1667,5,0.16667,2.6667,2.6667,2.6667,2.6667,2.6667,2.6667,0,2.5,2.5,2.5,2.5,2.5,2.5,0,1,7
3,1282.5,1282.5,1282.5,1299.9,1317.3,1294.1,20.133,37910,37910,37911,37911,37912,37911,1,4.8333,4.8333,5,5.0833,5.1667,5,0.16667,2.6667,2.6667,2.6667,2.6667,2.6667,2.6667,0,2.5,2.5,2.5,2.5,2.5,2.5,0,1,8
3,1537.4,1537.4,1542.1,1542.1,1542.1,1540.5,2.7272,37910,37910,37911,37911,37912,37911,1,4.8333,4.8333,5,5.0833,5.1667,5,0.16667,2.6667,2.6667,2.6667,2.6667,2.6667,2.6667,0,2.5,2.5,2.5,2.5,2.5,2.5,0,1,9
3,1567.7,1567.7,1609.6,1609.6,1609.6,1595.6,24.186,37910,37910,37911,37911,37912,37911,1,4.8333,4.8333,5,5.0833,5.1667,5,0.16667,2.6667,2.6667,2.6667,2.6667,2.6667,2.6667,0,2.5,2.5,2.5,2.5,2.5,2.5,0,1,10
3,1803.3,1803.3,1803.3,1826.2,1849.1,1818.6,26.431,37910,37910,37911,37911,37912,37911,1,4.8333,4.8333,5,5.0833,5.1667,5,0.16667,2.6667,2.6667,2.6667,2.6667,2.6667,2.6667,0,2.5,2.5,2.5,2.5,2.5,2.5,0,1,11
3,1878.5,1878.5,1878.5,1905.5,1932.4,1896.5,31.088,37910,37910,37911,37911,37912,37911,1,4.8333,4.8333,5,5.0833,5.1667,5,0.16667,2.6667,2.6667,2.6667,2.6667,2.6667,2.6667,0,2.5,2.5,2.5,2.5,2.5,2.5,0,1,12
3,1872.7,1872.7,1872.7,1898.8,1925,1890.1,30.156,37910,37910,37911,37911,37912,37911,1,4.8333,4.8333,5,5.0833,5.1667,5,0.16667,2.6667,2.6667,2.6667,2.6667,2.6667,2.6667,0,2.5,2.5,2.5,2.5,2.5,2.5,0,1,13
3,1828.5,1828.5,1828.5,1852.7,1876.8,1844.6,27.869,37910,37910,37911,37911,37912,37911,1,4.8333,4.8333,5,5.0833,5.1667,5,0.16667,2.6667,2.6667,2.6667,2.6667,2.6667,2.6667,0,2.5,2.5,2.5,2.5,2.5,2.5,0,1,14
3,1772.7,1772.7,1772.7,1794.2,1815.7,1787,24.81,37910,37910,37911,37911,37912,37911,1,4.8333,4.8333,5,5.0833,5.1667,5,0.16667,2.6667,2.6667,2.6667,2.6667,2.6667,2.6667,0,2.5,2.5,2.5,2.5,2.5,2.5,0,1,15
3,1717,1717,1717,1735.5,1754.1,1729.4,21.416,37910,37910,37911,37911,37912,37911,1,4.8333,4.8333,5,5.0833,5.1667,5,0.16667,2.6667,2.6667,2.6667,2.6667,2.6667,2.6667,0,2.5,2.5,2.5,2.5,2.5,2.5,0,1,16
3,1665.2,1665.2,1665.2,1680.8,1696.3,1675.6,17.965,37910,37910,37911,37911,37912,37911,1,4.8333,4.8333,5,5.0833,5.1667,5,0.16667,2.6667,2.6667,2.6667,2.6667,2.6667,2.6667,0,2.5,2.5,2.5,2.5,2.5,2.5,0,1,17
3,1618.2,1618.2,1618.2,1630.8,1643.5,1626.6,14.601,37910,37910,37911,37911,37912,37911,1,4.8333,4.8333,5,5.0833,5.1667,5,0.16667,2.6667,2.6667,2.6667,2.6667,2.6667,2.6667,0,2.5,2.5,2.5,2.5,2.5,2.5,0,1,18
3,1579.3,1579.3,1579.3,1587.8,1596.2,1585,9.7608,37910,37910,37911,37911,37912,37911,1,4.8333,4.8333,5,5.0833,5.1667,5,0.16667,2.6667,2.6667,2.6667,2.6667,2.6667,2.6667,0,2.5,2.5,2.5,2.5,2.5,2.5,0,1,19
3,1562.1,1562.1,1562.5,1562.5,1562.5,1562.4,0.2023,37910,37910,37911,37911,37912,37911,1,4.8333,4.8333,5,5.0833,5.1667,5,0.16667,2.6667,2.6667,2.6667,2.6667,2.6667,2.6667,0,2.5,2.5,2.5,2.5,2.5,2.5,0,1,20
3,1559.7,1559.7,1559.8,1559.8,1559.8,1559.8,0.048941,37910,37910,37911,37911,37912,37911,1,4.8333,4.8333,5,5.0833,5.1667,5,0.16667,2.6667,2.6667,2.6667,2.6667,2.6667,2.6667,0,2.5,2.5,2.5,2.5,2.5,2.5,0,1,21
3,1557.1,1557.1,1557.1,1557.2,1557.3,1557.2,0.090602,37910,37910,37911,37911,37912,37911,1,4.8333,4.8333,5,5.0833,5.1667,5,0.16667,2.6667,2.6667,2.6667,2.6667,2.6667,2.6667,0,2.5,2.5,2.5,2.5,2.5,2.5,0,1,22
3,1554.4,1554.4,1554.4,1554.6,1554.9,1554.6,0.25615,37910,37910,37911,37911,37912,37911,1,4.8333,4.8333,5,5.0833,5.1667,5,0.16667,2.6667,2.6667,2.6667,2.6667,2.6667,2.6667,0,2.5,2.5,2.5,2.5,2.5,2.5,0,1,23
3,1551.7,1551.7,1551.7,1552.1,1552.5,1551.9,0.4509,37910,37910,37911,37911,37912,37911,1,4.8333,4.8333,5,5.0833,5.1667,5,0.16667,2.6667,2.6667,2.6667,2.6667,2.6667,2.6667,0,2.5,2.5,2.5,2.5,2.5,2.5,0,1,24
3,1548.9,1548.9,1548.9,1549.5,1550.1,1549.3,0.67561,37910,37910,37911,37911,37912,37911,1,4.8333,4.8333,5,5.0833,5.1667,5,0.16667,2.6667,2.6667,2.6667,2.6667,2.6667,2.6667,0,2.5,2.5,2.5,2.5,2.5,2.5,0,1,25
3,1546.1,1546.1,1546.1,1546.9,1547.7,1546.7,0.92969,37910,37910,37911,37911,37912,37911,1,4.8333,4.8333,5,5.0833,5.1667,5,0.16667,2.6667,2.6667,2.6667,2.6667,2.6667,2.6667,0,2.5,2.5,2.5,2.5,2.5,2.5,0,1,26
3,1543.3,1543.3,1543.3,1544.4,1545.4,1544,1.2127,37910,37910,37911,37911,37912,37911,1,4.8333,4.8333,5,5.0833,5.1667,5,0.16667,2.6667,2.6667,2.6667,2.6667,2.6667,2.6667,0,2.5,2.5,2.5,2.5,2.5,2.5,0,1,27
3,1539.7,1539.7,1539.7,1541.4,1543.1,1540.9,1.9293,37910,37910,37911,37911,37912,37911,1,4.8333,4.8333,5,5.0833,5.1667,5,0.16667,2.6667,2.6667,2.6667,2.6667,2.6667,2.6667,0,2.5,2.5,2.5,2.5,2.5,2.5,0,1,28
3,1535.1,1535.1,1535.1,1537.9,1540.7,1537,3.2384,37910,37910,37911,37911,37912,37911,1,4.8333,4.8333,5,5.0833,5.1667,5,0.16667,2.6667,2.6667,2.6667,2.6667,2.6667,2.6667,0,2.5,2.5,2.5,2.5,2.5,2.5,0,1,29
3,1529.9,1529.9,1529.9,1534.1,1538.3,1532.7,4.8341,37910,37910,37911,37911,37912,37911,1,4.8333,4.8333,5,5.0833,5.1667,5,0.16667,2.6667,2.6667,2.6667,2.6667,2.6667,2.6667,0,2.5,2.5,2.5,2.5,2.5,2.5,0,1,30
3,1524.3,1524.3,1524.3,1530,1535.7,1528.1,6.5684,37910,37910,37911,37911,37912,37911,1,4.8333,4.8333,5,5.0833,5.1667,5,0.16667,2.6667,2.6667,2.6667,2.6667,2.6667,2.6667,0,2.5,2.5,2.5,2.5,2.5,2.5,0,1,31
3,1518.6,1518.6,1518.6,1525.8,1533.1,1523.4,8.3601,37910,37910,37911,37911,37912,37911,1,4.8333,4.8333,5,5.0833,5.1667,5,0.16667,2.6667,2.6667,2.6667,2.6667,2.6667,2.6667,0,2.5,2.5,2.5,2.5,2.5,2.5,0,1,32
3,1484.9,1484.9,1484.9,1507.5,1530.2,1500,26.14,37910,37910,37911,37911,37912,37911,1,4.8333,4.8333,5,5.0833,5.1667,5,0.16667,2.6667,2.6667,2.6667,2.6667,2.6667,2.6667,0,2.5,2.5,2.5,2.5,2.5,2.5,0,1,33
3,1434.1,1434.1,1434.1,1479.7,1525.3,1464.5,52.647,37910,37910,37911,37911,37912,37911,1,4.8333,4.8333,5,5.0833,5.1667,5,0.16667,2.6667,2.6667,2.6667,2.6667,2.6667,2.6667,0,2.5,2.5,2.5,2.5,2.5,2.5,0,1,34
3,1399.8,1399.8,1399.8,1459.3,1518.9,1439.5,68.742,37910,37910,37911,37911,37912,37911,1,4.8333,4.8333,5,5.0833,5.1667,5,0.16667,2.6667,2.6667,2.6667,2.6667,2.6667,2.6667,0,2.5,2.5,2.5,2.5,2.5,2.5,0,1,35
3,1372.2,1372.2,1372.2,1423.9,1475.5,1406.7,59.65,37910,37910,37911,37911,37912,37911,1,4.8333,4.8333,5,5.0833,5.1667,5,0.16667,2.6667,2.6667,2.6667,2.6667,2.6667,2.6667,0,2.5,2.5,2.5,2.5,2.5,2.5,0,1,36
3,1337,1337,1337,1371.4,1405.8,1359.9,39.699,37910,37910,37911,37911,37912,37911,1,4.8333,4.8333,5,5.0833,5.1667,5,0.16667,2.6667,2.6667,2.6667,2.6667,2.6667,2.6667,0,2.5,2.5,2.5,2.5,2.5,2.5,0,1,37
3,1299.8,1299.8,1299.8,1325.4,1351,1316.9,29.551,37910,37910,37911,37911,37912,37911,1,4.8333,4.8333,5,5.0833,5.1667,5,0.16667,2.6667,2.6667,2.6667,2.6667,2.6667,2.6667,0,2.5,2.5,2.5,2.5,2.5,2.5,0,1,38
3,1263.4,1263.4,1263.4,1284.1,1304.8,1277.2,23.879,37910,37910,37911,37911,37912,37911,1,4.8333,4.8333,5,5.0833,5.1667,5,0.16667,2.6667,2.6667,2.6667,2.6667,2.6667,2.6667,0,2.5,2.5,2.5,2.5,2.5,2.5,0,1,39
3,1228.9,1228.9,1228.9,1246.5,1264.1,1240.6,20.345,37910,37910,37911,37911,37912,37911,1,4.8333,4.8333,5,5.0833,5.1667,5,0.16667,2.6667,2.6667,2.6667,2.6667,2.6667,2.6667,0,2.5,2.5,2.5,2.5,2.5,2.5,0,1,40
3,1196.3,1196.3,1196.3,1211.8,1227.3,1206.6,17.912,37910,37910,37911,37911,37912,37911,1,4.8333,4.8333,5,5.0833,5.1667,5,0.16667,2.6667,2.6667,2.6667,2.6667,2.6667,2.6667,0,2.5,2.5,2.5,2.5,2.5,2.5,0,1,41
3,1165.5,1165.5,1165.5,1179.5,1193.4,1174.8,16.106,37910,37910,37911,37911,37912,37911,1,4.8333,4.8333,5,5.0833,5.1667,5,0.16667,2.6667,2.6667,2.6667,2.6667,2.6667,2.6667,0,2.5,2.5,2.5,2.5,2.5,2.5,0,1,42
3,1136.6,1136.6,1136.6,1149.3,1162,1145.1,14.69,37910,37910,37911,37911,37912,37911,1,4.8333,4.8333,5,5.0833,5.1667,5,0.16667,2.6667,2.6667,2.6667,2.6667,2.6667,2.6667,0,2.5,2.5,2.5,2.5,2.5,2.5,0,1,43
3,1109.2,1109.2,1109.2,1120.9,1132.6,1117,13.538,37910,37910,37911,37911,37912,37911,1,4.8333,4.8333,5,5.0833,5.1667,5,0.16667,2.6667,2.6667,2.6667,2.6667,2.6667,2.6667,0,2.5,2.5,2.5,2.5,2.5,2.5,0,1,44
3,1083.2,1083.2,1083.2,1094.1,1105,1090.5,12.572,37910,37910,37911,37911,37912,37911,1,4.8333,4.8333,5,5.0833,5.1667,5,0.16667,2.6667,2.6667,2.6667,2.6667,2.6667,2.6667,0,2.5,2.5,2.5,2.5,2.5,2.5,0,1,45
3,1058.5,1058.5,1058.5,1068.7,1078.9,1065.3,11.745,37910,37910,37911,37911,37912,37911,1,4.8333,4.8333,5,5.0833,5.1667,5,0.16667,2.6667,2.6667,2.6667,2.6667,2.6667,2.6667,0,2.5,2.5,2.5,2.5,2.5,2.5,0,1,46
3,1035.1,1035.1,1035.1,1044.6,1054.2,1041.4,11.026,37910,37910,37911,37911,37912,37911,1,4.8333,4.8333,5,5.0833,5.1667,5,0.16667,2.6667,2.6667,2.6667,2.6667,2.6667,2.6667,0,2.5,2.5,2.5,2.5,2.5,2.5,0,1,47
3,1012.7,1012.7,1012.7,1021.7,1030.7,1018.7,10.393,37910,37910,37911,37911,37912,37911,1,4.8333,4.8333,5,5.0833,5.1667,5,0.16667,2.6667,2.6667,2.6667,2.6667,2.6667,2.6667,0,2.5,2.5,2.5,2.5,2.5,2.5,0,1,48
3,991.34,991.34,991.34,999.85,1008.4,997.01,9.8292,37910,37910,37911,37911,37912,37911,1,4.8333,4.8333,5,5.0833,5.1667,5,0.16667,2.6667,2.6667,2.6667,2.6667,2.6667,2.6667,0,2.5,2.5,2.5,2.5,2.5,2.5,0,1,49
3,970.91,970.91,970.91,978.99,987.06,976.3,9.3232,37910,37910,37911,37911,37912,37911,1,4.8333,4.8333,5,5.0833,5.1667,5,0.16667,2.6667,2.6667,2.6667,2.6667,2.6667,2.6667,0,2.5,2.5,2.5,2.5,2.5,2.5,0,1,50
3,951.36,951.36,951.36,959.04,966.71,956.48,8.8657,37910,37910,37911,37911,37912,37911,1,4.8333,4.8333,5,5.0833,5.1667,5,0.16667,2.6667,2.6667,2.6667,2.6667,2.6667,2.6667,0,2.5,2.5,2.5,2.5,2.5,2.5,0,1,51
3,932.61,932.61,932.61,939.93,947.24,937.49,8.4493,37910,37910,37911,37911,37912,37911,1,4.8333,4.8333,5,5.0833,5.1667,5,0.16667,2.6667,2.6667,2.6667,2.6667,2.6667,2.6667,0,2.5,2.5,2.5,2.5,2.5,2.5,0,1,52
3,914.61,914.61,914.61,921.6,928.58,919.27,8.0684,37910,37910,37911,37911,37912,37911,1,4.8333,4.8333,5,5.0833,5.1667,5,0.16667,2.6667,2.6667,2.6667,2.6667,2.6667,2.6667,0,2.5,2.5,2.5,2.5,2.5,2.5,0,1,53
3,897.31,897.31,897.31,904,910.68,901.77,7.7182,37910,37910,37911,37911,37912,37911,1,4.8333,4.8333,5,5.0833,5.1667,5,0.16667,2.6667,2.6667,2.6667,2.6667,2.6667,2.6667,0,2.5,2.5,2.5,2.5,2.5,2.5,0,1,54
3,880.67,880.67,880.67,887.08,893.48,884.94,7.395,37910,37910,37911,37911,37912,37911,1,4.8333,4.8333,5,5.0833,5.1667,5,0.16667,2.6667,2.6667,2.6667,2.6667,2.6667,2.6667,0,2.5,2.5,2.5,2.5,2.5,2.5,0,1,55
3,864.65,864.65,864.65,870.8,876.94,868.75,7.0955,37910,37910,37911,37911,37912,37911,1,4.8333,4.8333,5,5.0833,5.1667,5,0.16667,2.6667,2.6667,2.6667,2.6667,2.6667,2.6667,0,2.5,2.5,2.5,2.5,2.5,2.5,0,1,56
3,849.21,849.21,849.21,855.12,861.02,853.15,6.8171,37910,37910,37911,37911,37912,37911,1,4.8333,4.8333,5,5.0833,5.1667,5,0.16667,2.6667,2.6667,2.6667,2.6667,2.6667,2.6667,0,2.5,2.5,2.5,2.5,2.5,2.5,0,1,57
3,834.32,834.32,834.32,840,845.68,838.11,6.5575,37910,37910,37911,37911,37912,37911,1,4.8333,4.8333,5,5.0833,5.1667,5,0.16667,2.6667,2.6667,2.6667,2.6667,2.6667,2.6667,0,2.5,2.5,2.5,2.5,2.5,2.5,0,1,58
3,819.94,819.94,819.94,825.41,830.88,823.59,6.3147,37910,37910,37911,37911,37912,37911,1,4.8333,4.8333,5,5.0833,5.1667,5,0.16667,2.6667,2.6667,2.6667,2.6667,2.6667,2.6667,0,2.5,2.5,2.5,2.5,2.5,2.5,0,1,59
3,806.05,806.05,806.05,811.32,816.59,809.57,6.0872,37910,37910,37911,37911,37912,37911,1,4.8333,4.8333,5,5.0833,5.1667,5,0.16667,2.6667,2.6667,2.6667,2.6667,2.6667,2.6667,0,2.5,2.5,2.5,2.5,2.5,2.5,0,1,60
3,792.62,792.62,792.62,797.71,802.79,796.01,5.8735,37910,37910,37911,37911,37912,37911,1,4.8333,4.8333,5,5.0833,5.1667,5,0.16667,2.6667,2.6667,2.6667,2.6667,2.6667,2.6667,0,2.5,2.5,2.5,2.5,2.5,2.5,0,1,61
3,779.63,779.63,779.63,784.54,789.45,782.9,5.6723,37910,37910,37911,37911,37912,37911,1,4.8333,4.8333,5,5.0833,5.1667,5,0.16667,2.6667,2.6667,2.6667,2.6667,2.6667,2.6667,0,2.5,2.5,2.5,2.5,2.5,2.5,0,1,62
3,767.05,767.05,767.05,771.8,776.54,770.21,5.4825,37910,37910,37911,37911,37912,37911,1,4.8333,4.8333,5,5.0833,5.1667,5,0.16667,2.6667,2.6667,2.6667,2.6667,2.6667,2.6667,0,2.5,2.5,2.5,2.5,2.5,2.5,0,1,63
3,754.86,754.86,754.86,759.45,764.05,757.92,5.3032,37910,37910,37911,37911,37912,37911,1,4.8333,4.8333,5,5.0833,5.1667,5,0.16667,2.6667,2.6667,2.6667,2.6667,2.6667,2.6667,0,2.5,2.5,2.5,2.5,2.5,2.5,0,1,64
3,743.05,743.05,743.05,747.49,751.94,746.01,5.1335,37910,37910,37911,37911,37912,37911,1,4.8333,4.8333,5,5.0833,5.1667,5,0.16667,2.6667,2.6667,2.6667,2.6667,2.6667,2.6667,0,2.5,2.5,2.5,2.5,2.5,2.5,0,1,65
3,731.59,731.59,731.59,735.89,740.2,734.46,4.9726,37910,37910,37911,37911,37912,37911,1,4.8333,4.8333,5,5.0833,5.1667,5,0.16667,2.6667,2.6667,2.6667,2.6667,2.6667,2.6667,0,2.5,2.5,2.5,2.5,2.5,2.5,0,1,66
3,720.47,720.47,720.47,724.64,728.82,723.25,4.8199,37910,37910,37911,37911,37912,37911,1,4.8333,4.8333,5,5.0833,5.1667,5,0.16667,2.6667,2.6667,2.6667,2.6667,2.6667,2.6667,0,2.5,2.5,2.5,2.5,2.5,2.5,0,1,67
3,709.67,709.67,709.67,713.72,717.77,712.37,4.6747,37910,37910,37911,37911,37912,37911,1,4.8333,4.8333,5,5.0833,5.1667,5,0.16667,2.6667,2.6667,2.6667,2.6667,2.6667,2.6667,0,2.5,2.5,2.5,2.5,2.5,2.5,0,1,68
3,699.18,699.18,699.18,703.11,707.04,701.8,4.5365,37910,37910,37911,37911,37912,37911,1,4.8333,4.8333,5,5.0833,5.1667,5,0.16667,2.6667,2.6667,2.6667,2.6667,2.6667,2.6667,0,2.5,2.5,2.5,2.5,2.5,2.5,0,1,69
3,688.98,688.98,688.98,692.8,696.61,691.53,4.4049,37910,37910,37911,37911,37912,37911,1,4.8333,4.8333,5,5.0833,5.1667,5,0.16667,2.6667,2.6667,2.6667,2.6667,2.6667,2.6667,0,2.5,2.5,2.5,2.5,2.5,2.5,0,1,70
3,679.07,679.07,679.07,682.77,686.48,681.54,4.2793,37910,37910,37911,37911,37912,37911,1,4.8333,4.8333,5,5.0833,5.1667,5,0.16667,2.6667,2.6667,2.6667,2.6667,2.6667,2.6667,0,2.5,2.5,2.5,2.5,2.5,2.5,0,1,71
3,669.42,669.42,669.42,673.02,676.62,671.82,4.1593,37910,37910,37911,37911,37912,37911,1,4.8333,4.8333,5,5.0833,5.1667,5,0.16667,2.6667,2.6667,2.6667,2.6667,2.6667,2.6667,0,2.5,2.5,2.5,2.5,2.5,2.5,0,1,72
3,660.03,660.03,660.03,663.53,667.04,662.36,4.0447,37910,37910,37911,37911,37912,37911,1,4.8333,4.8333,5,5.0833,5.1667,5,0.16667,2.6667,2.6667,2.6667,2.6667,2.6667,2.6667,0,2.5,2.5,2.5,2.5,2.5,2.5,0,1,73
3,650.89,650.89,650.89,654.29,657.7,653.16,3.935,37910,37910,37911,37911,37912,37911,1,4.8333,4.8333,5,5.0833,5.1667,5,0.16667,2.6667,2.6667,2.6667,2.6667,2.6667,2.6667,0,2.5,2.5,2.5,2.5,2.5,2.5,0,1,74
3,641.98,641.98,641.98,645.29,648.61,644.19,3.8299,37910,37910,37911,37911,37912,37911,1,4.8333,4.8333,5,5.0833,5.1667,5,0.16667,2.6667,2.6667,2.6667,2.6667,2.6667,2.6667,0,2.5,2.5,2.5,2.5,2.5,2.5,0,1,75
3,633.3,633.3,633.3,636.53,639.76,635.45,3.7292,37910,37910,37911,37911,37912,37911,1,4.8333,4.8333,5,5.0833,5.1667,5,0.16667,2.6667,2.6667,2.6667,2.6667,2.6667,2.6667,0,2.5,2.5,2.5,2.5,2.5,2.5,0,1,76
3,624.83,624.83,624.83,627.98,631.12,626.93,3.6326,37910,37910,37911,37911,37912,37911,1,4.8333,4.8333,5,5.0833,5.1667,5,0.16667,2.6667,2.6667,2.6667,2.6667,2.6667,2.6667,0,2.5,2.5,2.5,2.5,2.5,2.5,0,1,77
3,616.58,616.58,616.58,619.64,622.71,618.62,3.5398,37910,37910,37911,37911,37912,37911,1,4.8333,4.8333,5,5.0833,5.1667,5,0.16667,2.6667,2.6667,2.6667,2.6667,2.6667,2.6667,0,2.5,2.5,2.5,2.5,2.5,2.5,0,1,78
3,608.52,608.52,608.52,611.51,614.5,610.51,3.4507,37910,37910,37911,37911,37912,37911,1,4.8333,4.8333,5,5.0833,5.1667,5,0.16667,2.6667,2.6667,2.6667,2.6667,2.6667,2.6667,0,2.5,2.5,2.5,2.5,2.5,2.5,0,1,79
3,600.66,600.66,600.66,603.58,606.49,602.6,3.365,37910,37910,37911,37911,37912,37911,1,4.8333,4.8333,5,5.0833,5.1667,5,0.16667,2.6667,2.6667,2.6667,2.6667,2.6667,2.6667,0,2.5,2.5,2.5,2.5,2.5,2.5,0,1,80
3,592.98,592.98,592.98,595.83,598.67,594.88,3.2826,37910,37910,37911,37911,37912,37911,1,4.8333,4.8333,5,5.0833,5.1667,5,0.16667,2.6667,2.6667,2.6667,2.6667,2.6667,2.6667,0,2.5,2.5,2.5,2.5,2.5,2.5,0,1,81
3,585.49,585.49,585.49,588.26,591.04,587.34,3.2033,37910,37910,37911,37911,37912,37911,1,4.8333,4.8333,5,5.0833,5.1667,5,0.16667,2.6667,2.6667,2.6667,2.6667,2.6667,2.6667,0,2.5,2.5,2.5,2.5,2.5,2.5,0,1,82
3,578.16,578.16,578.16,580.87,583.58,579.97,3.1268,37910,37910,37911,37911,37912,37911,1,4.8333,4.8333,5,5.0833,5.1667,5,0.16667,2.6667,2.6667,2.6667,2.6667,2.6667,2.6667,0,2.5,2.5,2.5,2.5,2.5,2.5,0,1,83
3,571,571,571,573.65,576.29,572.76,3.0531,37910,37910,37911,37911,37912,37911,1,4.8333,4.8333,5,5.0833,5.1667,5,0.16667,2.6667,2.6667,2.6667,2.6667,2.6667,2.6667,0,2.5,2.5,2.5,2.5,2.5,2.5,0,1,84
3,564,564,564,566.58,569.17,565.72,2.9821,37910,37910,37911,37911,37912,37911,1,4.8333,4.8333,5,5.0833,5.1667,5,0.16667,2.6667,2.6667,2.6667,2.6667,2.6667,2.6667,0,2.5,2.5,2.5,2.5,2.5,2.5,0,1,85
3,557.16,557.16,557.16,559.68,562.2,558.84,2.9135,37910,37910,37911,37911,37912,37911,1,4.8333,4.8333,5,5.0833,5.1667,5,0.16667,2.6667,2.6667,2.6667,2.6667,2.6667,2.6667,0,2.5,2.5,2.5,2.5,2.5,2.5,0,1,86
3,550.46,550.46,550.46,552.93,555.39,552.1,2.8473,37910,37910,37911,37911,37912,37911,1,4.8333,4.8333,5,5.0833,5.1667,5,0.16667,2.6667,2.6667,2.6667,2.6667,2.6667,2.6667,0,2.5,2.5,2.5,2.5,2.5,2.5,0,1,87
3,543.91,543.91,543.91,546.32,548.73,545.51,2.7834,37910,37910,37911,37911,37912,37911,1,4.8333,4.8333,5,5.0833,5.1667,5,0.16667,2.6667,2.6667,2.6667,2.6667,2.6667,2.6667,0,2.5,2.5,2.5,2.5,2.5,2.5,0,1,88
3,537.49,537.49,537.49,539.85,542.21,539.06,2.7216,37910,37910,37911,37911,37912,37911,1,4.8333,4.8333,5,5.0833,5.1667,5,0.16667,2.6667,2.6667,2.6667,2.6667,2.6667,2.6667,0,2.5,2.5,2.5,2.5,2.5,2.5,0,1,89
3,531.21,531.21,531.21,533.52,535.82,532.75,2.6618,37910,37910,37911,37911,37912,37911,1,4.8333,4.8333,5,5.0833,5.1667,5,0.16667,2.6667,2.6667,2.6667,2.6667,2.6667,2.6667,0,2.5,2.5,2.5,2.5,2.5,2.5,0,1,90
3,525.06,525.06,525.06,527.32,529.57,526.57,2.604,37910,37910,37911,37911,37912,37911,1,4.8333,4.8333,5,5.0833,5.1667,5,0.16667,2.6667,2.6667,2.6667,2.6667,2.6667,2.6667,0,2.5,2.5,2.5,2.5,2.5,2.5,0,1,91
3,519.04,519.04,519.04,521.25,523.45,520.51,2.548,37910,37910,37911,37911,37912,37911,1,4.8333,4.8333,5,5.0833,5.1667,5,0.16667,2.6667,2.6667,2.6667,2.6667,2.6667,2.6667,0,2.5,2.5,2.5,2.5,2.5,2.5,0,1,92
3,513.14,513.14,513.14,515.3,517.45,514.58,2.4939,37910,37910,37911,37911,37912,37911,1,4.8333,4.8333,5,5.0833,5.1667,5,0.16667,2.6667,2.6667,2.6667,2.6667,2.6667,2.6667,0,2.5,2.5,2.5,2.5,2.5,2.5,0,1,93
3,507.35,507.35,507.35,509.46,511.58,508.76,2.4414,37910,37910,37911,37911,37912,37911,1,4.8333,4.8333,5,5.0833,5.1667,5,0.16667,2.6667,2.6667,2.6667,2.6667,2.6667,2.6667,0,2.5,2.5,2.5,2.5,2.5,2.5,0,1,94
3,501.68,501.68,501.68,503.75,505.82,503.06,2.3905,37910,37910,37911,37911,37912,37911,1,4.8333,4.8333,5,5.0833,5.1667,5,0.16667,2.6667,2.6667,2.6667,2.6667,2.6667,2.6667,0,2.5,2.5,2.5,2.5,2.5,2.5,0,1,95
3,496.12,496.12,496.12,498.14,500.17,497.47,2.3412,37910,37910,37911,37911,37912,37911,1,4.8333,4.8333,5,5.0833,5.1667,5,0.16667,2.6667,2.6667,2.6667,2.6667,2.6667,2.6667,0,2.5,2.5,2.5,2.5,2.5,2.5,0,1,96
3,490.66,490.66,490.66,492.65,494.63,491.99,2.2934,37910,37910,37911,37911,37912,37911,1,4.8333,4.8333,5,5.0833,5.1667,5,0.16667,2.6667,2.6667,2.6667,2.6667,2.6667,2.6667,0,2.5,2.5,2.5,2.5,2.5,2.5,0,1,97
3,485.31,485.31,485.31,487.26,489.2,486.61,2.2471,37910,37910,37911,37911,37912,37911,1,4.8333,4.8333,5,5.0833,5.1667,5,0.16667,2.6667,2.6667,2.6667,2.6667,2.6667,2.6667,0,2.5,2.5,2.5,2.5,2.5,2.5,0,1,98
3,480.06,480.06,480.06,481.97,483.87,481.33,2.202,37910,37910,37911,37911,37912,37911,1,4.8333,4.8333,5,5.0833,5.1667,5,0.16667,2.6667,2.6667,2.6667,2.6667,2.6667,2.6667,0,2.5,2.5,2.5,2.5,2.5,2.5,0,1,99
3,474.91,474.91,474.91,476.78,478.64,476.15,2.1583,37910,37910,37911,37911,37912,37911,1,4.8333,4.8333,5,5.0833,5.1667,5,0.16667,2.6667,2.6667,2.6667,2.6667,2.6667,2.6667,0,2.5,2.5,2.5,2.5,2.5,2.5,0,1,100
3,469.85,469.85,469.85,471.68,473.51,471.07,2.1159,37910,37910,37911,37911,37912,37911,1,4.8333,4.8333,5,5.0833,5.1667,5,0.16667,2.6667,2.6667,2.6667,2.6667,2.6667,2.6667,0,2.5,2.5,2.5,2.5,2.5,2.5,0,1,101
3,464.88,464.88,464.88,466.68,468.47,466.08,2.0747,37910,37910,37911,37911,37912,37911,1,4.8333,4.8333,5,5.0833,5.1667,5,0.16667,2.6667,2.6667,2.6667,2.6667,2.6667,2.6667,0,2.5,2.5,2.5,2.5,2.5,2.5,0,1,102
3,460,460,460,461.76,463.53,461.18,2.0346,37910,37910,37911,37911,37912,37911,1,4.8333,4.8333,5,5.0833,5.1667,5,0.16667,2.6667,2.6667,2.6667,2.6667,2.6667,2.6667,0,2.5,2.5,2.5,2.5,2.5,2.5,0,1,103
3,455.21,455.21,455.21,456.94,458.67,456.36,1.9957,37910,37910,37911,37911,37912,37911,1,4.8333,4.8333,5,5.0833,5.1667,5,0.16667,2.6667,2.6667,2.6667,2.6667,2.6667,2.6667,0,2.5,2.5,2.5,2.5,2.5,2.5,0,1,104
3,450.5,450.5,450.5,452.2,453.9,451.63,1.9578,37910,37910,37911,37911,37912,37911,1,4.8333,4.8333,5,5.0833,5.1667,5,0.16667,2.6667,2.6667,2.6667,2.6667,2.6667,2.6667,0,2.5,2.5,2.5,2.5,2.5,2.5,0,1,105
3,445.88,445.88,445.88,447.54,449.21,446.99,1.9209,37910,37910,37911,37911,37912,37911,1,4.8333,4.8333,5,5.0833,5.1667,5,0.16667,2.6667,2.6667,2.6667,2.6667,2.6667,2.6667,0,2.5,2.5,2.5,2.5,2.5,2.5,0,1,106
3,441.33,441.33,441.33,442.97,444.6,442.42,1.8851,37910,37910,37911,37911,37912,37911,1,4.8333,4.8333,5,5.0833,5.1667,5,0.16667,2.6667,2.6667,2.6667,2.6667,2.6667,2.6667,0,2.5,2.5,2.5,2.5,2.5,2.5,0,1,107
3,436.87,436.87,436.87,438.47,440.07,437.93,1.8502,37910,37910,37911,37911,37912,37911,1,4.8333,4.8333,5,5.0833,5.1667,5,0.16667,2.6667,2.6667,2.6667,2.6667,2.6667,2.6667,0,2.5,2.5,2.5,2.5,2.5,2.5,0,1,108
3,432.47,432.47,432.47,434.05,435.62,433.52,1.8162,37910,37910,37911,37911,37912,37911,1,4.8333,4.8333,5,5.0833,5.1667,5,0.16667,2.6667,2.6667,2.6667,2.6667,2.6667,2.6667,0,2.5,2.5,2.5,2.5,2.5,2.5,0,1,109
3,428.15,428.15,428.15,429.7,431.24,429.18,1.7832,37910,37910,37911,37911,37912,37911,1,4.8333,4.8333,5,5.0833,5.1667,5,0.16667,2.6667,2.6667,2.6667,2.6667,2.6667,2.6667,0,2.5,2.5,2.5,2.5,2.5,2.5,0,1,110
3,423.9,423.9,423.9,425.42,426.94,424.92,1.7509,37910,37910,37911,37911,37912,37911,1,4.8333,4.8333,5,5.0833,5.1667,5,0.16667,2.6667,2.6667,2.6667,2.6667,2.6667,2.6667,0,2.5,2.5,2.5,2.5,2.5,2.5,0,1,111
3,419.72,419.72,419.72,421.21,422.7,420.72,1.7195,37910,37910,37911,37911,37912,37911,1,4.8333,4.8333,5,5.0833,5.1667,5,0.16667,2.6667,2.6667,2.6667,2.6667,2.6667,2.6667,0,2.5,2.5,2.5,2.5,2.5,2.5,0,1,112
3,415.61,415.61,415.61,417.08,418.54,416.59,1.689,37910,37910,37911,37911,37912,37911,1,4.8333,4.8333,5,5.0833,5.1667,5,0.16667,2.6667,2.6667,2.6667,2.6667,2.6667,2.6667,0,2.5,2.5,2.5,2.5,2.5,2.5,0,1,113
3,411.57,411.57,411.57,413,414.44,412.53,1.6591,37910,37910,37911,37911,37912,37911,1,4.8333,4.8333,5,5.0833,5.1667,5,0.16667,2.6667,2.6667,2.6667,2.6667,2.6667,2.6667,0,2.5,2.5,2.5,2.5,2.5,2.5,0,1,114
3,407.59,407.59,407.59,409,410.41,408.53,1.6301,37910,37910,37911,37911,37912,37911,1,4.8333,4.8333,5,5.0833,5.1667,5,0.16667,2.6667,2.6667,2.6667,2.6667,2.6667,2.6667,0,2.5,2.5,2.5,2.5,2.5,2.5,0,1,115
3,403.67,403.67,403.67,405.05,406.44,404.59,1.6017,37910,37910,37911,37911,37912,37911,1,4.8333,4.8333,5,5.0833,5.1667,5,0.16667,2.6667,2.6667,2.6667,2.6667,2.6667,2.6667,0,2.5,2.5,2.5,2.5,2.5,2.5,0,1,116
3,399.81,399.81,399.81,401.17,402.54,400.72,1.574,37910,37910,37911,37911,37912,37911,1,4.8333,4.8333,5,5.0833,5.1667,5,0.16667,2.6667,2.6667,2.6667,2.6667,2.6667,2.6667,0,2.5,2.5,2.5,2.5,2.5,2.5,0,1,117
3,396.01,396.01,396.01,397.35,398.69,396.9,1.547,37910,37910,37911,37911,37912,37911,1,4.8333,4.8333,5,5.0833,5.1667,5,0.16667,2.6667,2.6667,2.6667,2.6667,2.6667,2.6667,0,2.5,2.5,2.5,2.5,2.5,2.5,0,1,118
3,392.27,392.27,392.27,393.59,394.9,393.15,1.5207,37910,37910,37911,37911,37912,37911,1,4.8333,4.8333,5,5.0833,5.1667,5,0.16667,2.6667,2.6667,2.6667,2.6667,2.6667,2.6667,0,2.5,2.5,2.5,2.5,2.5,2.5,0,1,119
3,388.59,388.59,388.59,389.88,391.18,389.45,1.495,37910,37910,37911,37911,37912,37911,1,4.8333,4.8333,5,5.0833,5.1667,5,0.16667,2.6667,2.6667,2.6667,2.6667,2.6667,2.6667,0,2.5,2.5,2.5,2.5,2.5,2.5,0,1,120
3,384.96,384.96,384.96,386.23,387.5,385.81,1.4699,37910,37910,37911,37911,37912,37911,1,4.8333,4.8333,5,5.0833,5.1667,5,0.16667,2.6667,2.6667,2.6667,2.6667,2.6667,2.6667,0,2.5,2.5,2.5,2.5,2.5,2.5,0,1,121
3,381.38,381.38,381.38,382.63,383.89,382.22,1.4454,37910,37910,37911,37911,37912,37911,1,4.8333,4.8333,5,5.0833,5.1667,5,0.16667,2.6667,2.6667,2.6667,2.6667,2.6667,2.6667,0,2.5,2.5,2.5,2.5,2.5,2.5,0,1,122
3,377.86,377.86,377.86,379.09,380.32,378.68,1.4214,37910,37910,37911,37911,37912,37911,1,4.8333,4.8333,5,5.0833,5.1667,5,0.16667,2.6667,2.6667,2.6667,2.6667,2.6667,2.6667,0,2.5,2.5,2.5,2.5,2.5,2.5,0,1,123
3,374.39,374.39,374.39,375.6,376.81,375.2,1.398,37910,37910,37911,37911,37912,37911,1,4.8333,4.8333,5,5.0833,5.1667,5,0.16667,2.6667,2.6667,2.6667,2.6667,2.6667,2.6667,0,2.5,2.5,2.5,2.5,2.5,2.5,0,1,124
3,370.97,370.97,370.97,372.16,373.35,371.76,1.3752,37910,37910,37911,37911,37912,37911,1,4.8333,4.8333,5,5.0833,5.1667,5,0.16667,2.6667,2.6667,2.6667,2.6667,2.6667,2.6667,0,2.5,2.5,2.5,2.5,2.5,2.5,0,1,125
3,367.6,367.6,367.6,368.77,369.94,368.38,1.3528,37910,37910,37911,37911,37912,37911,1,4.8333,4.8333,5,5.0833,5.1667,5,0.16667,2.6667,2.6667,2.6667,2.6667,2.6667,2.6667,0,2.5,2.5,2.5,2.5,2.5,2.5,0,1,126
3,364.27,364.27,364.27,365.43,366.58,365.04,1.331,37910,37910,37911,37911,37912,37911,1,4.8333,4.8333,5,5.0833,5.1667,5,0.16667,2.6667,2.6667,2.6667,2.6667,2.6667,2.6667,0,2.5,2.5,2.5,2.5,2.5,2.5,0,1,127
3,361,361,361,362.13,363.26,361.75,1.3097,37910,37910,37911,37911,37912,37911,1,4.8333,4.8333,5,5.0833,5.1667,5,0.16667,2.6667,2.6667,2.6667,2.6667,2.6667,2.6667,0,2.5,2.5,2.5,2.5,2.5,2.5,0,1,128
3,357.76,357.76,357.76,358.88,360,358.51,1.2888,37910,37910,37911,37911,37912,37911,1,4.8333,4.8333,5,5.0833,5.1667,5,0.16667,2.6667,2.6667,2.6667,2.6667,2.6667,2.6667,0,2.5,2.5,2.5,2.5,2.5,2.5,0,1,129
3,354.58,354.58,354.58,355.68,356.77,355.31,1.2684,37910,37910,37911,37911,37912,37911,1,4.8333,4.8333,5,5.0833,5.1667,5,0.16667,2.6667,2.6667,2.6667,2.6667,2.6667,2.6667,0,2.5,2.5,2.5,2.5,2.5,2.5,0,1,130
3,351.43,351.43,351.43,352.52,353.6,352.16,1.2484,37910,37910,37911,37911,37912,37911,1,4.8333,4.8333,5,5.0833,5.1667,5,0.16667,2.6667,2.6667,2.6667,2.6667,2.6667,2.6667,0,2.5,2.5,2.5,2.5,2.5,2.5,0,1,131
3,348.34,348.34,348.34,349.4,350.46,349.04,1.2288,37910,37910,37911,37911,37912,37911,1,4.8333,4.8333,5,5.0833,5.1667,5,0.16667,2.6667,2.6667,2.6667,2.6667,2.6667,2.6667,0,2.5,2.5,2.5,2.5,2.5,2.5,0,1,132
3,345.28,345.28,345.28,346.32,347.37,345.98,1.2097,37910,37910,37911,37911,37912,37911,1,4.8333,4.8333,5,5.0833,5.1667,5,0.16667,2.6667,2.6667,2.6667,2.6667,2.6667,2.6667,0,2.5,2.5,2.5,2.5,2.5,2.5,0,1,133
3,342.26,342.26,342.26,343.29,344.32,342.95,1.191,37910,37910,37911,37911,37912,37911,1,4.8333,4.8333,5,5.0833,5.1667,5,0.16667,2.6667,2.6667,2.6667,2.6667,2.6667,2.6667,0,2.5,2.5,2.5,2.5,2.5,2.5,0,1,134
3,339.28,339.28,339.28,340.3,341.31,339.96,1.1727,37910,37910,37911,37911,37912,37911,1,4.8333,4.8333,5,5.0833,5.1667,5,0.16667,2.6667,2.6667,2.6667,2.6667,2.6667,2.6667,0,2.5,2.5,2.5,2.5,2.5,2.5,0,1,135
3,336.35,336.35,336.35,337.35,338.35,337.01,1.1548,37910,37910,37911,37911,37912,37911,1,4.8333,4.8333,5,5.0833,5.1667,5,0.16667,2.6667,2.6667,2.6667,2.6667,2.6667,2.6667,0,2.5,2.5,2.5,2.5,2.5,2.5,0,1,136
3,333.45,333.45,333.45,334.43,335.42,334.1,1.1372,37910,37910,37911,37911,37912,37911,1,4.8333,4.8333,5,5.0833,5.1667,5,0.16667,2.6667,2.6667,2.6667,2.6667,2.6667,2.6667,0,2.5,2.5,2.5,2.5,2.5,2.5,0,1,137
3,330.58,330.58,330.58,331.55,332.52,331.23,1.12,37910,37910,37911,37911,37912,37911,1,4.8333,4.8333,5,5.0833,5.1667,5,0.16667,2.6667,2.6667,2.6667,2.6667,2.6667,2.6667,0,2.5,2.5,2.5,2.5,2.5,2.5,0,1,138
3,327.76,327.76,327.76,328.72,329.67,328.4,1.1032,37910,37910,37911,37911,37912,37911,1,4.8333,4.8333,5,5.0833,5.1667,5,0.16667,2.6667,2.6667,2.6667,2.6667,2.6667,2.6667,0,2.5,2.5,2.5,2.5,2.5,2.5,0,1,139
3,324.97,324.97,324.97,325.91,326.85,325.6,1.0867,37910,37910,37911,37911,37912,37911,1,4.8333,4.8333,5,5.0833,5.1667,5,0.16667,2.6667,2.6667,2.6667,2.6667,2.6667,2.6667,0,2.5,2.5,2.5,2.5,2.5,2.5,0,1,140
3,322.22,322.22,322.22,323.15,324.07,322.84,1.0705,37910,37910,37911,37911,37912,37911,1,4.8333,4.8333,5,5.0833,5.1667,5,0.16667,2.6667,2.6667,2.6667,2.6667,2.6667,2.6667,0,2.5,2.5,2.5,2.5,2.5,2.5,0,1,141
3,319.5,319.5,319.5,320.41,321.33,320.11,1.0547,37910,37910,37911,37911,37912,37911,1,4.8333,4.8333,5,5.0833,5.1667,5,0.16667,2.6667,2.6667,2.6667,2.6667,2.6667,2.6667,0,2.5,2.5,2.5,2.5,2.5,2.5,0,1,142
3,316.82,316.82,316.82,317.72,318.62,317.42,1.0391,37910,37910,37911,37911,37912,37911,1,4.8333,4.8333,5,5.0833,5.1667,5,0.16667,2.6667,2.6667,2.6667,2.6667,2.6667,2.6667,0,2.5,2.5,2.5,2.5,2.5,2.5,0,1,143
3,314.17,314.17,314.17,315.05,315.94,314.76,1.0239,37910,37910,37911,37911,37912,37911,1,4.8333,4.8333,5,5.0833,5.1667,5,0.16667,2.6667,2.6667,2.6667,2.6667,2.6667,2.6667,0,2.5,2.5,2.5,2.5,2.5,2.5,0,1,144
3,311.55,311.55,311.55,312.42,313.29,312.13,1.009,37910,37910,37911,37911,37912,37911,1,4.8333,4.8333,5,5.0833,5.1667,5,0.16667,2.6667,2.6667,2.6667,2.6667,2.6667,2.6667,0,2.5,2.5,2.5,2.5,2.5,2.5,0,1,145
3,308.96,308.96,308.96,309.82,310.68,309.53,0.99439,37910,37910,37911,37911,37912,37911,1,4.8333,4.8333,5,5.0833,5.1667,5,0.16667,2.6667,2.6667,2.6667,2.6667,2.6667,2.6667,0,2.5,2.5,2.5,2.5,2.5,2.5,0,1,146
3,306.41,306.41,306.41,307.25,308.1,306.97,0.98005,37910,37910,37911,37911,37912,37911,1,4.8333,4.8333,5,5.0833,5.1667,5,0.16667,2.6667,2.6667,2.6667,2.6667,2.6667,2.6667,0,2.5,2.5,2.5,2.5,2.5,2.5,0,1,147
3,303.88,303.88,303.88,304.72,305.55,304.44,0.96599,37910,37910,37911,37911,37912,37911,1,4.8333,4.8333,5,5.0833,5.1667,5,0.16667,2.6667,2.6667,2.6667,2.6667,2.6667,2.6667,0,2.5,2.5,2.5,2.5,2.5,2.5,0,1,148
3,301.39,301.39,301.39,302.21,303.04,301.94,0.9522,37910,37910,37911,37911,37912,37911,1,4.8333,4.8333,5,5.0833,5.1667,5,0.16667,2.6667,2.6667,2.6667,2.6667,2.6667,2.6667,0,2.5,2.5,2.5,2.5,2.5,2.5,0,1,149
3,298.92,298.92,298.92,299.74,300.55,299.47,0.93867,37910,37910,37911,37911,37912,37911,1,4.8333,4.8333,5,5.0833,5.1667,5,0.16667,2.6667,2.6667,2.6667,2.6667,2.6667,2.6667,0,2.5,2.5,2.5,2.5,2.5,2.5,0,1,150
3,296.49,296.49,296.49,297.29,298.09,297.02,0.9254,37910,37910,37911,37911,37912,37911,1,4.8333,4.8333,5,5.0833,5.1667,5,0.16667,2.6667,2.6667,2.6667,2.6667,2.6667,2.6667,0,2.5,2.5,2.5,2.5,2.5,2.5,0,1,151
3,294.08,294.08,294.08,294.87,295.66,294.61,0.91238,37910,37910,37911,37911,37912,37911,1,4.8333,4.8333,5,5.0833,5.1667,5,0.16667,2.6667,2.6667,2.6667,2.6667,2.6667,2.6667,0,2.5,2.5,2.5,2.5,2.5,2.5,0,1,152
3,291.71,291.71,291.71,292.48,293.26,292.22,0.89961,37910,37910,37911,37911,37912,37911,1,4.8333,4.8333,5,5.0833,5.1667,5,0.16667,2.6667,2.6667,2.6667,2.6667,2.6667,2.6667,0,2.5,2.5,2.5,2.5,2.5,2.5,0,1,153
3,289.35,289.35,289.35,290.12,290.89,289.87,0.88707,37910,37910,37911,37911,37912,37911,1,4.8333,4.8333,5,5.0833,5.1667,5,0.16667,2.6667,2.6667,2.6667,2.6667,2.6667,2.6667,0,2.5,2.5,2.5,2.5,2.5,2.5,0,1,154
3,287.03,287.03,287.03,287.79,288.55,287.54,0.87476,37910,37910,37911,37911,37912,37911,1,4.8333,4.8333,5,5.0833,5.1667,5,0.16667,2.6667,2.6667,2.6667,2.6667,2.6667,2.6667,0,2.5,2.5,2.5,2.5,2.5,2.5,0,1,155
3,284.73,284.73,284.73,285.48,286.23,285.23,0.86269,37910,37910,37911,37911,37912,37911,1,4.8333,4.8333,5,5.0833,5.1667,5,0.16667,2.6667,2.6667,2.6667,2.6667,2.6667,2.6667,0,2.5,2.5,2.5,2.5,2.5,2.5,0,1,156
3,282.46,282.46,282.46,283.2,283.94,282.95,0.85083,37910,37910,37911,37911,37912,37911,1,4.8333,4.8333,5,5.0833,5.1667,5,0.16667,2.6667,2.6667,2.6667,2.6667,2.6667,2.6667,0,2.5,2.5,2.5,2.5,2.5,2.5,0,1,157
3,280.22,280.22,280.22,280.95,281.67,280.7,0.83919,37910,37910,37911,37911,37912,37911,1,4.8333,4.8333,5,5.0833,5.1667,5,0.16667,2.6667,2.6667,2.6667,2.6667,2.6667,2.6667,0,2.5,2.5,2.5,2.5,2.5,2.5,0,1,158
3,278,278,278,278.72,279.43,278.48,0.82775,37910,37910,37911,37911,37912,37911,1,4.8333,4.8333,5,5.0833,5.1667,5,0.16667,2.6667,2.6667,2.6667,2.6667,2.6667,2.6667,0,2.5,2.5,2.5,2.5,2.5,2.5,0,1,159
3,275.8,275.8,275.8,276.51,277.22,276.28,0.81653,37910,37910,37911,37911,37912,37911,1,4.8333,4.8333,5,5.0833,5.1667,5,0.16667,2.6667,2.6667,2.6667,2.6667,2.6667,2.6667,0,2.5,2.5,2.5,2.5,2.5,2.5,0,1,160
3,273.63,273.63,273.63,274.33,275.03,274.1,0.8055,37910,37910,37911,37911,37912,37911,1,4.8333,4.8333,5,5.0833,5.1667,5,0.16667,2.6667,2.6667,2.6667,2.6667,2.6667,2.6667,0,2.5,2.5,2.5,2.5,2.5,2.5,0,1,161
3,271.49,271.49,271.49,272.18,272.86,271.95,0.79467,37910,37910,37911,37911,37912,37911,1,4.8333,4.8333,5,5.0833,5.1667,5,0.16667,2.6667,2.6667,2.6667,2.6667,2.6667,2.6667,0,2.5,2.5,2.5,2.5,2.5,2.5,0,1,162
3,269.36,269.36,269.36,270.04,270.72,269.82,0.78403,37910,37910,37911,37911,37912,37911,1,4.8333,4.8333,5,5.0833,5.1667,5,0.16667,2.6667,2.6667,2.6667,2.6667,2.6667,2.6667,0,2.5,2.5,2.5,2.5,2.5,2.5,0,1,163
3,267.26,267.26,267.26,267.93,268.6,267.71,0.77358,37910,37910,37911,37911,37912,37911,1,4.8333,4.8333,5,5.0833,5.1667,5,0.16667,2.6667,2.6667,2.6667,2.6667,2.6667,2.6667,0,2.5,2.5,2.5,2.5,2.5,2.5,0,1,164
3,265.19,265.19,265.19,265.85,266.51,265.63,0.76331,37910,37910,37911,37911,37912,37911,1,4.8333,4.8333,5,5.0833,5.1667,5,0.16667,2.6667,2.6667,2.6667,2.6667,2.6667,2.6667,0,2.5,2.5,2.5,2.5,2.5,2.5,0,1,165
3,263.13,263.13,263.13,263.78,264.44,263.57,0.75322,37910,37910,37911,37911,37912,37911,1,4.8333,4.8333,5,5.0833,5.1667,5,0.16667,2.6667,2.6667,2.6667,2.6667,2.6667,2.6667,0,2.5,2.5,2.5,2.5,2.5,2.5,0,1,166
3,261.1,261.1,261.1,261.74,262.39,261.53,0.74331,37910,37910,37911,37911,37912,37911,1,4.8333,4.8333,5,5.0833,5.1667,5,0.16667,2.6667,2.6667,2.6667,2.6667,2.6667,2.6667,0,2.5,2.5,2.5,2.5,2.5,2.5,0,1,167
3,259.09,259.09,259.09,259.72,260.36,259.51,0.73356,37910,37910,37911,37911,37912,37911,1,4.8333,4.8333,5,5.0833,5.1667,5,0.16667,2.6667,2.6667,2.6667,2.6667,2.6667,2.6667,0,2.5,2.5,2.5,2.5,2.5,2.5,0,1,168
3,257.1,257.1,257.1,257.73,258.35,257.52,0.72398,37910,37910,37911,37911,37912,37911,1,4.8333,4.8333,5,5.0833,5.1667,5,0.16667,2.6667,2.6667,2.6667,2.6667,2.6667,2.6667,0,2.5,2.5,2.5,2.5,2.5,2.5,0,1,169
3,255.13,255.13,255.13,255.75,256.37,255.54,0.71457,37910,37910,37911,37911,37912,37911,1,4.8333,4.8333,5,5.0833,5.1667,5,0.16667,2.6667,2.6667,2.6667,2.6667,2.6667,2.6667,0,2.5,2.5,2.5,2.5,2.5,2.5,0,1,170
3,253.18,253.18,253.18,253.79,254.4,253.59,0.70531,37910,37910,37911,37911,37912,37911,1,4.8333,4.8333,5,5.0833,5.1667,5,0.16667,2.6667,2.6667,2.6667,2.6667,2.6667,2.6667,0,2.5,2.5,2.5,2.5,2.5,2.5,0,1,171
3,251.25,251.25,251.25,251.86,252.46,251.66,0.69621,37910,37910,37911,37911,37912,37911,1,4.8333,4.8333,5,5.0833,5.1667,5,0.16667,2.6667,2.6667,2.6667,2.6667,2.6667,2.6667,0,2.5,2.5,2.5,2.5,2.5,2.5,0,1,172
3,249.35,249.35,249.35,249.94,250.54,249.74,0.68727,37910,37910,37911,37911,37912,37911,1,4.8333,4.8333,5,5.0833,5.1667,5,0.16667,2.6667,2.6667,2.6667,2.6667,2.6667,2.6667,0,2.5,2.5,2.5,2.5,2.5,2.5,0,1,173
3,247.46,247.46,247.46,248.05,248.63,247.85,0.67847,37910,37910,37911,37911,37912,37911,1,4.8333,4.8333,5,5.0833,5.1667,5,0.16667,2.6667,2.6667,2.6667,2.6667,2.6667,2.6667,0,2.5,2.5,2.5,2.5,2.5,2.5,0,1,174
3,245.59,245.59,245.59,246.17,246.75,245.98,0.66981,37910,37910,37911,37911,37912,37911,1,4.8333,4.8333,5,5.0833,5.1667,5,0.16667,2.6667,2.6667,2.6667,2.6667,2.6667,2.6667,0,2.5,2.5,2.5,2.5,2.5,2.5,0,1,175
3,243.74,243.74,243.74,244.31,244.89,244.12,0.66131,37910,37910,37911,37911,37912,37911,1,4.8333,4.8333,5,5.0833,5.1667,5,0.16667,2.6667,2.6667,2.6667,2.6667,2.6667,2.6667,0,2.5,2.5,2.5,2.5,2.5,2.5,0,1,176
3,241.91,241.91,241.91,242.48,243.04,242.29,0.65294,37910,37910,37911,37911,37912,37911,1,4.8333,4.8333,5,5.0833,5.1667,5,0.16667,2.6667,2.6667,2.6667,2.6667,2.6667,2.6667,0,2.5,2.5,2.5,2.5,2.5,2.5,0,1,177
3,240.1,240.1,240.1,240.66,241.22,240.47,0.6447,37910,37910,37911,37911,37912,37911,1,4.8333,4.8333,5,5.0833,5.1667,5,0.16667,2.6667,2.6667,2.6667,2.6667,2.6667,2.6667,0,2.5,2.5,2.5,2.5,2.5,2.5,0,1,178
3,238.31,238.31,238.31,238.86,239.41,238.67,0.6366,37910,37910,37911,37911,37912,37911,1,4.8333,4.8333,5,5.0833,5.1667,5,0.16667,2.6667,2.6667,2.6667,2.6667,2.6667,2.6667,0,2.5,2.5,2.5,2.5,2.5,2.5,0,1,179
3,236.53,236.53,236.53,237.07,237.62,236.89,0.62864,37910,37910,37911,37911,37912,37911,1,4.8333,4.8333,5,5.0833,5.1667,5,0.16667,2.6667,2.6667,2.6667,2.6667,2.6667,2.6667,0,2.5,2.5,2.5,2.5,2.5,2.5,0,1,180
3,234.77,234.77,234.77,235.31,235.85,235.13,0.6208,37910,37910,37911,37911,37912,37911,1,4.8333,4.8333,5,5.0833,5.1667,5,0.16667,2.6667,2.6667,2.6667,2.6667,2.6667,2.6667,0,2.5,2.5,2.5,2.5,2.5,2.5,0,1,181
3,233.03,233.03,233.03,233.56,234.09,233.38,0.61308,37910,37910,37911,37911,37912,37911,1,4.8333,4.8333,5,5.0833,5.1667,5,0.16667,2.6667,2.6667,2.6667,2.6667,2.6667,2.6667,0,2.5,2.5,2.5,2.5,2.5,2.5,0,1,182
3,231.31,231.31,231.31,231.83,232.36,231.66,0.60549,37910,37910,37911,37911,37912,37911,1,4.8333,4.8333,5,5.0833,5.1667,5,0.16667,2.6667,2.6667,2.6667,2.6667,2.6667,2.6667,0,2.5,2.5,2.5,2.5,2.5,2.5,0,1,183
3,229.6,229.6,229.6,230.12,230.64,229.95,0.59802,37910,37910,37911,37911,37912,37911,1,4.8333,4.8333,5,5.0833,5.1667,5,0.16667,2.6667,2.6667,2.6667,2.6667,2.6667,2.6667,0,2.5,2.5,2.5,2.5,2.5,2.5,0,1,184
3,227.91,227.91,227.91,228.42,228.93,228.25,0.59067,37910,37910,37911,37911,37912,37911,1,4.8333,4.8333,5,5.0833,5.1667,5,0.16667,2.6667,2.6667,2.6667,2.6667,2.6667,2.6667,0,2.5,2.5,2.5,2.5,2.5,2.5,0,1,185
3,226.24,226.24,226.24,226.74,227.25,226.58,0.58343,37910,37910,37911,37911,37912,37911,1,4.8333,4.8333,5,5.0833,5.1667,5,0.16667,2.6667,2.6667,2.6667,2.6667,2.6667,2.6667,0,2.5,2.5,2.5,2.5,2.5,2.5,0,1,186
3,224.58,224.58,224.58,225.08,225.58,224.91,0.57631,37910,37910,37911,37911,37912,37911,1,4.8333,4.8333,5,5.0833,5.1667,5,0.16667,2.6667,2.6667,2.6667,2.6667,2.6667,2.6667,0,2.5,2.5,2.5,2.5,2.5,2.5,0,1,187
3,222.94,222.94,222.94,223.43,223.93,223.27,0.5693,37910,37910,37911,37911,37912,37911,1,4.8333,4.8333,5,5.0833,5.1667,5,0.16667,2.6667,2.6667,2.6667,2.6667,2.6667,2.6667,0,2.5,2.5,2.5,2.5,2.5,2.5,0,1,188
3,221.32,221.32,221.32,221.8,222.29,221.64,0.5624,37910,37910,37911,37911,37912,37911,1,4.8333,4.8333,5,5.0833,5.1667,5,0.16667,2.6667,2.6667,2.6667,2.6667,2.6667,2.6667,0,2.5,2.5,2.5,2.5,2.5,2.5,0,1,189
3,219.71,219.71,219.71,220.19,220.67,220.03,0.5556,37910,37910,37911,37911,37912,37911,1,4.8333,4.8333,5,5.0833,5.1667,5,0.16667,2.6667,2.6667,2.6667,2.6667,2.6667,2.6667,0,2.5,2.5,2.5,2.5,2.5,2.5,0,1,190
3,218.11,218.11,218.11,218.59,219.06,218.43,0.54891,37910,37910,37911,37911,37912,37911,1,4.8333,4.8333,5,5.0833,5.1667,5,0.16667,2.6667,2.6667,2.6667,2.6667,2.6667,2.6667,0,2.5,2.5,2.5,2.5,2.5,2.5,0,1,191
3,216.53,216.53,216.53,217,217.47,216.85,0.54232,37910,37910,37911,37911,37912,37911,1,4.8333,4.8333,5,5.0833,5.1667,5,0.16667,2.6667,2.6667,2.6667,2.6667,2.6667,2.6667,0,2.5,2.5,2.5,2.5,2.5,2.5,0,1,192
3,214.97,214.97,214.97,215.43,215.9,215.28,0.53583,37910,37910,37911,37911,37912,37911,1,4.8333,4.8333,5,5.0833,5.1667,5,0.16667,2.6667,2.6667,2.6667,2.6667,2.6667,2.6667,0,2.5,2.5,2.5,2.5,2.5,2.5,0,1,193
3,213.42,213.42,213.42,213.88,214.34,213.72,0.52944,37910,37910,37911,37911,37912,37911,1,4.8333,4.8333,5,5.0833,5.1667,5,0.16667,2.6667,2.6667,2.6667,2.6667,2.6667,2.6667,0,2.5,2.5,2.5,2.5,2.5,2.5,0,1,194
3,211.88,211.88,211.88,212.34,212.79,212.19,0.52315,37910,37910,37911,37911,37912,37911,1,4.8333,4.8333,5,5.0833,5.1667,5,0.16667,2.6667,2.6667,2.6667,2.6667,2.6667,2.6667,0,2.5,2.5,2.5,2.5,2.5,2.5,0,1,195
3,210.36,210.36,210.36,210.81,211.26,210.66,0.51695,37910,37910,37911,37911,37912,37911,1,4.8333,4.8333,5,5.0833,5.1667,5,0.16667,2.6667,2.6667,2.6667,2.6667,2.6667,2.6667,0,2.5,2.5,2.5,2.5,2.5,2.5,0,1,196
3,208.86,208.86,208.86,209.3,209.74,209.15,0.51085,37910,37910,37911,37911,37912,37911,1,4.8333,4.8333,5,5.0833,5.1667,5,0.16667,2.6667,2.6667,2.6667,2.6667,2.6667,2.6667,0,2.5,2.5,2.5,2.5,2.5,2.5,0,1,197
3,207.36,207.36,207.36,207.8,208.24,207.66,0.50483,37910,37910,37911,37911,37912,37911,1,4.8333,4.8333,5,5.0833,5.1667,5,0.16667,2.6667,2.6667,2.6667,2.6667,2.6667,2.6667,0,2.5,2.5,2.5,2.5,2.5,2.5,0,1,198
3,205.89,205.89,205.89,206.32,206.75,206.17,0.49891,37910,37910,37911,37911,37912,37911,1,4.8333,4.8333,5,5.0833,5.1667,5,0.16667,2.6667,2.6667,2.6667,2.6667,2.6667,2.6667,0,2.5,2.5,2.5,2.5,2.5,2.5,0,1,199
3,204.42,204.42,204.42,204.85,205.28,204.71,0.49307,37910,37910,37911,37911,37912,37911,1,4.8333,4.8333,5,5.0833,5.1667,5,0.16667,2.6667,2.6667,2.6667,2.6667,2.6667,2.6667,0,2.5,2.5,2.5,2.5,2.5,2.5,0,1,200
3,202.97,202.97,202.97,203.39,203.81,203.25,0.48732,37910,37910,37911,37911,37912,37911,1,4.8333,4.8333,5,5.0833,5.1667,5,0.16667,2.6667,2.6667,2.6667,2.6667,2.6667,2.6667,0,2.5,2.5,2.5,2.5,2.5,2.5,0,1,201
3,201.53,201.53,201.53,201.95,202.37,201.81,0.48166,37910,37910,37911,37911,37912,37911,1,4.8333,4.8333,5,5.0833,5.1667,5,0.16667,2.6667,2.6667,2.6667,2.6667,2.6667,2.6667,0,2.5,2.5,2.5,2.5,2.5,2.5,0,1,202
3,200.11,200.11,200.11,200.52,200.93,200.38,0.47608,37910,37910,37911,37911,37912,37911,1,4.8333,4.8333,5,5.0833,5.1667,5,0.16667,2.6667,2.6667,2.6667,2.6667,2.6667,2.6667,0,2.5,2.5,2.5,2.5,2.5,2.5,0,1,203
3,198.69,198.69,198.69,199.1,199.51,198.97,0.47057,37910,37910,37911,37911,37912,37911,1,4.8333,4.8333,5,5.0833,5.1667,5,0.16667,2.6667,2.6667,2.6667,2.6667,2.6667,2.6667,0,2.5,2.5,2.5,2.5,2.5,2.5,0,1,204
3,197.29,197.29,197.29,197.7,198.1,197.56,0.46515,37910,37910,37911,37911,37912,37911,1,4.8333,4.8333,5,5.0833,5.1667,5,0.16667,2.6667,2.6667,2.6667,2.6667,2.6667,2.6667,0,2.5,2.5,2.5,2.5,2.5,2.5,0,1,205
3,195.91,195.91,195.91,196.31,196.7,196.17,0.45981,37910,37910,37911,37911,37912,37911,1,4.8333,4.8333,5,5.0833,5.1667,5,0.16667,2.6667,2.6667,2.6667,2.6667,2.6667,2.6667,0,2.5,2.5,2.5,2.5,2.5,2.5,0,1,206
3,194.53,194.53,194.53,194.93,195.32,194.8,0.45455,37910,37910,37911,37911,37912,37911,1,4.8333,4.8333,5,5.0833,5.1667,5,0.16667,2.6667,2.6667,2.6667,2.6667,2.6667,2.6667,0,2.5,2.5,2.5,2.5,2.5,2.5,0,1,207
3,193.17,193.17,193.17,193.56,193.95,193.43,0.44936,37910,37910,37911,37911,37912,37911,1,4.8333,4.8333,5,5.0833,5.1667,5,0.16667,2.6667,2.6667,2.6667,2.6667,2.6667,2.6667,0,2.5,2.5,2.5,2.5,2.5,2.5,0,1,208
3,191.82,191.82,191.82,192.21,192.59,192.08,0.44424,37910,37910,37911,37911,37912,37911,1,4.8333,4.8333,5,5.0833,5.1667,5,0.16667,2.6667,2.6667,2.6667,2.6667,2.6667,2.6667,0,2.5,2.5,2.5,2.5,2.5,2.5,0,1,209
3,190.48,190.48,190.48,190.86,191.24,190.74,0.4392,37910,37910,37911,37911,37912,37911,1,4.8333,4.8333,5,5.0833,5.1667,5,0.16667,2.6667,2.6667,2.6667,2.6667,2.6667,2.6667,0,2.5,2.5,2.5,2.5,2.5,2.5,0,1,210
3,189.16,189.16,189.16,189.53,189.91,189.41,0.43423,37910,37910,37911,37911,37912,37911,1,4.8333,4.8333,5,5.0833,5.1667,5,0.16667,2.6667,2.6667,2.6667,2.6667,2.6667,2.6667,0,2.5,2.5,2.5,2.5,2.5,2.5,0,1,211
3,187.84,187.84,187.84,188.21,188.58,188.09,0.42933,37910,37910,37911,37911,37912,37911,1,4.8333,4.8333,5,5.0833,5.1667,5,0.16667,2.6667,2.6667,2.6667,2.6667,2.6667,2.6667,0,2.5,2.5,2.5,2.5,2.5,2.5,0,1,212
3,186.54,186.54,186.54,186.91,187.27,186.78,0.42449,37910,37910,37911,37911,37912,37911,1,4.8333,4.8333,5,5.0833,5.1667,5,0.16667,2.6667,2.6667,2.6667,2.6667,2.6667,2.6667,0,2.5,2.5,2.5,2.5,2.5,2.5,0,1,213
3,185.25,185.25,185.25,185.61,185.97,185.49,0.41973,37910,37910,37911,37911,37912,37911,1,4.8333,4.8333,5,5.0833,5.1667,5,0.16667,2.6667,2.6667,2.6667,2.6667,2.6667,2.6667,0,2.5,2.5,2.5,2.5,2.5,2.5,0,1,214
3,183.97,183.97,183.97,184.33,184.69,184.21,0.41503,37910,37910,37911,37911,37912,37911,1,4.8333,4.8333,5,5.0833,5.1667,5,0.16667,2.6667,2.6667,2.6667,2.6667,2.6667,2.6667,0,2.5,2.5,2.5,2.5,2.5,2.5,0,1,215
3,182.7,182.7,182.7,183.05,183.41,182.93,0.4104,37910,37910,37911,37911,37912,37911,1,4.8333,4.8333,5,5.0833,5.1667,5,0.16667,2.6667,2.6667,2.6667,2.6667,2.6667,2.6667,0,2.5,2.5,2.5,2.5,2.5,2.5,0,1,216
3,181.44,181.44,181.44,181.79,182.14,181.67,0.40584,37910,37910,37911,37911,37912,37911,1,4.8333,4.8333,5,5.0833,5.1667,5,0.16667,2.6667,2.6667,2.6667,2.6667,2.6667,2.6667,0,2.5,2.5,2.5,2.5,2.5,2.5,0,1,217
3,180.19,180.19,180.19,180.54,180.89,180.42,0.40133,37910,37910,37911,37911,37912,37911,1,4.8333,4.8333,5,5.0833,5.1667,5,0.16667,2.6667,2.6667,2.6667,2.6667,2.6667,2.6667,0,2.5,2.5,2.5,2.5,2.5,2.5,0,1,218
3,178.95,178.95,178.95,179.3,179.64,179.18,0.39689,37910,37910,37911,37911,37912,37911,1,4.8333,4.8333,5,5.0833,5.1667,5,0.16667,2.6667,2.6667,2.6667,2.6667,2.6667,2.6667,0,2.5,2.5,2.5,2.5,2.5,2.5,0,1,219
3,177.73,177.73,177.73,178.07,178.41,177.96,0.39251,37910,37910,37911,37911,37912,37911,1,4.8333,4.8333,5,5.0833,5.1667,5,0.16667,2.6667,2.6667,2.6667,2.6667,2.6667,2.6667,0,2.5,2.5,2.5,2.5,2.5,2.5,0,1,220
3,176.51,176.51,176.51,176.85,177.19,176.74,0.38819,37910,37910,37911,37911,37912,37911,1,4.8333,4.8333,5,5.0833,5.1667,5,0.16667,2.6667,2.6667,2.6667,2.6667,2.6667,2.6667,0,2.5,2.5,2.5,2.5,2.5,2.5,0,1,221
3,175.31,175.31,175.31,175.64,175.97,175.53,0.38393,37910,37910,37911,37911,37912,37911,1,4.8333,4.8333,5,5.0833,5.1667,5,0.16667,2.6667,2.6667,2.6667,2.6667,2.6667,2.6667,0,2.5,2.5,2.5,2.5,2.5,2.5,0,1,222
3,174.11,174.11,174.11,174.44,174.77,174.33,0.37973,37910,37910,37911,37911,37912,37911,1,4.8333,4.8333,5,5.0833,5.1667,5,0.16667,2.6667,2.6667,2.6667,2.6667,2.6667,2.6667,0,2.5,2.5,2.5,2.5,2.5,2.5,0,1,223
3,172.93,172.93,172.93,173.25,173.58,173.15,0.37558,37910,37910,37911,37911,37912,37911,1,4.8333,4.8333,5,5.0833,5.1667,5,0.16667,2.6667,2.6667,2.6667,2.6667,2.6667,2.6667,0,2.5,2.5,2.5,2.5,2.5,2.5,0,1,224
3,171.75,171.75,171.75,172.08,172.4,171.97,0.37149,37910,37910,37911,37911,37912,37911,1,4.8333,4.8333,5,5.0833,5.1667,5,0.16667,2.6667,2.6667,2.6667,2.6667,2.6667,2.6667,0,2.5,2.5,2.5,2.5,2.5,2.5,0,1,225
3,170.59,170.59,170.59,170.91,171.23,170.8,0.36746,37910,37910,37911,37911,37912,37911,1,4.8333,4.8333,5,5.0833,5.1667,5,0.16667,2.6667,2.6667,2.6667,2.6667,2.6667,2.6667,0,2.5,2.5,2.5,2.5,2.5,2.5,0,1,226
3,169.43,169.43,169.43,169.75,170.06,169.64,0.36348,37910,37910,37911,37911,37912,37911,1,4.8333,4.8333,5,5.0833,5.1667,5,0.16667,2.6667,2.6667,2.6667,2.6667,2.6667,2.6667,0,2.5,2.5,2.5,2.5,2.5,2.5,0,1,227
3,168.29,168.29,168.29,168.6,168.91,168.5,0.35955,37910,37910,37911,37911,37912,37911,1,4.8333,4.8333,5,5.0833,5.1667,5,0.16667,2.6667,2.6667,2.6667,2.6667,2.6667,2.6667,0,2.5,2.5,2.5,2.5,2.5,2.5,0,1,228
3,167.15,167.15,167.15,167.46,167.77,167.36,0.35567,37910,37910,37911,37911,37912,37911,1,4.8333,4.8333,5,5.0833,5.1667,5,0.16667,2.6667,2.6667,2.6667,2.6667,2.6667,2.6667,0,2.5,2.5,2.5,2.5,2.5,2.5,0,1,229
3,166.03,166.03,166.03,166.33,166.64,166.23,0.35185,37910,37910,37911,37911,37912,37911,1,4.8333,4.8333,5,5.0833,5.1667,5,0.16667,2.6667,2.6667,2.6667,2.6667,2.6667,2.6667,0,2.5,2.5,2.5,2.5,2.5,2.5,0,1,230
3,164.91,164.91,164.91,165.21,165.51,165.11,0.34808,37910,37910,37911,37911,37912,37911,1,4.8333,4.8333,5,5.0833,5.1667,5,0.16667,2.6667,2.6667,2.6667,2.6667,2.6667,2.6667,0,2.5,2.5,2.5,2.5,2.5,2.5,0,1,231
3,163.8,163.8,163.8,164.1,164.4,164,0.34436,37910,37910,37911,37911,37912,37911,1,4.8333,4.8333,5,5.0833,5.1667,5,0.16667,2.6667,2.6667,2.6667,2.6667,2.6667,2.6667,0,2.5,2.5,2.5,2.5,2.5,2.5,0,1,232
3,162.7,162.7,162.7,163,163.29,162.9,0.34068,37910,37910,37911,37911,37912,37911,1,4.8333,4.8333,5,5.0833,5.1667,5,0.16667,2.6667,2.6667,2.6667,2.6667,2.6667,2.6667,0,2.5,2.5,2.5,2.5,2.5,2.5,0,1,233
3,161.61,161.61,161.61,161.91,162.2,161.81,0.33706,37910,37910,37911,37911,37912,37911,1,4.8333,4.8333,5,5.0833,5.1667,5,0.16667,2.6667,2.6667,2.6667,2.6667,2.6667,2.6667,0,2.5,2.5,2.5,2.5,2.5,2.5,0,1,234
3,160.53,160.53,160.53,160.82,161.11,160.73,0.33348,37910,37910,37911,37911,37912,37911,1,4.8333,4.8333,5,5.0833,5.1667,5,0.16667,2.6667,2.6667,2.6667,2.6667,2.6667,2.6667,0,2.5,2.5,2.5,2.5,2.5,2.5,0,1,235
3,159.46,159.46,159.46,159.75,160.03,159.65,0.32995,37910,37910,37911,37911,37912,37911,1,4.8333,4.8333,5,5.0833,5.1667,5,0.16667,2.6667,2.6667,2.6667,2.6667,2.6667,2.6667,0,2.5,2.5,2.5,2.5,2.5,2.5,0,1,236
3,158.4,158.4,158.4,158.68,158.97,158.59,0.32646,37910,37910,37911,37911,37912,37911,1,4.8333,4.8333,5,5.0833,5.1667,5,0.16667,2.6667,2.6667,2.6667,2.6667,2.6667,2.6667,0,2.5,2.5,2.5,2.5,2.5,2.5,0,1,237
3,157.35,157.35,157.35,157.63,157.91,157.53,0.32302,37910,37910,37911,37911,37912,37911,1,4.8333,4.8333,5,5.0833,5.1667,5,0.16667,2.6667,2.6667,2.6667,2.6667,2.6667,2.6667,0,2.5,2.5,2.5,2.5,2.5,2.5,0,1,238
3,156.3,156.3,156.3,156.58,156.85,156.49,0.31963,37910,37910,37911,37911,37912,37911,1,4.8333,4.8333,5,5.0833,5.1667,5,0.16667,2.6667,2.6667,2.6667,2.6667,2.6667,2.6667,0,2.5,2.5,2.5,2.5,2.5,2.5,0,1,239
3,155.26,155.26,155.26,155.54,155.81,155.45,0.31628,37910,37910,37911,37911,37912,37911,1,4.8333,4.8333,5,5.0833,5.1667,5,0.16667,2.6667,2.6667,2.6667,2.6667,2.6667,2.6667,0,2.5,2.5,2.5,2.5,2.5,2.5,0,1,240
3,154.23,154.23,154.23,154.51,154.78,154.42,0.31297,37910,37910,37911,37911,37912,37911,1,4.8333,4.8333,5,5.0833,5.1667,5,0.16667,2.6667,2.6667,2.6667,2.6667,2.6667,2.6667,0,2.5,2.5,2.5,2.5,2.5,2.5,0,1,241
3,153.21,153.21,153.21,153.48,153.75,153.39,0.3097,37910,37910,37911,37911,37912,37911,1,4.8333,4.8333,5,5.0833,5.1667,5,0.16667,2.6667,2.6667,2.6667,2.6667,2.6667,2.6667,0,2.5,2.5,2.5,2.5,2.5,2.5,0,1,242
3,152.2,152.2,152.2,152.47,152.73,152.38,0.30648,37910,37910,37911,37911,37912,37911,1,4.8333,4.8333,5,5.0833,5.1667,5,0.16667,2.6667,2.6667,2.6667,2.6667,2.6667,2.6667,0,2.5,2.5,2.5,2.5,2.5,2.5,0,1,243
3,151.2,151.2,151.2,151.46,151.72,151.37,0.30329,37910,37910,37911,37911,37912,37911,1,4.8333,4.8333,5,5.0833,5.1667,5,0.16667,2.6667,2.6667,2.6667,2.6667,2.6667,2.6667,0,2.5,2.5,2.5,2.5,2.5,2.5,0,1,244
3,150.2,150.2,150.2,150.46,150.72,150.38,0.30015,37910,37910,37911,37911,37912,37911,1,4.8333,4.8333,5,5.0833,5.1667,5,0.16667,2.6667,2.6667,2.6667,2.6667,2.6667,2.6667,0,2.5,2.5,2.5,2.5,2.5,2.5,0,1,245
3,149.21,149.21,149.21,149.47,149.73,149.39,0.29705,37910,37910,37911,37911,37912,37911,1,4.8333,4.8333,5,5.0833,5.1667,5,0.16667,2.6667,2.6667,2.6667,2.6667,2.6667,2.6667,0,2.5,2.5,2.5,2.5,2.5,2.5,0,1,246
3,148.23,148.23,148.23,148.49,148.74,148.4,0.29399,37910,37910,37911,37911,37912,37911,1,4.8333,4.8333,5,5.0833,5.1667,5,0.16667,2.6667,2.6667,2.6667,2.6667,2.6667,2.6667,0,2.5,2.5,2.5,2.5,2.5,2.5,0,1,247
3,147.26,147.26,147.26,147.51,147.77,147.43,0.29096,37910,37910,37911,37911,37912,37911,1,4.8333,4.8333,5,5.0833,5.1667,5,0.16667,2.6667,2.6667,2.6667,2.6667,2.6667,2.6667,0,2.5,2.5,2.5,2.5,2.5,2.5,0,1,248
3,146.3,146.3,146.3,146.55,146.8,146.46,0.28797,37910,37910,37911,37911,37912,37911,1,4.8333,4.8333,5,5.0833,5.1667,5,0.16667,2.6667,2.6667,2.6667,2.6667,2.6667,2.6667,0,2.5,2.5,2.5,2.5,2.5,2.5,0,1,249
