"N","min(Temp)","q1(Temp)","med(Temp)","q3(Temp)","max(Temp)","avg(Temp)","std(Temp)","min(vtkOriginalPointIds)","q1(vtkOriginalPointIds)","med(vtkOriginalPointIds)","q3(vtkOriginalPointIds)","max(vtkOriginalPointIds)","avg(vtkOriginalPointIds)","std(vtkOriginalPointIds)","min(X)","q1(X)","med(X)","q3(X)","max(X)","avg(X)","std(X)","min(Y)","q1(Y)","med(Y)","q3(Y)","max(Y)","avg(Y)","std(Y)","min(Z)","q1(Z)","med(Z)","q3(Z)","max(Z)","avg(Z)","std(Z)","vtkValidPointMask","Time"
3,0,0,0,0,0,0,0,37910,37910,37911,37911,37912,37911,1,4.8333,4.8333,5,5.0833,5.1667,5,0.16667,2.6667,2.6667,2.6667,2.6667,2.6667,2.6667,0,2.5,2.5,2.5,2.5,2.5,2.5,0,1,0
3,2.1389,2.1389,2.1389,2.1693,2.1997,2.1592,0.035101,37910,37910,37911,37911,37912,37911,1,4.8333,4.8333,5,5.0833,5.1667,5,0.16667,2.6667,2.6667,2.6667,2.6667,2.6667,2.6667,0,2.5,2.5,2.5,2.5,2.5,2.5,0,1,1
3,10.9,10.9,10.9,11.053,11.207,11.002,0.17746,37910,37910,37911,37911,37912,37911,1,4.8333,4.8333,5,5.0833,5.1667,5,0.16667,2.6667,2.6667,2.6667,2.6667,2.6667,2.6667,0,2.5,2.5,2.5,2.5,2.5,2.5,0,1,2
3,39.434,39.434,39.434,39.987,40.54,39.803,0.63864,37910,37910,37911,37911,37912,37911,1,4.8333,4.8333,5,5.0833,5.1667,5,0.16667,2.6667,2.6667,2.6667,2.6667,2.6667,2.6667,0,2.5,2.5,2.5,2.5,2.5,2.5,0,1,3
3,114.99,114.99,114.99,116.59,118.2,116.06,1.8536,37910,37910,37911,37911,37912,37911,1,4.8333,4.8333,5,5.0833,5.1667,5,0.16667,2.6667,2.6667,2.6667,2.6667,2.6667,2.6667,0,2.5,2.5,2.5,2.5,2.5,2.5,0,1,4
3,278.32,278.32,278.32,282.18,286.05,280.89,4.4638,37910,37910,37911,37911,37912,37911,1,4.8333,4.8333,5,5.0833,5.1667,5,0.16667,2.6667,2.6667,2.6667,2.6667,2.6667,2.6667,0,2.5,2.5,2.5,2.5,2.5,2.5,0,1,5
3,566.53,566.53,566.53,574.35,582.17,571.74,9.0314,37910,37910,37911,37911,37912,37911,1,4.8333,4.8333,5,5.0833,5.1667,5,0.16667,2.6667,2.6667,2.6667,2.6667,2.6667,2.6667,0,2.5,2.5,2.5,2.5,2.5,2.5,0,1,6
3,980.84,980.84,980.84,994.27,1007.7,989.79,15.513,37910,37910,37911,37911,37912,37911,1,4.8333,4.8333,5,5.0833,5.1667,5,0.16667,2.6667,2.6667,2.6667,2.6667,2.6667,2.6667,0,2.5,2.5,2.5,2.5,2.5,2.5,0,1,7
3,1455.6,1455.6,1455.6,1478.6,1501.6,1471,26.526,37910,37910,37911,37911,37912,37911,1,4.8333,4.8333,5,5.0833,5.1667,5,0.16667,2.6667,2.6667,2.6667,2.6667,2.6667,2.6667,0,2.5,2.5,2.5,2.5,2.5,2.5,0,1,8
3,1797.5,1797.5,1797.5,1844.1,1890.6,1828.5,53.758,37910,37910,37911,37911,37912,37911,1,4.8333,4.8333,5,5.0833,5.1667,5,0.16667,2.6667,2.6667,2.6667,2.6667,2.6667,2.6667,0,2.5,2.5,2.5,2.5,2.5,2.5,0,1,9
3,2063.9,2063.9,2063.9,2102.6,2141.3,2089.7,44.676,37910,37910,37911,37911,37912,37911,1,4.8333,4.8333,5,5.0833,5.1667,5,0.16667,2.6667,2.6667,2.6667,2.6667,2.6667,2.6667,0,2.5,2.5,2.5,2.5,2.5,2.5,0,1,10
3,2205.5,2205.5,2205.5,2242.7,2279.8,2230.3,42.946,37910,37910,37911,37911,37912,37911,1,4.8333,4.8333,5,5.0833,5.1667,5,0.16667,2.6667,2.6667,2.6667,2.6667,2.6667,2.6667,0,2.5,2.5,2.5,2.5,2.5,2.5,0,1,11
3,2222.1,2222.1,2222.1,2259.9,2297.7,2247.3,43.669,37910,37910,37911,37911,37912,37911,1,4.8333,4.8333,5,5.0833,5.1667,5,0.16667,2.6667,2.6667,2.6667,2.6667,2.6667,2.6667,0,2.5,2.5,2.5,2.5,2.5,2.5,0,1,12
3,2166.9,2166.9,2166.9,2202.9,2238.9,2190.9,41.554,37910,37910,37911,37911,37912,37911,1,4.8333,4.8333,5,5.0833,5.1667,5,0.16667,2.6667,2.6667,2.6667,2.6667,2.6667,2.6667,0,2.5,2.5,2.5,2.5,2.5,2.5,0,1,13
3,2082.8,2082.8,2082.8,2115.2,2147.7,2104.4,37.448,37910,37910,37911,37911,37912,37911,1,4.8333,4.8333,5,5.0833,5.1667,5,0.16667,2.6667,2.6667,2.6667,2.6667,2.6667,2.6667,0,2.5,2.5,2.5,2.5,2.5,2.5,0,1,14
3,1994.8,1994.8,1994.8,2023.1,2051.4,2013.7,32.666,37910,37910,37911,37911,37912,37911,1,4.8333,4.8333,5,5.0833,5.1667,5,0.16667,2.6667,2.6667,2.6667,2.6667,2.6667,2.6667,0,2.5,2.5,2.5,2.5,2.5,2.5,0,1,15
3,1912.1,1912.1,1912.1,1936.6,1961.1,1928.5,28.279,37910,37910,37911,37911,37912,37911,1,4.8333,4.8333,5,5.0833,5.1667,5,0.16667,2.6667,2.6667,2.6667,2.6667,2.6667,2.6667,0,2.5,2.5,2.5,2.5,2.5,2.5,0,1,16
3,1836.4,1836.4,1836.4,1857.8,1879.2,1850.6,24.72,37910,37910,37911,37911,37912,37911,1,4.8333,4.8333,5,5.0833,5.1667,5,0.16667,2.6667,2.6667,2.6667,2.6667,2.6667,2.6667,0,2.5,2.5,2.5,2.5,2.5,2.5,0,1,17
3,1767.6,1767.6,1767.6,1786.3,1805,1780.1,21.607,37910,37910,37911,37911,37912,37911,1,4.8333,4.8333,5,5.0833,5.1667,5,0.16667,2.6667,2.6667,2.6667,2.6667,2.6667,2.6667,0,2.5,2.5,2.5,2.5,2.5,2.5,0,1,18
3,1706.5,1706.5,1706.5,1722.4,1738.2,1717.1,18.275,37910,37910,37911,37911,37912,37911,1,4.8333,4.8333,5,5.0833,5.1667,5,0.16667,2.6667,2.6667,2.6667,2.6667,2.6667,2.6667,0,2.5,2.5,2.5,2.5,2.5,2.5,0,1,19
3,1652.7,1652.7,1652.7,1665.5,1678.4,1661.2,14.836,37910,37910,37911,37911,37912,37911,1,4.8333,4.8333,5,5.0833,5.1667,5,0.16667,2.6667,2.6667,2.6667,2.6667,2.6667,2.6667,0,2.5,2.5,2.5,2.5,2.5,2.5,0,1,20
3,1605.4,1605.4,1605.4,1615.3,1625.2,1612,11.401,37910,37910,37911,37911,37912,37911,1,4.8333,4.8333,5,5.0833,5.1667,5,0.16667,2.6667,2.6667,2.6667,2.6667,2.6667,2.6667,0,2.5,2.5,2.5,2.5,2.5,2.5,0,1,21
3,1568.4,1568.4,1568.4,1574,1579.5,1572.1,6.3853,37910,37910,37911,37911,37912,37911,1,4.8333,4.8333,5,5.0833,5.1667,5,0.16667,2.6667,2.6667,2.6667,2.6667,2.6667,2.6667,0,2.5,2.5,2.5,2.5,2.5,2.5,0,1,22
3,1561.7,1561.7,1563,1563,1563,1562.6,0.73496,37910,37910,37911,37911,37912,37911,1,4.8333,4.8333,5,5.0833,5.1667,5,0.16667,2.6667,2.6667,2.6667,2.6667,2.6667,2.6667,0,2.5,2.5,2.5,2.5,2.5,2.5,0,1,23
3,1559.7,1559.7,1560.7,1560.7,1560.7,1560.3,0.59472,37910,37910,37911,37911,37912,37911,1,4.8333,4.8333,5,5.0833,5.1667,5,0.16667,2.6667,2.6667,2.6667,2.6667,2.6667,2.6667,0,2.5,2.5,2.5,2.5,2.5,2.5,0,1,24
3,1557.6,1557.6,1558.4,1558.4,1558.4,1558.1,0.46509,37910,37910,37911,37911,37912,37911,1,4.8333,4.8333,5,5.0833,5.1667,5,0.16667,2.6667,2.6667,2.6667,2.6667,2.6667,2.6667,0,2.5,2.5,2.5,2.5,2.5,2.5,0,1,25
3,1555.6,1555.6,1556.1,1556.1,1556.1,1555.9,0.33407,37910,37910,37911,37911,37912,37911,1,4.8333,4.8333,5,5.0833,5.1667,5,0.16667,2.6667,2.6667,2.6667,2.6667,2.6667,2.6667,0,2.5,2.5,2.5,2.5,2.5,2.5,0,1,26
3,1553.5,1553.5,1553.9,1553.9,1553.9,1553.8,0.18648,37910,37910,37911,37911,37912,37911,1,4.8333,4.8333,5,5.0833,5.1667,5,0.16667,2.6667,2.6667,2.6667,2.6667,2.6667,2.6667,0,2.5,2.5,2.5,2.5,2.5,2.5,0,1,27
3,1551.5,1551.5,1551.6,1551.6,1551.6,1551.6,0.014702,37910,37910,37911,37911,37912,37911,1,4.8333,4.8333,5,5.0833,5.1667,5,0.16667,2.6667,2.6667,2.6667,2.6667,2.6667,2.6667,0,2.5,2.5,2.5,2.5,2.5,2.5,0,1,28
3,1549.2,1549.2,1549.2,1549.4,1549.5,1549.3,0.18423,37910,37910,37911,37911,37912,37911,1,4.8333,4.8333,5,5.0833,5.1667,5,0.16667,2.6667,2.6667,2.6667,2.6667,2.6667,2.6667,0,2.5,2.5,2.5,2.5,2.5,2.5,0,1,29
3,1546.9,1546.9,1546.9,1547.2,1547.6,1547.1,0.41095,37910,37910,37911,37911,37912,37911,1,4.8333,4.8333,5,5.0833,5.1667,5,0.16667,2.6667,2.6667,2.6667,2.6667,2.6667,2.6667,0,2.5,2.5,2.5,2.5,2.5,2.5,0,1,30
3,1544.4,1544.4,1544.4,1545,1545.6,1544.8,0.66482,37910,37910,37911,37911,37912,37911,1,4.8333,4.8333,5,5.0833,5.1667,5,0.16667,2.6667,2.6667,2.6667,2.6667,2.6667,2.6667,0,2.5,2.5,2.5,2.5,2.5,2.5,0,1,31
3,1541.9,1541.9,1541.9,1542.8,1543.6,1542.5,0.9689,37910,37910,37911,37911,37912,37911,1,4.8333,4.8333,5,5.0833,5.1667,5,0.16667,2.6667,2.6667,2.6667,2.6667,2.6667,2.6667,0,2.5,2.5,2.5,2.5,2.5,2.5,0,1,32
3,1538.4,1538.4,1538.4,1540,1541.6,1539.4,1.8815,37910,37910,37911,37911,37912,37911,1,4.8333,4.8333,5,5.0833,5.1667,5,0.16667,2.6667,2.6667,2.6667,2.6667,2.6667,2.6667,0,2.5,2.5,2.5,2.5,2.5,2.5,0,1,33
3,1533.9,1533.9,1533.9,1536.8,1539.6,1535.8,3.2474,37910,37910,37911,37911,37912,37911,1,4.8333,4.8333,5,5.0833,5.1667,5,0.16667,2.6667,2.6667,2.6667,2.6667,2.6667,2.6667,0,2.5,2.5,2.5,2.5,2.5,2.5,0,1,34
3,1529,1529,1529,1533.2,1537.4,1531.8,4.8403,37910,37910,37911,37911,37912,37911,1,4.8333,4.8333,5,5.0833,5.1667,5,0.16667,2.6667,2.6667,2.6667,2.6667,2.6667,2.6667,0,2.5,2.5,2.5,2.5,2.5,2.5,0,1,35
3,1523.9,1523.9,1523.9,1529.5,1535.2,1527.6,6.5407,37910,37910,37911,37911,37912,37911,1,4.8333,4.8333,5,5.0833,5.1667,5,0.16667,2.6667,2.6667,2.6667,2.6667,2.6667,2.6667,0,2.5,2.5,2.5,2.5,2.5,2.5,0,1,36
3,1518.5,1518.5,1518.5,1525.7,1532.9,1523.3,8.2829,37910,37910,37911,37911,37912,37911,1,4.8333,4.8333,5,5.0833,5.1667,5,0.16667,2.6667,2.6667,2.6667,2.6667,2.6667,2.6667,0,2.5,2.5,2.5,2.5,2.5,2.5,0,1,37
3,1481.1,1481.1,1481.1,1505.7,1530.2,1497.5,28.324,37910,37910,37911,37911,37912,37911,1,4.8333,4.8333,5,5.0833,5.1667,5,0.16667,2.6667,2.6667,2.6667,2.6667,2.6667,2.6667,0,2.5,2.5,2.5,2.5,2.5,2.5,0,1,38
3,1429.7,1429.7,1429.7,1477.6,1525.5,1461.6,55.282,37910,37910,37911,37911,37912,37911,1,4.8333,4.8333,5,5.0833,5.1667,5,0.16667,2.6667,2.6667,2.6667,2.6667,2.6667,2.6667,0,2.5,2.5,2.5,2.5,2.5,2.5,0,1,39
3,1395.9,1395.9,1395.9,1457.6,1519.3,1437,71.217,37910,37910,37911,37911,37912,37911,1,4.8333,4.8333,5,5.0833,5.1667,5,0.16667,2.6667,2.6667,2.6667,2.6667,2.6667,2.6667,0,2.5,2.5,2.5,2.5,2.5,2.5,0,1,40
3,1367.6,1367.6,1367.6,1418.2,1468.8,1401.3,58.45,37910,37910,37911,37911,37912,37911,1,4.8333,4.8333,5,5.0833,5.1667,5,0.16667,2.6667,2.6667,2.6667,2.6667,2.6667,2.6667,0,2.5,2.5,2.5,2.5,2.5,2.5,0,1,41
3,1328.6,1328.6,1328.6,1360.5,1392.4,1349.9,36.812,37910,37910,37911,37911,37912,37911,1,4.8333,4.8333,5,5.0833,5.1667,5,0.16667,2.6667,2.6667,2.6667,2.6667,2.6667,2.6667,0,2.5,2.5,2.5,2.5,2.5,2.5,0,1,42
3,1288.4,1288.4,1288.4,1311.6,1334.8,1303.8,26.803,37910,37910,37911,37911,37912,37911,1,4.8333,4.8333,5,5.0833,5.1667,5,0.16667,2.6667,2.6667,2.6667,2.6667,2.6667,2.6667,0,2.5,2.5,2.5,2.5,2.5,2.5,0,1,43
3,1249.8,1249.8,1249.8,1268.4,1286.9,1262.2,21.426,37910,37910,37911,37911,37912,37911,1,4.8333,4.8333,5,5.0833,5.1667,5,0.16667,2.6667,2.6667,2.6667,2.6667,2.6667,2.6667,0,2.5,2.5,2.5,2.5,2.5,2.5,0,1,44
3,1213.7,1213.7,1213.7,1229.4,1245.1,1224.2,18.139,37910,37910,37911,37911,37912,37911,1,4.8333,4.8333,5,5.0833,5.1667,5,0.16667,2.6667,2.6667,2.6667,2.6667,2.6667,2.6667,0,2.5,2.5,2.5,2.5,2.5,2.5,0,1,45
3,1180,1180,1180,1193.7,1207.5,1189.1,15.901,37910,37910,37911,37911,37912,37911,1,4.8333,4.8333,5,5.0833,5.1667,5,0.16667,2.6667,2.6667,2.6667,2.6667,2.6667,2.6667,0,2.5,2.5,2.5,2.5,2.5,2.5,0,1,46
3,1148.5,1148.5,1148.5,1160.8,1173.1,1156.7,14.249,37910,37910,37911,37911,37912,37911,1,4.8333,4.8333,5,5.0833,5.1667,5,0.16667,2.6667,2.6667,2.6667,2.6667,2.6667,2.6667,0,2.5,2.5,2.5,2.5,2.5,2.5,0,1,47
3,1118.9,1118.9,1118.9,1130.1,1141.4,1126.4,12.96,37910,37910,37911,37911,37912,37911,1,4.8333,4.8333,5,5.0833,5.1667,5,0.16667,2.6667,2.6667,2.6667,2.6667,2.6667,2.6667,0,2.5,2.5,2.5,2.5,2.5,2.5,0,1,48
3,1091.1,1091.1,1091.1,1101.4,1111.7,1098,11.912,37910,37910,37911,37911,37912,37911,1,4.8333,4.8333,5,5.0833,5.1667,5,0.16667,2.6667,2.6667,2.6667,2.6667,2.6667,2.6667,0,2.5,2.5,2.5,2.5,2.5,2.5,0,1,49
3,1064.9,1064.9,1064.9,1074.4,1084,1071.3,11.037,37910,37910,37911,37911,37912,37911,1,4.8333,4.8333,5,5.0833,5.1667,5,0.16667,2.6667,2.6667,2.6667,2.6667,2.6667,2.6667,0,2.5,2.5,2.5,2.5,2.5,2.5,0,1,50
3,1040.1,1040.1,1040.1,1049,1057.9,1046,10.29,37910,37910,37911,37911,37912,37911,1,4.8333,4.8333,5,5.0833,5.1667,5,0.16667,2.6667,2.6667,2.6667,2.6667,2.6667,2.6667,0,2.5,2.5,2.5,2.5,2.5,2.5,0,1,51
3,1016.5,1016.5,1016.5,1024.9,1033.2,1022.1,9.643,37910,37910,37911,37911,37912,37911,1,4.8333,4.8333,5,5.0833,5.1667,5,0.16667,2.6667,2.6667,2.6667,2.6667,2.6667,2.6667,0,2.5,2.5,2.5,2.5,2.5,2.5,0,1,52
3,994.14,994.14,994.14,1002,1009.9,999.38,9.0743,37910,37910,37911,37911,37912,37911,1,4.8333,4.8333,5,5.0833,5.1667,5,0.16667,2.6667,2.6667,2.6667,2.6667,2.6667,2.6667,0,2.5,2.5,2.5,2.5,2.5,2.5,0,1,53
3,972.81,972.81,972.81,980.23,987.65,977.76,8.5695,37910,37910,37911,37911,37912,37911,1,4.8333,4.8333,5,5.0833,5.1667,5,0.16667,2.6667,2.6667,2.6667,2.6667,2.6667,2.6667,0,2.5,2.5,2.5,2.5,2.5,2.5,0,1,54
3,952.46,952.46,952.46,959.49,966.52,957.14,8.1174,37910,37910,37911,37911,37912,37911,1,4.8333,4.8333,5,5.0833,5.1667,5,0.16667,2.6667,2.6667,2.6667,2.6667,2.6667,2.6667,0,2.5,2.5,2.5,2.5,2.5,2.5,0,1,55
3,933,933,933,939.68,946.35,937.45,7.7096,37910,37910,37911,37911,37912,37911,1,4.8333,4.8333,5,5.0833,5.1667,5,0.16667,2.6667,2.6667,2.6667,2.6667,2.6667,2.6667,0,2.5,2.5,2.5,2.5,2.5,2.5,0,1,56
3,914.37,914.37,914.37,920.73,927.08,918.61,7.3393,37910,37910,37911,37911,37912,37911,1,4.8333,4.8333,5,5.0833,5.1667,5,0.16667,2.6667,2.6667,2.6667,2.6667,2.6667,2.6667,0,2.5,2.5,2.5,2.5,2.5,2.5,0,1,57
3,896.51,896.51,896.51,902.57,908.64,900.55,7.0013,37910,37910,37911,37911,37912,37911,1,4.8333,4.8333,5,5.0833,5.1667,5,0.16667,2.6667,2.6667,2.6667,2.6667,2.6667,2.6667,0,2.5,2.5,2.5,2.5,2.5,2.5,0,1,58
3,879.36,879.36,879.36,885.16,890.95,883.23,6.6911,37910,37910,37911,37911,37912,37911,1,4.8333,4.8333,5,5.0833,5.1667,5,0.16667,2.6667,2.6667,2.6667,2.6667,2.6667,2.6667,0,2.5,2.5,2.5,2.5,2.5,2.5,0,1,59
3,862.89,862.89,862.89,868.43,873.98,866.58,6.4053,37910,37910,37911,37911,37912,37911,1,4.8333,4.8333,5,5.0833,5.1667,5,0.16667,2.6667,2.6667,2.6667,2.6667,2.6667,2.6667,0,2.5,2.5,2.5,2.5,2.5,2.5,0,1,60
3,847.03,847.03,847.03,852.35,857.67,850.58,6.1409,37910,37910,37911,37911,37912,37911,1,4.8333,4.8333,5,5.0833,5.1667,5,0.16667,2.6667,2.6667,2.6667,2.6667,2.6667,2.6667,0,2.5,2.5,2.5,2.5,2.5,2.5,0,1,61
3,831.76,831.76,831.76,836.87,841.98,835.17,5.8955,37910,37910,37911,37911,37912,37911,1,4.8333,4.8333,5,5.0833,5.1667,5,0.16667,2.6667,2.6667,2.6667,2.6667,2.6667,2.6667,0,2.5,2.5,2.5,2.5,2.5,2.5,0,1,62
3,817.04,817.04,817.04,821.95,826.86,820.32,5.667,37910,37910,37911,37911,37912,37911,1,4.8333,4.8333,5,5.0833,5.1667,5,0.16667,2.6667,2.6667,2.6667,2.6667,2.6667,2.6667,0,2.5,2.5,2.5,2.5,2.5,2.5,0,1,63
3,802.84,802.84,802.84,807.56,812.29,805.99,5.4536,37910,37910,37911,37911,37912,37911,1,4.8333,4.8333,5,5.0833,5.1667,5,0.16667,2.6667,2.6667,2.6667,2.6667,2.6667,2.6667,0,2.5,2.5,2.5,2.5,2.5,2.5,0,1,64
3,789.12,789.12,789.12,793.67,798.22,792.15,5.2539,37910,37910,37911,37911,37912,37911,1,4.8333,4.8333,5,5.0833,5.1667,5,0.16667,2.6667,2.6667,2.6667,2.6667,2.6667,2.6667,0,2.5,2.5,2.5,2.5,2.5,2.5,0,1,65
3,775.86,775.86,775.86,780.25,784.64,778.79,5.0664,37910,37910,37911,37911,37912,37911,1,4.8333,4.8333,5,5.0833,5.1667,5,0.16667,2.6667,2.6667,2.6667,2.6667,2.6667,2.6667,0,2.5,2.5,2.5,2.5,2.5,2.5,0,1,66
3,763.04,763.04,763.04,767.27,771.51,765.86,4.8901,37910,37910,37911,37911,37912,37911,1,4.8333,4.8333,5,5.0833,5.1667,5,0.16667,2.6667,2.6667,2.6667,2.6667,2.6667,2.6667,0,2.5,2.5,2.5,2.5,2.5,2.5,0,1,67
3,750.62,750.62,750.62,754.71,758.8,753.35,4.724,37910,37910,37911,37911,37912,37911,1,4.8333,4.8333,5,5.0833,5.1667,5,0.16667,2.6667,2.6667,2.6667,2.6667,2.6667,2.6667,0,2.5,2.5,2.5,2.5,2.5,2.5,0,1,68
3,738.59,738.59,738.59,742.55,746.51,741.23,4.5672,37910,37910,37911,37911,37912,37911,1,4.8333,4.8333,5,5.0833,5.1667,5,0.16667,2.6667,2.6667,2.6667,2.6667,2.6667,2.6667,0,2.5,2.5,2.5,2.5,2.5,2.5,0,1,69
3,726.94,726.94,726.94,730.76,734.59,729.49,4.4189,37910,37910,37911,37911,37912,37911,1,4.8333,4.8333,5,5.0833,5.1667,5,0.16667,2.6667,2.6667,2.6667,2.6667,2.6667,2.6667,0,2.5,2.5,2.5,2.5,2.5,2.5,0,1,70
3,715.63,715.63,715.63,719.34,723.04,718.1,4.2784,37910,37910,37911,37911,37912,37911,1,4.8333,4.8333,5,5.0833,5.1667,5,0.16667,2.6667,2.6667,2.6667,2.6667,2.6667,2.6667,0,2.5,2.5,2.5,2.5,2.5,2.5,0,1,71
3,704.66,704.66,704.66,708.25,711.84,707.05,4.1451,37910,37910,37911,37911,37912,37911,1,4.8333,4.8333,5,5.0833,5.1667,5,0.16667,2.6667,2.6667,2.6667,2.6667,2.6667,2.6667,0,2.5,2.5,2.5,2.5,2.5,2.5,0,1,72
3,694,694,694,697.48,700.96,696.32,4.0185,37910,37910,37911,37911,37912,37911,1,4.8333,4.8333,5,5.0833,5.1667,5,0.16667,2.6667,2.6667,2.6667,2.6667,2.6667,2.6667,0,2.5,2.5,2.5,2.5,2.5,2.5,0,1,73
3,683.65,683.65,683.65,687.02,690.4,685.9,3.8981,37910,37910,37911,37911,37912,37911,1,4.8333,4.8333,5,5.0833,5.1667,5,0.16667,2.6667,2.6667,2.6667,2.6667,2.6667,2.6667,0,2.5,2.5,2.5,2.5,2.5,2.5,0,1,74
3,673.58,673.58,673.58,676.86,680.14,675.77,3.7834,37910,37910,37911,37911,37912,37911,1,4.8333,4.8333,5,5.0833,5.1667,5,0.16667,2.6667,2.6667,2.6667,2.6667,2.6667,2.6667,0,2.5,2.5,2.5,2.5,2.5,2.5,0,1,75
3,663.79,663.79,663.79,666.98,670.16,665.92,3.6741,37910,37910,37911,37911,37912,37911,1,4.8333,4.8333,5,5.0833,5.1667,5,0.16667,2.6667,2.6667,2.6667,2.6667,2.6667,2.6667,0,2.5,2.5,2.5,2.5,2.5,2.5,0,1,76
3,654.27,654.27,654.27,657.36,660.45,656.33,3.5697,37910,37910,37911,37911,37912,37911,1,4.8333,4.8333,5,5.0833,5.1667,5,0.16667,2.6667,2.6667,2.6667,2.6667,2.6667,2.6667,0,2.5,2.5,2.5,2.5,2.5,2.5,0,1,77
3,644.99,644.99,644.99,648,651,647,3.4699,37910,37910,37911,37911,37912,37911,1,4.8333,4.8333,5,5.0833,5.1667,5,0.16667,2.6667,2.6667,2.6667,2.6667,2.6667,2.6667,0,2.5,2.5,2.5,2.5,2.5,2.5,0,1,78
3,635.96,635.96,635.96,638.88,641.81,637.91,3.3746,37910,37910,37911,37911,37912,37911,1,4.8333,4.8333,5,5.0833,5.1667,5,0.16667,2.6667,2.6667,2.6667,2.6667,2.6667,2.6667,0,2.5,2.5,2.5,2.5,2.5,2.5,0,1,79
3,627.16,627.16,627.16,630,632.84,629.05,3.2832,37910,37910,37911,37911,37912,37911,1,4.8333,4.8333,5,5.0833,5.1667,5,0.16667,2.6667,2.6667,2.6667,2.6667,2.6667,2.6667,0,2.5,2.5,2.5,2.5,2.5,2.5,0,1,80
3,618.58,618.58,618.58,621.34,624.11,620.42,3.1957,37910,37910,37911,37911,37912,37911,1,4.8333,4.8333,5,5.0833,5.1667,5,0.16667,2.6667,2.6667,2.6667,2.6667,2.6667,2.6667,0,2.5,2.5,2.5,2.5,2.5,2.5,0,1,81
3,610.21,610.21,610.21,612.9,615.6,612,3.1118,37910,37910,37911,37911,37912,37911,1,4.8333,4.8333,5,5.0833,5.1667,5,0.16667,2.6667,2.6667,2.6667,2.6667,2.6667,2.6667,0,2.5,2.5,2.5,2.5,2.5,2.5,0,1,82
3,602.04,602.04,602.04,604.67,607.29,603.79,3.0313,37910,37910,37911,37911,37912,37911,1,4.8333,4.8333,5,5.0833,5.1667,5,0.16667,2.6667,2.6667,2.6667,2.6667,2.6667,2.6667,0,2.5,2.5,2.5,2.5,2.5,2.5,0,1,83
3,594.07,594.07,594.07,596.63,599.19,595.78,2.954,37910,37910,37911,37911,37912,37911,1,4.8333,4.8333,5,5.0833,5.1667,5,0.16667,2.6667,2.6667,2.6667,2.6667,2.6667,2.6667,0,2.5,2.5,2.5,2.5,2.5,2.5,0,1,84
3,586.29,586.29,586.29,588.79,591.28,587.95,2.8796,37910,37910,37911,37911,37912,37911,1,4.8333,4.8333,5,5.0833,5.1667,5,0.16667,2.6667,2.6667,2.6667,2.6667,2.6667,2.6667,0,2.5,2.5,2.5,2.5,2.5,2.5,0,1,85
3,578.69,578.69,578.69,581.12,583.56,580.31,2.8081,37910,37910,37911,37911,37912,37911,1,4.8333,4.8333,5,5.0833,5.1667,5,0.16667,2.6667,2.6667,2.6667,2.6667,2.6667,2.6667,0,2.5,2.5,2.5,2.5,2.5,2.5,0,1,86
3,571.27,571.27,571.27,573.64,576.01,572.85,2.7393,37910,37910,37911,37911,37912,37911,1,4.8333,4.8333,5,5.0833,5.1667,5,0.16667,2.6667,2.6667,2.6667,2.6667,2.6667,2.6667,0,2.5,2.5,2.5,2.5,2.5,2.5,0,1,87
3,564.01,564.01,564.01,566.32,568.64,565.55,2.673,37910,37910,37911,37911,37912,37911,1,4.8333,4.8333,5,5.0833,5.1667,5,0.16667,2.6667,2.6667,2.6667,2.6667,2.6667,2.6667,0,2.5,2.5,2.5,2.5,2.5,2.5,0,1,88
3,556.91,556.91,556.91,559.17,561.43,558.42,2.6091,37910,37910,37911,37911,37912,37911,1,4.8333,4.8333,5,5.0833,5.1667,5,0.16667,2.6667,2.6667,2.6667,2.6667,2.6667,2.6667,0,2.5,2.5,2.5,2.5,2.5,2.5,0,1,89
3,549.97,549.97,549.97,552.18,554.38,551.44,2.5475,37910,37910,37911,37911,37912,37911,1,4.8333,4.8333,5,5.0833,5.1667,5,0.16667,2.6667,2.6667,2.6667,2.6667,2.6667,2.6667,0,2.5,2.5,2.5,2.5,2.5,2.5,0,1,90
3,543.18,543.18,543.18,545.33,547.49,544.62,2.4881,37910,37910,37911,37911,37912,37911,1,4.8333,4.8333,5,5.0833,5.1667,5,0.16667,2.6667,2.6667,2.6667,2.6667,2.6667,2.6667,0,2.5,2.5,2.5,2.5,2.5,2.5,0,1,91
3,536.53,536.53,536.53,538.64,540.74,537.94,2.4307,37910,37910,37911,37911,37912,37911,1,4.8333,4.8333,5,5.0833,5.1667,5,0.16667,2.6667,2.6667,2.6667,2.6667,2.6667,2.6667,0,2.5,2.5,2.5,2.5,2.5,2.5,0,1,92
3,530.03,530.03,530.03,532.08,534.14,531.4,2.3753,37910,37910,37911,37911,37912,37911,1,4.8333,4.8333,5,5.0833,5.1667,5,0.16667,2.6667,2.6667,2.6667,2.6667,2.6667,2.6667,0,2.5,2.5,2.5,2.5,2.5,2.5,0,1,93
3,523.66,523.66,523.66,525.67,527.68,525,2.3217,37910,37910,37911,37911,37912,37911,1,4.8333,4.8333,5,5.0833,5.1667,5,0.16667,2.6667,2.6667,2.6667,2.6667,2.6667,2.6667,0,2.5,2.5,2.5,2.5,2.5,2.5,0,1,94
3,517.42,517.42,517.42,519.38,521.35,518.73,2.27,37910,37910,37911,37911,37912,37911,1,4.8333,4.8333,5,5.0833,5.1667,5,0.16667,2.6667,2.6667,2.6667,2.6667,2.6667,2.6667,0,2.5,2.5,2.5,2.5,2.5,2.5,0,1,95
3,511.3,511.3,511.3,513.23,515.15,512.59,2.2199,37910,37910,37911,37911,37912,37911,1,4.8333,4.8333,5,5.0833,5.1667,5,0.16667,2.6667,2.6667,2.6667,2.6667,2.6667,2.6667,0,2.5,2.5,2.5,2.5,2.5,2.5,0,1,96
3,505.31,505.31,505.31,507.19,509.07,506.57,2.1714,37910,37910,37911,37911,37912,37911,1,4.8333,4.8333,5,5.0833,5.1667,5,0.16667,2.6667,2.6667,2.6667,2.6667,2.6667,2.6667,0,2.5,2.5,2.5,2.5,2.5,2.5,0,1,97
3,499.44,499.44,499.44,501.28,503.12,500.67,2.1245,37910,37910,37911,37911,37912,37911,1,4.8333,4.8333,5,5.0833,5.1667,5,0.16667,2.6667,2.6667,2.6667,2.6667,2.6667,2.6667,0,2.5,2.5,2.5,2.5,2.5,2.5,0,1,98
3,493.68,493.68,493.68,495.48,497.28,494.88,2.0791,37910,37910,37911,37911,37912,37911,1,4.8333,4.8333,5,5.0833,5.1667,5,0.16667,2.6667,2.6667,2.6667,2.6667,2.6667,2.6667,0,2.5,2.5,2.5,2.5,2.5,2.5,0,1,99
3,488.03,488.03,488.03,489.8,491.56,489.21,2.035,37910,37910,37911,37911,37912,37911,1,4.8333,4.8333,5,5.0833,5.1667,5,0.16667,2.6667,2.6667,2.6667,2.6667,2.6667,2.6667,0,2.5,2.5,2.5,2.5,2.5,2.5,0,1,100
3,482.49,482.49,482.49,484.22,485.94,483.64,1.9924,37910,37910,37911,37911,37912,37911,1,4.8333,4.8333,5,5.0833,5.1667,5,0.16667,2.6667,2.6667,2.6667,2.6667,2.6667,2.6667,0,2.5,2.5,2.5,2.5,2.5,2.5,0,1,101
3,477.06,477.06,477.06,478.75,480.44,478.18,1.951,37910,37910,37911,37911,37912,37911,1,4.8333,4.8333,5,5.0833,5.1667,5,0.16667,2.6667,2.6667,2.6667,2.6667,2.6667,2.6667,0,2.5,2.5,2.5,2.5,2.5,2.5,0,1,102
3,471.72,471.72,471.72,473.38,475.03,472.83,1.9108,37910,37910,37911,37911,37912,37911,1,4.8333,4.8333,5,5.0833,5.1667,5,0.16667,2.6667,2.6667,2.6667,2.6667,2.6667,2.6667,0,2.5,2.5,2.5,2.5,2.5,2.5,0,1,103
3,466.49,466.49,466.49,468.11,469.73,467.57,1.8719,37910,37910,37911,37911,37912,37911,1,4.8333,4.8333,5,5.0833,5.1667,5,0.16667,2.6667,2.6667,2.6667,2.6667,2.6667,2.6667,0,2.5,2.5,2.5,2.5,2.5,2.5,0,1,104
3,461.34,461.34,461.34,462.93,464.52,462.4,1.834,37910,37910,37911,37911,37912,37911,1,4.8333,4.8333,5,5.0833,5.1667,5,0.16667,2.6667,2.6667,2.6667,2.6667,2.6667,2.6667,0,2.5,2.5,2.5,2.5,2.5,2.5,0,1,105
3,456.29,456.29,456.29,457.85,459.41,457.33,1.7973,37910,37910,37911,37911,37912,37911,1,4.8333,4.8333,5,5.0833,5.1667,5,0.16667,2.6667,2.6667,2.6667,2.6667,2.6667,2.6667,0,2.5,2.5,2.5,2.5,2.5,2.5,0,1,106
3,451.33,451.33,451.33,452.86,454.39,452.35,1.7616,37910,37910,37911,37911,37912,37911,1,4.8333,4.8333,5,5.0833,5.1667,5,0.16667,2.6667,2.6667,2.6667,2.6667,2.6667,2.6667,0,2.5,2.5,2.5,2.5,2.5,2.5,0,1,107
3,446.46,446.46,446.46,447.96,449.45,447.46,1.7269,37910,37910,37911,37911,37912,37911,1,4.8333,4.8333,5,5.0833,5.1667,5,0.16667,2.6667,2.6667,2.6667,2.6667,2.6667,2.6667,0,2.5,2.5,2.5,2.5,2.5,2.5,0,1,108
3,441.67,441.67,441.67,443.14,444.61,442.65,1.6932,37910,37910,37911,37911,37912,37911,1,4.8333,4.8333,5,5.0833,5.1667,5,0.16667,2.6667,2.6667,2.6667,2.6667,2.6667,2.6667,0,2.5,2.5,2.5,2.5,2.5,2.5,0,1,109
3,436.97,436.97,436.97,438.4,439.84,437.93,1.6605,37910,37910,37911,37911,37912,37911,1,4.8333,4.8333,5,5.0833,5.1667,5,0.16667,2.6667,2.6667,2.6667,2.6667,2.6667,2.6667,0,2.5,2.5,2.5,2.5,2.5,2.5,0,1,110
3,432.34,432.34,432.34,433.75,435.16,433.28,1.6286,37910,37910,37911,37911,37912,37911,1,4.8333,4.8333,5,5.0833,5.1667,5,0.16667,2.6667,2.6667,2.6667,2.6667,2.6667,2.6667,0,2.5,2.5,2.5,2.5,2.5,2.5,0,1,111
3,427.79,427.79,427.79,429.18,430.56,428.71,1.5976,37910,37910,37911,37911,37912,37911,1,4.8333,4.8333,5,5.0833,5.1667,5,0.16667,2.6667,2.6667,2.6667,2.6667,2.6667,2.6667,0,2.5,2.5,2.5,2.5,2.5,2.5,0,1,112
3,423.32,423.32,423.32,424.68,426.03,424.22,1.5674,37910,37910,37911,37911,37912,37911,1,4.8333,4.8333,5,5.0833,5.1667,5,0.16667,2.6667,2.6667,2.6667,2.6667,2.6667,2.6667,0,2.5,2.5,2.5,2.5,2.5,2.5,0,1,113
3,418.92,418.92,418.92,420.25,421.58,419.81,1.538,37910,37910,37911,37911,37912,37911,1,4.8333,4.8333,5,5.0833,5.1667,5,0.16667,2.6667,2.6667,2.6667,2.6667,2.6667,2.6667,0,2.5,2.5,2.5,2.5,2.5,2.5,0,1,114
3,414.59,414.59,414.59,415.9,417.21,415.46,1.5094,37910,37910,37911,37911,37912,37911,1,4.8333,4.8333,5,5.0833,5.1667,5,0.16667,2.6667,2.6667,2.6667,2.6667,2.6667,2.6667,0,2.5,2.5,2.5,2.5,2.5,2.5,0,1,115
3,410.33,410.33,410.33,411.62,412.9,411.19,1.4815,37910,37910,37911,37911,37912,37911,1,4.8333,4.8333,5,5.0833,5.1667,5,0.16667,2.6667,2.6667,2.6667,2.6667,2.6667,2.6667,0,2.5,2.5,2.5,2.5,2.5,2.5,0,1,116
3,406.14,406.14,406.14,407.4,408.66,406.98,1.4543,37910,37910,37911,37911,37912,37911,1,4.8333,4.8333,5,5.0833,5.1667,5,0.16667,2.6667,2.6667,2.6667,2.6667,2.6667,2.6667,0,2.5,2.5,2.5,2.5,2.5,2.5,0,1,117
3,402.02,402.02,402.02,403.26,404.49,402.85,1.4279,37910,37910,37911,37911,37912,37911,1,4.8333,4.8333,5,5.0833,5.1667,5,0.16667,2.6667,2.6667,2.6667,2.6667,2.6667,2.6667,0,2.5,2.5,2.5,2.5,2.5,2.5,0,1,118
3,397.96,397.96,397.96,399.18,400.39,398.77,1.4021,37910,37910,37911,37911,37912,37911,1,4.8333,4.8333,5,5.0833,5.1667,5,0.16667,2.6667,2.6667,2.6667,2.6667,2.6667,2.6667,0,2.5,2.5,2.5,2.5,2.5,2.5,0,1,119
3,393.97,393.97,393.97,395.16,396.35,394.76,1.3769,37910,37910,37911,37911,37912,37911,1,4.8333,4.8333,5,5.0833,5.1667,5,0.16667,2.6667,2.6667,2.6667,2.6667,2.6667,2.6667,0,2.5,2.5,2.5,2.5,2.5,2.5,0,1,120
3,390.03,390.03,390.03,391.2,392.37,390.81,1.3524,37910,37910,37911,37911,37912,37911,1,4.8333,4.8333,5,5.0833,5.1667,5,0.16667,2.6667,2.6667,2.6667,2.6667,2.6667,2.6667,0,2.5,2.5,2.5,2.5,2.5,2.5,0,1,121
3,386.16,386.16,386.16,387.31,388.46,386.92,1.3285,37910,37910,37911,37911,37912,37911,1,4.8333,4.8333,5,5.0833,5.1667,5,0.16667,2.6667,2.6667,2.6667,2.6667,2.6667,2.6667,0,2.5,2.5,2.5,2.5,2.5,2.5,0,1,122
3,382.34,382.34,382.34,383.47,384.6,383.1,1.3051,37910,37910,37911,37911,37912,37911,1,4.8333,4.8333,5,5.0833,5.1667,5,0.16667,2.6667,2.6667,2.6667,2.6667,2.6667,2.6667,0,2.5,2.5,2.5,2.5,2.5,2.5,0,1,123
3,378.58,378.58,378.58,379.69,380.8,379.32,1.2823,37910,37910,37911,37911,37912,37911,1,4.8333,4.8333,5,5.0833,5.1667,5,0.16667,2.6667,2.6667,2.6667,2.6667,2.6667,2.6667,0,2.5,2.5,2.5,2.5,2.5,2.5,0,1,124
3,374.88,374.88,374.88,375.97,377.06,375.61,1.2601,37910,37910,37911,37911,37912,37911,1,4.8333,4.8333,5,5.0833,5.1667,5,0.16667,2.6667,2.6667,2.6667,2.6667,2.6667,2.6667,0,2.5,2.5,2.5,2.5,2.5,2.5,0,1,125
3,371.23,371.23,371.23,372.3,373.38,371.95,1.2384,37910,37910,37911,37911,37912,37911,1,4.8333,4.8333,5,5.0833,5.1667,5,0.16667,2.6667,2.6667,2.6667,2.6667,2.6667,2.6667,0,2.5,2.5,2.5,2.5,2.5,2.5,0,1,126
3,367.64,367.64,367.64,368.69,369.74,368.34,1.2172,37910,37910,37911,37911,37912,37911,1,4.8333,4.8333,5,5.0833,5.1667,5,0.16667,2.6667,2.6667,2.6667,2.6667,2.6667,2.6667,0,2.5,2.5,2.5,2.5,2.5,2.5,0,1,127
3,364.09,364.09,364.09,365.13,366.16,364.78,1.1965,37910,37910,37911,37911,37912,37911,1,4.8333,4.8333,5,5.0833,5.1667,5,0.16667,2.6667,2.6667,2.6667,2.6667,2.6667,2.6667,0,2.5,2.5,2.5,2.5,2.5,2.5,0,1,128
3,360.6,360.6,360.6,361.62,362.64,361.28,1.1763,37910,37910,37911,37911,37912,37911,1,4.8333,4.8333,5,5.0833,5.1667,5,0.16667,2.6667,2.6667,2.6667,2.6667,2.6667,2.6667,0,2.5,2.5,2.5,2.5,2.5,2.5,0,1,129
3,357.15,357.15,357.15,358.16,359.16,357.82,1.1565,37910,37910,37911,37911,37912,37911,1,4.8333,4.8333,5,5.0833,5.1667,5,0.16667,2.6667,2.6667,2.6667,2.6667,2.6667,2.6667,0,2.5,2.5,2.5,2.5,2.5,2.5,0,1,130
3,353.76,353.76,353.76,354.74,355.73,354.42,1.1372,37910,37910,37911,37911,37912,37911,1,4.8333,4.8333,5,5.0833,5.1667,5,0.16667,2.6667,2.6667,2.6667,2.6667,2.6667,2.6667,0,2.5,2.5,2.5,2.5,2.5,2.5,0,1,131
3,350.41,350.41,350.41,351.38,352.35,351.06,1.1183,37910,37910,37911,37911,37912,37911,1,4.8333,4.8333,5,5.0833,5.1667,5,0.16667,2.6667,2.6667,2.6667,2.6667,2.6667,2.6667,0,2.5,2.5,2.5,2.5,2.5,2.5,0,1,132
3,347.11,347.11,347.11,348.06,349.02,347.75,1.0999,37910,37910,37911,37911,37912,37911,1,4.8333,4.8333,5,5.0833,5.1667,5,0.16667,2.6667,2.6667,2.6667,2.6667,2.6667,2.6667,0,2.5,2.5,2.5,2.5,2.5,2.5,0,1,133
3,343.85,343.85,343.85,344.79,345.73,344.48,1.0819,37910,37910,37911,37911,37912,37911,1,4.8333,4.8333,5,5.0833,5.1667,5,0.16667,2.6667,2.6667,2.6667,2.6667,2.6667,2.6667,0,2.5,2.5,2.5,2.5,2.5,2.5,0,1,134
3,340.64,340.64,340.64,341.56,342.49,341.26,1.0642,37910,37910,37911,37911,37912,37911,1,4.8333,4.8333,5,5.0833,5.1667,5,0.16667,2.6667,2.6667,2.6667,2.6667,2.6667,2.6667,0,2.5,2.5,2.5,2.5,2.5,2.5,0,1,135
3,337.47,337.47,337.47,338.38,339.29,338.08,1.047,37910,37910,37911,37911,37912,37911,1,4.8333,4.8333,5,5.0833,5.1667,5,0.16667,2.6667,2.6667,2.6667,2.6667,2.6667,2.6667,0,2.5,2.5,2.5,2.5,2.5,2.5,0,1,136
3,334.35,334.35,334.35,335.24,336.13,334.94,1.0301,37910,37910,37911,37911,37912,37911,1,4.8333,4.8333,5,5.0833,5.1667,5,0.16667,2.6667,2.6667,2.6667,2.6667,2.6667,2.6667,0,2.5,2.5,2.5,2.5,2.5,2.5,0,1,137
3,331.27,331.27,331.27,332.14,333.02,331.85,1.0136,37910,37910,37911,37911,37912,37911,1,4.8333,4.8333,5,5.0833,5.1667,5,0.16667,2.6667,2.6667,2.6667,2.6667,2.6667,2.6667,0,2.5,2.5,2.5,2.5,2.5,2.5,0,1,138
3,328.22,328.22,328.22,329.09,329.95,328.8,0.9974,37910,37910,37911,37911,37912,37911,1,4.8333,4.8333,5,5.0833,5.1667,5,0.16667,2.6667,2.6667,2.6667,2.6667,2.6667,2.6667,0,2.5,2.5,2.5,2.5,2.5,2.5,0,1,139
3,325.22,325.22,325.22,326.07,326.92,325.79,0.98158,37910,37910,37911,37911,37912,37911,1,4.8333,4.8333,5,5.0833,5.1667,5,0.16667,2.6667,2.6667,2.6667,2.6667,2.6667,2.6667,0,2.5,2.5,2.5,2.5,2.5,2.5,0,1,140
3,322.25,322.25,322.25,323.09,323.93,322.81,0.96609,37910,37910,37911,37911,37912,37911,1,4.8333,4.8333,5,5.0833,5.1667,5,0.16667,2.6667,2.6667,2.6667,2.6667,2.6667,2.6667,0,2.5,2.5,2.5,2.5,2.5,2.5,0,1,141
3,319.33,319.33,319.33,320.15,320.98,319.88,0.95094,37910,37910,37911,37911,37912,37911,1,4.8333,4.8333,5,5.0833,5.1667,5,0.16667,2.6667,2.6667,2.6667,2.6667,2.6667,2.6667,0,2.5,2.5,2.5,2.5,2.5,2.5,0,1,142
3,316.44,316.44,316.44,317.25,318.06,316.98,0.93609,37910,37910,37911,37911,37912,37911,1,4.8333,4.8333,5,5.0833,5.1667,5,0.16667,2.6667,2.6667,2.6667,2.6667,2.6667,2.6667,0,2.5,2.5,2.5,2.5,2.5,2.5,0,1,143
3,313.59,313.59,313.59,314.39,315.18,314.12,0.92155,37910,37910,37911,37911,37912,37911,1,4.8333,4.8333,5,5.0833,5.1667,5,0.16667,2.6667,2.6667,2.6667,2.6667,2.6667,2.6667,0,2.5,2.5,2.5,2.5,2.5,2.5,0,1,144
3,310.77,310.77,310.77,311.56,312.34,311.3,0.90732,37910,37910,37911,37911,37912,37911,1,4.8333,4.8333,5,5.0833,5.1667,5,0.16667,2.6667,2.6667,2.6667,2.6667,2.6667,2.6667,0,2.5,2.5,2.5,2.5,2.5,2.5,0,1,145
3,307.99,307.99,307.99,308.77,309.54,308.51,0.89337,37910,37910,37911,37911,37912,37911,1,4.8333,4.8333,5,5.0833,5.1667,5,0.16667,2.6667,2.6667,2.6667,2.6667,2.6667,2.6667,0,2.5,2.5,2.5,2.5,2.5,2.5,0,1,146
3,305.25,305.25,305.25,306.01,306.77,305.76,0.8797,37910,37910,37911,37911,37912,37911,1,4.8333,4.8333,5,5.0833,5.1667,5,0.16667,2.6667,2.6667,2.6667,2.6667,2.6667,2.6667,0,2.5,2.5,2.5,2.5,2.5,2.5,0,1,147
3,302.54,302.54,302.54,303.29,304.04,303.04,0.86632,37910,37910,37911,37911,37912,37911,1,4.8333,4.8333,5,5.0833,5.1667,5,0.16667,2.6667,2.6667,2.6667,2.6667,2.6667,2.6667,0,2.5,2.5,2.5,2.5,2.5,2.5,0,1,148
3,299.86,299.86,299.86,300.6,301.34,300.35,0.85319,37910,37910,37911,37911,37912,37911,1,4.8333,4.8333,5,5.0833,5.1667,5,0.16667,2.6667,2.6667,2.6667,2.6667,2.6667,2.6667,0,2.5,2.5,2.5,2.5,2.5,2.5,0,1,149
3,297.21,297.21,297.21,297.94,298.67,297.7,0.84033,37910,37910,37911,37911,37912,37911,1,4.8333,4.8333,5,5.0833,5.1667,5,0.16667,2.6667,2.6667,2.6667,2.6667,2.6667,2.6667,0,2.5,2.5,2.5,2.5,2.5,2.5,0,1,150
3,294.6,294.6,294.6,295.32,296.04,295.08,0.82773,37910,37910,37911,37911,37912,37911,1,4.8333,4.8333,5,5.0833,5.1667,5,0.16667,2.6667,2.6667,2.6667,2.6667,2.6667,2.6667,0,2.5,2.5,2.5,2.5,2.5,2.5,0,1,151
3,292.02,292.02,292.02,292.73,293.43,292.49,0.81537,37910,37910,37911,37911,37912,37911,1,4.8333,4.8333,5,5.0833,5.1667,5,0.16667,2.6667,2.6667,2.6667,2.6667,2.6667,2.6667,0,2.5,2.5,2.5,2.5,2.5,2.5,0,1,152
3,289.47,289.47,289.47,290.17,290.86,289.93,0.80325,37910,37910,37911,37911,37912,37911,1,4.8333,4.8333,5,5.0833,5.1667,5,0.16667,2.6667,2.6667,2.6667,2.6667,2.6667,2.6667,0,2.5,2.5,2.5,2.5,2.5,2.5,0,1,153
3,286.95,286.95,286.95,287.64,288.32,287.41,0.79137,37910,37910,37911,37911,37912,37911,1,4.8333,4.8333,5,5.0833,5.1667,5,0.16667,2.6667,2.6667,2.6667,2.6667,2.6667,2.6667,0,2.5,2.5,2.5,2.5,2.5,2.5,0,1,154
3,284.46,284.46,284.46,285.14,285.81,284.91,0.77972,37910,37910,37911,37911,37912,37911,1,4.8333,4.8333,5,5.0833,5.1667,5,0.16667,2.6667,2.6667,2.6667,2.6667,2.6667,2.6667,0,2.5,2.5,2.5,2.5,2.5,2.5,0,1,155
3,282,282,282,282.67,283.33,282.44,0.76829,37910,37910,37911,37911,37912,37911,1,4.8333,4.8333,5,5.0833,5.1667,5,0.16667,2.6667,2.6667,2.6667,2.6667,2.6667,2.6667,0,2.5,2.5,2.5,2.5,2.5,2.5,0,1,156
3,279.57,279.57,279.57,280.23,280.88,280.01,0.75707,37910,37910,37911,37911,37912,37911,1,4.8333,4.8333,5,5.0833,5.1667,5,0.16667,2.6667,2.6667,2.6667,2.6667,2.6667,2.6667,0,2.5,2.5,2.5,2.5,2.5,2.5,0,1,157
3,277.17,277.17,277.17,277.81,278.46,277.6,0.74607,37910,37910,37911,37911,37912,37911,1,4.8333,4.8333,5,5.0833,5.1667,5,0.16667,2.6667,2.6667,2.6667,2.6667,2.6667,2.6667,0,2.5,2.5,2.5,2.5,2.5,2.5,0,1,158
3,274.79,274.79,274.79,275.43,276.06,275.22,0.73528,37910,37910,37911,37911,37912,37911,1,4.8333,4.8333,5,5.0833,5.1667,5,0.16667,2.6667,2.6667,2.6667,2.6667,2.6667,2.6667,0,2.5,2.5,2.5,2.5,2.5,2.5,0,1,159
3,272.44,272.44,272.44,273.07,273.7,272.86,0.72469,37910,37910,37911,37911,37912,37911,1,4.8333,4.8333,5,5.0833,5.1667,5,0.16667,2.6667,2.6667,2.6667,2.6667,2.6667,2.6667,0,2.5,2.5,2.5,2.5,2.5,2.5,0,1,160
3,270.12,270.12,270.12,270.74,271.36,270.54,0.7143,37910,37910,37911,37911,37912,37911,1,4.8333,4.8333,5,5.0833,5.1667,5,0.16667,2.6667,2.6667,2.6667,2.6667,2.6667,2.6667,0,2.5,2.5,2.5,2.5,2.5,2.5,0,1,161
3,267.83,267.83,267.83,268.44,269.05,268.23,0.7041,37910,37910,37911,37911,37912,37911,1,4.8333,4.8333,5,5.0833,5.1667,5,0.16667,2.6667,2.6667,2.6667,2.6667,2.6667,2.6667,0,2.5,2.5,2.5,2.5,2.5,2.5,0,1,162
3,265.56,265.56,265.56,266.16,266.76,265.96,0.69408,37910,37910,37911,37911,37912,37911,1,4.8333,4.8333,5,5.0833,5.1667,5,0.16667,2.6667,2.6667,2.6667,2.6667,2.6667,2.6667,0,2.5,2.5,2.5,2.5,2.5,2.5,0,1,163
3,263.32,263.32,263.32,263.91,264.5,263.71,0.68425,37910,37910,37911,37911,37912,37911,1,4.8333,4.8333,5,5.0833,5.1667,5,0.16667,2.6667,2.6667,2.6667,2.6667,2.6667,2.6667,0,2.5,2.5,2.5,2.5,2.5,2.5,0,1,164
3,261.1,261.1,261.1,261.68,262.27,261.49,0.6746,37910,37910,37911,37911,37912,37911,1,4.8333,4.8333,5,5.0833,5.1667,5,0.16667,2.6667,2.6667,2.6667,2.6667,2.6667,2.6667,0,2.5,2.5,2.5,2.5,2.5,2.5,0,1,165
3,258.91,258.91,258.91,259.48,260.06,259.29,0.66513,37910,37910,37911,37911,37912,37911,1,4.8333,4.8333,5,5.0833,5.1667,5,0.16667,2.6667,2.6667,2.6667,2.6667,2.6667,2.6667,0,2.5,2.5,2.5,2.5,2.5,2.5,0,1,166
3,256.74,256.74,256.74,257.31,257.87,257.12,0.65582,37910,37910,37911,37911,37912,37911,1,4.8333,4.8333,5,5.0833,5.1667,5,0.16667,2.6667,2.6667,2.6667,2.6667,2.6667,2.6667,0,2.5,2.5,2.5,2.5,2.5,2.5,0,1,167
3,254.59,254.59,254.59,255.15,255.71,254.97,0.64668,37910,37910,37911,37911,37912,37911,1,4.8333,4.8333,5,5.0833,5.1667,5,0.16667,2.6667,2.6667,2.6667,2.6667,2.6667,2.6667,0,2.5,2.5,2.5,2.5,2.5,2.5,0,1,168
3,252.47,252.47,252.47,253.03,253.58,252.84,0.63771,37910,37910,37911,37911,37912,37911,1,4.8333,4.8333,5,5.0833,5.1667,5,0.16667,2.6667,2.6667,2.6667,2.6667,2.6667,2.6667,0,2.5,2.5,2.5,2.5,2.5,2.5,0,1,169
3,250.38,250.38,250.38,250.92,251.46,250.74,0.62889,37910,37910,37911,37911,37912,37911,1,4.8333,4.8333,5,5.0833,5.1667,5,0.16667,2.6667,2.6667,2.6667,2.6667,2.6667,2.6667,0,2.5,2.5,2.5,2.5,2.5,2.5,0,1,170
3,248.3,248.3,248.3,248.84,249.37,248.66,0.62023,37910,37910,37911,37911,37912,37911,1,4.8333,4.8333,5,5.0833,5.1667,5,0.16667,2.6667,2.6667,2.6667,2.6667,2.6667,2.6667,0,2.5,2.5,2.5,2.5,2.5,2.5,0,1,171
3,246.25,246.25,246.25,246.78,247.31,246.6,0.61172,37910,37910,37911,37911,37912,37911,1,4.8333,4.8333,5,5.0833,5.1667,5,0.16667,2.6667,2.6667,2.6667,2.6667,2.6667,2.6667,0,2.5,2.5,2.5,2.5,2.5,2.5,0,1,172
3,244.22,244.22,244.22,244.74,245.26,244.57,0.60336,37910,37910,37911,37911,37912,37911,1,4.8333,4.8333,5,5.0833,5.1667,5,0.16667,2.6667,2.6667,2.6667,2.6667,2.6667,2.6667,0,2.5,2.5,2.5,2.5,2.5,2.5,0,1,173
3,242.21,242.21,242.21,242.72,243.24,242.55,0.59515,37910,37910,37911,37911,37912,37911,1,4.8333,4.8333,5,5.0833,5.1667,5,0.16667,2.6667,2.6667,2.6667,2.6667,2.6667,2.6667,0,2.5,2.5,2.5,2.5,2.5,2.5,0,1,174
3,240.22,240.22,240.22,240.73,241.24,240.56,0.58708,37910,37910,37911,37911,37912,37911,1,4.8333,4.8333,5,5.0833,5.1667,5,0.16667,2.6667,2.6667,2.6667,2.6667,2.6667,2.6667,0,2.5,2.5,2.5,2.5,2.5,2.5,0,1,175
3,238.26,238.26,238.26,238.76,239.26,238.59,0.57914,37910,37910,37911,37911,37912,37911,1,4.8333,4.8333,5,5.0833,5.1667,5,0.16667,2.6667,2.6667,2.6667,2.6667,2.6667,2.6667,0,2.5,2.5,2.5,2.5,2.5,2.5,0,1,176
3,236.31,236.31,236.31,236.81,237.3,236.64,0.57135,37910,37910,37911,37911,37912,37911,1,4.8333,4.8333,5,5.0833,5.1667,5,0.16667,2.6667,2.6667,2.6667,2.6667,2.6667,2.6667,0,2.5,2.5,2.5,2.5,2.5,2.5,0,1,177
3,234.39,234.39,234.39,234.88,235.36,234.71,0.56368,37910,37910,37911,37911,37912,37911,1,4.8333,4.8333,5,5.0833,5.1667,5,0.16667,2.6667,2.6667,2.6667,2.6667,2.6667,2.6667,0,2.5,2.5,2.5,2.5,2.5,2.5,0,1,178
3,232.48,232.48,232.48,232.96,233.45,232.8,0.55615,37910,37910,37911,37911,37912,37911,1,4.8333,4.8333,5,5.0833,5.1667,5,0.16667,2.6667,2.6667,2.6667,2.6667,2.6667,2.6667,0,2.5,2.5,2.5,2.5,2.5,2.5,0,1,179
3,230.6,230.6,230.6,231.07,231.55,230.91,0.54874,37910,37910,37911,37911,37912,37911,1,4.8333,4.8333,5,5.0833,5.1667,5,0.16667,2.6667,2.6667,2.6667,2.6667,2.6667,2.6667,0,2.5,2.5,2.5,2.5,2.5,2.5,0,1,180
3,228.73,228.73,228.73,229.2,229.67,229.05,0.54146,37910,37910,37911,37911,37912,37911,1,4.8333,4.8333,5,5.0833,5.1667,5,0.16667,2.6667,2.6667,2.6667,2.6667,2.6667,2.6667,0,2.5,2.5,2.5,2.5,2.5,2.5,0,1,181
3,226.89,226.89,226.89,227.35,227.81,227.2,0.5343,37910,37910,37911,37911,37912,37911,1,4.8333,4.8333,5,5.0833,5.1667,5,0.16667,2.6667,2.6667,2.6667,2.6667,2.6667,2.6667,0,2.5,2.5,2.5,2.5,2.5,2.5,0,1,182
3,225.06,225.06,225.06,225.52,225.97,225.37,0.52726,37910,37910,37911,37911,37912,37911,1,4.8333,4.8333,5,5.0833,5.1667,5,0.16667,2.6667,2.6667,2.6667,2.6667,2.6667,2.6667,0,2.5,2.5,2.5,2.5,2.5,2.5,0,1,183
3,223.25,223.25,223.25,223.7,224.15,223.55,0.52033,37910,37910,37911,37911,37912,37911,1,4.8333,4.8333,5,5.0833,5.1667,5,0.16667,2.6667,2.6667,2.6667,2.6667,2.6667,2.6667,0,2.5,2.5,2.5,2.5,2.5,2.5,0,1,184
3,221.46,221.46,221.46,221.91,222.35,221.76,0.51352,37910,37910,37911,37911,37912,37911,1,4.8333,4.8333,5,5.0833,5.1667,5,0.16667,2.6667,2.6667,2.6667,2.6667,2.6667,2.6667,0,2.5,2.5,2.5,2.5,2.5,2.5,0,1,185
3,219.69,219.69,219.69,220.13,220.57,219.99,0.50683,37910,37910,37911,37911,37912,37911,1,4.8333,4.8333,5,5.0833,5.1667,5,0.16667,2.6667,2.6667,2.6667,2.6667,2.6667,2.6667,0,2.5,2.5,2.5,2.5,2.5,2.5,0,1,186
3,217.94,217.94,217.94,218.37,218.81,218.23,0.50024,37910,37910,37911,37911,37912,37911,1,4.8333,4.8333,5,5.0833,5.1667,5,0.16667,2.6667,2.6667,2.6667,2.6667,2.6667,2.6667,0,2.5,2.5,2.5,2.5,2.5,2.5,0,1,187
3,216.21,216.21,216.21,216.63,217.06,216.49,0.49376,37910,37910,37911,37911,37912,37911,1,4.8333,4.8333,5,5.0833,5.1667,5,0.16667,2.6667,2.6667,2.6667,2.6667,2.6667,2.6667,0,2.5,2.5,2.5,2.5,2.5,2.5,0,1,188
3,214.49,214.49,214.49,214.91,215.33,214.77,0.48738,37910,37910,37911,37911,37912,37911,1,4.8333,4.8333,5,5.0833,5.1667,5,0.16667,2.6667,2.6667,2.6667,2.6667,2.6667,2.6667,0,2.5,2.5,2.5,2.5,2.5,2.5,0,1,189
3,212.79,212.79,212.79,213.2,213.62,213.06,0.48111,37910,37910,37911,37911,37912,37911,1,4.8333,4.8333,5,5.0833,5.1667,5,0.16667,2.6667,2.6667,2.6667,2.6667,2.6667,2.6667,0,2.5,2.5,2.5,2.5,2.5,2.5,0,1,190
3,211.1,211.1,211.1,211.52,211.93,211.38,0.47494,37910,37910,37911,37911,37912,37911,1,4.8333,4.8333,5,5.0833,5.1667,5,0.16667,2.6667,2.6667,2.6667,2.6667,2.6667,2.6667,0,2.5,2.5,2.5,2.5,2.5,2.5,0,1,191
3,209.44,209.44,209.44,209.84,210.25,209.71,0.46886,37910,37910,37911,37911,37912,37911,1,4.8333,4.8333,5,5.0833,5.1667,5,0.16667,2.6667,2.6667,2.6667,2.6667,2.6667,2.6667,0,2.5,2.5,2.5,2.5,2.5,2.5,0,1,192
3,207.79,207.79,207.79,208.19,208.59,208.05,0.46289,37910,37910,37911,37911,37912,37911,1,4.8333,4.8333,5,5.0833,5.1667,5,0.16667,2.6667,2.6667,2.6667,2.6667,2.6667,2.6667,0,2.5,2.5,2.5,2.5,2.5,2.5,0,1,193
3,206.15,206.15,206.15,206.55,206.94,206.42,0.45701,37910,37910,37911,37911,37912,37911,1,4.8333,4.8333,5,5.0833,5.1667,5,0.16667,2.6667,2.6667,2.6667,2.6667,2.6667,2.6667,0,2.5,2.5,2.5,2.5,2.5,2.5,0,1,194
3,204.54,204.54,204.54,204.93,205.32,204.8,0.45122,37910,37910,37911,37911,37912,37911,1,4.8333,4.8333,5,5.0833,5.1667,5,0.16667,2.6667,2.6667,2.6667,2.6667,2.6667,2.6667,0,2.5,2.5,2.5,2.5,2.5,2.5,0,1,195
3,202.93,202.93,202.93,203.32,203.7,203.19,0.44552,37910,37910,37911,37911,37912,37911,1,4.8333,4.8333,5,5.0833,5.1667,5,0.16667,2.6667,2.6667,2.6667,2.6667,2.6667,2.6667,0,2.5,2.5,2.5,2.5,2.5,2.5,0,1,196
3,201.35,201.35,201.35,201.73,202.11,201.6,0.43992,37910,37910,37911,37911,37912,37911,1,4.8333,4.8333,5,5.0833,5.1667,5,0.16667,2.6667,2.6667,2.6667,2.6667,2.6667,2.6667,0,2.5,2.5,2.5,2.5,2.5,2.5,0,1,197
3,199.78,199.78,199.78,200.15,200.53,200.03,0.4344,37910,37910,37911,37911,37912,37911,1,4.8333,4.8333,5,5.0833,5.1667,5,0.16667,2.6667,2.6667,2.6667,2.6667,2.6667,2.6667,0,2.5,2.5,2.5,2.5,2.5,2.5,0,1,198
3,198.22,198.22,198.22,198.59,198.96,198.47,0.42896,37910,37910,37911,37911,37912,37911,1,4.8333,4.8333,5,5.0833,5.1667,5,0.16667,2.6667,2.6667,2.6667,2.6667,2.6667,2.6667,0,2.5,2.5,2.5,2.5,2.5,2.5,0,1,199
3,196.68,196.68,196.68,197.05,197.41,196.92,0.42361,37910,37910,37911,37911,37912,37911,1,4.8333,4.8333,5,5.0833,5.1667,5,0.16667,2.6667,2.6667,2.6667,2.6667,2.6667,2.6667,0,2.5,2.5,2.5,2.5,2.5,2.5,0,1,200
3,195.15,195.15,195.15,195.52,195.88,195.4,0.41835,37910,37910,37911,37911,37912,37911,1,4.8333,4.8333,5,5.0833,5.1667,5,0.16667,2.6667,2.6667,2.6667,2.6667,2.6667,2.6667,0,2.5,2.5,2.5,2.5,2.5,2.5,0,1,201
3,193.64,193.64,193.64,194,194.36,193.88,0.41316,37910,37910,37911,37911,37912,37911,1,4.8333,4.8333,5,5.0833,5.1667,5,0.16667,2.6667,2.6667,2.6667,2.6667,2.6667,2.6667,0,2.5,2.5,2.5,2.5,2.5,2.5,0,1,202
3,192.15,192.15,192.15,192.5,192.85,192.38,0.40806,37910,37910,37911,37911,37912,37911,1,4.8333,4.8333,5,5.0833,5.1667,5,0.16667,2.6667,2.6667,2.6667,2.6667,2.6667,2.6667,0,2.5,2.5,2.5,2.5,2.5,2.5,0,1,203
3,190.67,190.67,190.67,191.01,191.36,190.9,0.40303,37910,37910,37911,37911,37912,37911,1,4.8333,4.8333,5,5.0833,5.1667,5,0.16667,2.6667,2.6667,2.6667,2.6667,2.6667,2.6667,0,2.5,2.5,2.5,2.5,2.5,2.5,0,1,204
3,189.2,189.2,189.2,189.54,189.89,189.43,0.39808,37910,37910,37911,37911,37912,37911,1,4.8333,4.8333,5,5.0833,5.1667,5,0.16667,2.6667,2.6667,2.6667,2.6667,2.6667,2.6667,0,2.5,2.5,2.5,2.5,2.5,2.5,0,1,205
3,187.74,187.74,187.74,188.08,188.42,187.97,0.3932,37910,37910,37911,37911,37912,37911,1,4.8333,4.8333,5,5.0833,5.1667,5,0.16667,2.6667,2.6667,2.6667,2.6667,2.6667,2.6667,0,2.5,2.5,2.5,2.5,2.5,2.5,0,1,206
3,186.3,186.3,186.3,186.64,186.98,186.53,0.3884,37910,37910,37911,37911,37912,37911,1,4.8333,4.8333,5,5.0833,5.1667,5,0.16667,2.6667,2.6667,2.6667,2.6667,2.6667,2.6667,0,2.5,2.5,2.5,2.5,2.5,2.5,0,1,207
3,184.88,184.88,184.88,185.21,185.54,185.1,0.38367,37910,37910,37911,37911,37912,37911,1,4.8333,4.8333,5,5.0833,5.1667,5,0.16667,2.6667,2.6667,2.6667,2.6667,2.6667,2.6667,0,2.5,2.5,2.5,2.5,2.5,2.5,0,1,208
3,183.46,183.46,183.46,183.79,184.12,183.68,0.37901,37910,37910,37911,37911,37912,37911,1,4.8333,4.8333,5,5.0833,5.1667,5,0.16667,2.6667,2.6667,2.6667,2.6667,2.6667,2.6667,0,2.5,2.5,2.5,2.5,2.5,2.5,0,1,209
3,182.06,182.06,182.06,182.39,182.71,182.28,0.37442,37910,37910,37911,37911,37912,37911,1,4.8333,4.8333,5,5.0833,5.1667,5,0.16667,2.6667,2.6667,2.6667,2.6667,2.6667,2.6667,0,2.5,2.5,2.5,2.5,2.5,2.5,0,1,210
3,180.68,180.68,180.68,181,181.32,180.89,0.3699,37910,37910,37911,37911,37912,37911,1,4.8333,4.8333,5,5.0833,5.1667,5,0.16667,2.6667,2.6667,2.6667,2.6667,2.6667,2.6667,0,2.5,2.5,2.5,2.5,2.5,2.5,0,1,211
3,179.3,179.3,179.3,179.62,179.93,179.51,0.36545,37910,37910,37911,37911,37912,37911,1,4.8333,4.8333,5,5.0833,5.1667,5,0.16667,2.6667,2.6667,2.6667,2.6667,2.6667,2.6667,0,2.5,2.5,2.5,2.5,2.5,2.5,0,1,212
3,177.94,177.94,177.94,178.25,178.57,178.15,0.36106,37910,37910,37911,37911,37912,37911,1,4.8333,4.8333,5,5.0833,5.1667,5,0.16667,2.6667,2.6667,2.6667,2.6667,2.6667,2.6667,0,2.5,2.5,2.5,2.5,2.5,2.5,0,1,213
3,176.59,176.59,176.59,176.9,177.21,176.8,0.35674,37910,37910,37911,37911,37912,37911,1,4.8333,4.8333,5,5.0833,5.1667,5,0.16667,2.6667,2.6667,2.6667,2.6667,2.6667,2.6667,0,2.5,2.5,2.5,2.5,2.5,2.5,0,1,214
3,175.26,175.26,175.26,175.56,175.87,175.46,0.35248,37910,37910,37911,37911,37912,37911,1,4.8333,4.8333,5,5.0833,5.1667,5,0.16667,2.6667,2.6667,2.6667,2.6667,2.6667,2.6667,0,2.5,2.5,2.5,2.5,2.5,2.5,0,1,215
3,173.93,173.93,173.93,174.23,174.53,174.13,0.34828,37910,37910,37911,37911,37912,37911,1,4.8333,4.8333,5,5.0833,5.1667,5,0.16667,2.6667,2.6667,2.6667,2.6667,2.6667,2.6667,0,2.5,2.5,2.5,2.5,2.5,2.5,0,1,216
3,172.62,172.62,172.62,172.92,173.22,172.82,0.34415,37910,37910,37911,37911,37912,37911,1,4.8333,4.8333,5,5.0833,5.1667,5,0.16667,2.6667,2.6667,2.6667,2.6667,2.6667,2.6667,0,2.5,2.5,2.5,2.5,2.5,2.5,0,1,217
3,171.32,171.32,171.32,171.61,171.91,171.52,0.34007,37910,37910,37911,37911,37912,37911,1,4.8333,4.8333,5,5.0833,5.1667,5,0.16667,2.6667,2.6667,2.6667,2.6667,2.6667,2.6667,0,2.5,2.5,2.5,2.5,2.5,2.5,0,1,218
3,170.03,170.03,170.03,170.32,170.61,170.23,0.33605,37910,37910,37911,37911,37912,37911,1,4.8333,4.8333,5,5.0833,5.1667,5,0.16667,2.6667,2.6667,2.6667,2.6667,2.6667,2.6667,0,2.5,2.5,2.5,2.5,2.5,2.5,0,1,219
3,168.76,168.76,168.76,169.04,169.33,168.95,0.33209,37910,37910,37911,37911,37912,37911,1,4.8333,4.8333,5,5.0833,5.1667,5,0.16667,2.6667,2.6667,2.6667,2.6667,2.6667,2.6667,0,2.5,2.5,2.5,2.5,2.5,2.5,0,1,220
3,167.49,167.49,167.49,167.78,168.06,167.68,0.32819,37910,37910,37911,37911,37912,37911,1,4.8333,4.8333,5,5.0833,5.1667,5,0.16667,2.6667,2.6667,2.6667,2.6667,2.6667,2.6667,0,2.5,2.5,2.5,2.5,2.5,2.5,0,1,221
3,166.24,166.24,166.24,166.52,166.8,166.43,0.32435,37910,37910,37911,37911,37912,37911,1,4.8333,4.8333,5,5.0833,5.1667,5,0.16667,2.6667,2.6667,2.6667,2.6667,2.6667,2.6667,0,2.5,2.5,2.5,2.5,2.5,2.5,0,1,222
3,165,165,165,165.27,165.55,165.18,0.32056,37910,37910,37911,37911,37912,37911,1,4.8333,4.8333,5,5.0833,5.1667,5,0.16667,2.6667,2.6667,2.6667,2.6667,2.6667,2.6667,0,2.5,2.5,2.5,2.5,2.5,2.5,0,1,223
3,163.77,163.77,163.77,164.04,164.32,163.95,0.31682,37910,37910,37911,37911,37912,37911,1,4.8333,4.8333,5,5.0833,5.1667,5,0.16667,2.6667,2.6667,2.6667,2.6667,2.6667,2.6667,0,2.5,2.5,2.5,2.5,2.5,2.5,0,1,224
3,162.55,162.55,162.55,162.82,163.09,162.73,0.31314,37910,37910,37911,37911,37912,37911,1,4.8333,4.8333,5,5.0833,5.1667,5,0.16667,2.6667,2.6667,2.6667,2.6667,2.6667,2.6667,0,2.5,2.5,2.5,2.5,2.5,2.5,0,1,225
3,161.34,161.34,161.34,161.61,161.87,161.52,0.30951,37910,37910,37911,37911,37912,37911,1,4.8333,4.8333,5,5.0833,5.1667,5,0.16667,2.6667,2.6667,2.6667,2.6667,2.6667,2.6667,0,2.5,2.5,2.5,2.5,2.5,2.5,0,1,226
3,160.14,160.14,160.14,160.41,160.67,160.32,0.30593,37910,37910,37911,37911,37912,37911,1,4.8333,4.8333,5,5.0833,5.1667,5,0.16667,2.6667,2.6667,2.6667,2.6667,2.6667,2.6667,0,2.5,2.5,2.5,2.5,2.5,2.5,0,1,227
3,158.95,158.95,158.95,159.22,159.48,159.13,0.3024,37910,37910,37911,37911,37912,37911,1,4.8333,4.8333,5,5.0833,5.1667,5,0.16667,2.6667,2.6667,2.6667,2.6667,2.6667,2.6667,0,2.5,2.5,2.5,2.5,2.5,2.5,0,1,228
3,157.78,157.78,157.78,158.04,158.3,157.95,0.29892,37910,37910,37911,37911,37912,37911,1,4.8333,4.8333,5,5.0833,5.1667,5,0.16667,2.6667,2.6667,2.6667,2.6667,2.6667,2.6667,0,2.5,2.5,2.5,2.5,2.5,2.5,0,1,229
3,156.61,156.61,156.61,156.87,157.12,156.78,0.29549,37910,37910,37911,37911,37912,37911,1,4.8333,4.8333,5,5.0833,5.1667,5,0.16667,2.6667,2.6667,2.6667,2.6667,2.6667,2.6667,0,2.5,2.5,2.5,2.5,2.5,2.5,0,1,230
3,155.46,155.46,155.46,155.71,155.96,155.62,0.2921,37910,37910,37911,37911,37912,37911,1,4.8333,4.8333,5,5.0833,5.1667,5,0.16667,2.6667,2.6667,2.6667,2.6667,2.6667,2.6667,0,2.5,2.5,2.5,2.5,2.5,2.5,0,1,231
3,154.31,154.31,154.31,154.56,154.81,154.48,0.28877,37910,37910,37911,37911,37912,37911,1,4.8333,4.8333,5,5.0833,5.1667,5,0.16667,2.6667,2.6667,2.6667,2.6667,2.6667,2.6667,0,2.5,2.5,2.5,2.5,2.5,2.5,0,1,232
3,153.18,153.18,153.18,153.42,153.67,153.34,0.28548,37910,37910,37911,37911,37912,37911,1,4.8333,4.8333,5,5.0833,5.1667,5,0.16667,2.6667,2.6667,2.6667,2.6667,2.6667,2.6667,0,2.5,2.5,2.5,2.5,2.5,2.5,0,1,233
3,152.05,152.05,152.05,152.29,152.54,152.21,0.28223,37910,37910,37911,37911,37912,37911,1,4.8333,4.8333,5,5.0833,5.1667,5,0.16667,2.6667,2.6667,2.6667,2.6667,2.6667,2.6667,0,2.5,2.5,2.5,2.5,2.5,2.5,0,1,234
3,150.93,150.93,150.93,151.18,151.42,151.1,0.27903,37910,37910,37911,37911,37912,37911,1,4.8333,4.8333,5,5.0833,5.1667,5,0.16667,2.6667,2.6667,2.6667,2.6667,2.6667,2.6667,0,2.5,2.5,2.5,2.5,2.5,2.5,0,1,235
3,149.83,149.83,149.83,150.07,150.31,149.99,0.27588,37910,37910,37911,37911,37912,37911,1,4.8333,4.8333,5,5.0833,5.1667,5,0.16667,2.6667,2.6667,2.6667,2.6667,2.6667,2.6667,0,2.5,2.5,2.5,2.5,2.5,2.5,0,1,236
3,148.73,148.73,148.73,148.97,149.21,148.89,0.27276,37910,37910,37911,37911,37912,37911,1,4.8333,4.8333,5,5.0833,5.1667,5,0.16667,2.6667,2.6667,2.6667,2.6667,2.6667,2.6667,0,2.5,2.5,2.5,2.5,2.5,2.5,0,1,237
3,147.65,147.65,147.65,147.88,148.11,147.8,0.26969,37910,37910,37911,37911,37912,37911,1,4.8333,4.8333,5,5.0833,5.1667,5,0.16667,2.6667,2.6667,2.6667,2.6667,2.6667,2.6667,0,2.5,2.5,2.5,2.5,2.5,2.5,0,1,238
3,146.57,146.57,146.57,146.8,147.03,146.72,0.26667,37910,37910,37911,37911,37912,37911,1,4.8333,4.8333,5,5.0833,5.1667,5,0.16667,2.6667,2.6667,2.6667,2.6667,2.6667,2.6667,0,2.5,2.5,2.5,2.5,2.5,2.5,0,1,239
3,145.5,145.5,145.5,145.73,145.96,145.65,0.26368,37910,37910,37911,37911,37912,37911,1,4.8333,4.8333,5,5.0833,5.1667,5,0.16667,2.6667,2.6667,2.6667,2.6667,2.6667,2.6667,0,2.5,2.5,2.5,2.5,2.5,2.5,0,1,240
3,144.44,144.44,144.44,144.67,144.89,144.59,0.26073,37910,37910,37911,37911,37912,37911,1,4.8333,4.8333,5,5.0833,5.1667,5,0.16667,2.6667,2.6667,2.6667,2.6667,2.6667,2.6667,0,2.5,2.5,2.5,2.5,2.5,2.5,0,1,241
3,143.39,143.39,143.39,143.62,143.84,143.54,0.25783,37910,37910,37911,37911,37912,37911,1,4.8333,4.8333,5,5.0833,5.1667,5,0.16667,2.6667,2.6667,2.6667,2.6667,2.6667,2.6667,0,2.5,2.5,2.5,2.5,2.5,2.5,0,1,242
3,142.35,142.35,142.35,142.57,142.79,142.5,0.25496,37910,37910,37911,37911,37912,37911,1,4.8333,4.8333,5,5.0833,5.1667,5,0.16667,2.6667,2.6667,2.6667,2.6667,2.6667,2.6667,0,2.5,2.5,2.5,2.5,2.5,2.5,0,1,243
3,141.32,141.32,141.32,141.54,141.76,141.47,0.25213,37910,37910,37911,37911,37912,37911,1,4.8333,4.8333,5,5.0833,5.1667,5,0.16667,2.6667,2.6667,2.6667,2.6667,2.6667,2.6667,0,2.5,2.5,2.5,2.5,2.5,2.5,0,1,244
3,140.3,140.3,140.3,140.52,140.73,140.44,0.24934,37910,37910,37911,37911,37912,37911,1,4.8333,4.8333,5,5.0833,5.1667,5,0.16667,2.6667,2.6667,2.6667,2.6667,2.6667,2.6667,0,2.5,2.5,2.5,2.5,2.5,2.5,0,1,245
3,139.29,139.29,139.29,139.5,139.71,139.43,0.24659,37910,37910,37911,37911,37912,37911,1,4.8333,4.8333,5,5.0833,5.1667,5,0.16667,2.6667,2.6667,2.6667,2.6667,2.6667,2.6667,0,2.5,2.5,2.5,2.5,2.5,2.5,0,1,246
3,138.28,138.28,138.28,138.49,138.7,138.42,0.24387,37910,37910,37911,37911,37912,37911,1,4.8333,4.8333,5,5.0833,5.1667,5,0.16667,2.6667,2.6667,2.6667,2.6667,2.6667,2.6667,0,2.5,2.5,2.5,2.5,2.5,2.5,0,1,247
3,137.28,137.28,137.28,137.49,137.7,137.42,0.24119,37910,37910,37911,37911,37912,37911,1,4.8333,4.8333,5,5.0833,5.1667,5,0.16667,2.6667,2.6667,2.6667,2.6667,2.6667,2.6667,0,2.5,2.5,2.5,2.5,2.5,2.5,0,1,248
3,136.3,136.3,136.3,136.5,136.71,136.43,0.23854,37910,37910,37911,37911,37912,37911,1,4.8333,4.8333,5,5.0833,5.1667,5,0.16667,2.6667,2.6667,2.6667,2.6667,2.6667,2.6667,0,2.5,2.5,2.5,2.5,2.5,2.5,0,1,249
