"N","min(Temp)","q1(Temp)","med(Temp)","q3(Temp)","max(Temp)","avg(Temp)","std(Temp)","min(vtkOriginalPointIds)","q1(vtkOriginalPointIds)","med(vtkOriginalPointIds)","q3(vtkOriginalPointIds)","max(vtkOriginalPointIds)","avg(vtkOriginalPointIds)","std(vtkOriginalPointIds)","min(X)","q1(X)","med(X)","q3(X)","max(X)","avg(X)","std(X)","min(Y)","q1(Y)","med(Y)","q3(Y)","max(Y)","avg(Y)","std(Y)","min(Z)","q1(Z)","med(Z)","q3(Z)","max(Z)","avg(Z)","std(Z)","vtkValidPointMask","Time"
3,0,0,0,0,0,0,0,37910,37910,37911,37911,37912,37911,1,4.8333,4.8333,5,5.0833,5.1667,5,0.16667,2.6667,2.6667,2.6667,2.6667,2.6667,2.6667,0,2.5,2.5,2.5,2.5,2.5,2.5,0,1,0
3,1.9364,1.9364,1.9364,1.9639,1.9915,1.9547,0.03181,37910,37910,37911,37911,37912,37911,1,4.8333,4.8333,5,5.0833,5.1667,5,0.16667,2.6667,2.6667,2.6667,2.6667,2.6667,2.6667,0,2.5,2.5,2.5,2.5,2.5,2.5,0,1,1
3,9.8561,9.8561,9.8561,9.9953,10.135,9.9489,0.16076,37910,37910,37911,37911,37912,37911,1,4.8333,4.8333,5,5.0833,5.1667,5,0.16667,2.6667,2.6667,2.6667,2.6667,2.6667,2.6667,0,2.5,2.5,2.5,2.5,2.5,2.5,0,1,2
3,35.684,35.684,35.684,36.185,36.687,36.018,0.57923,37910,37910,37911,37911,37912,37911,1,4.8333,4.8333,5,5.0833,5.1667,5,0.16667,2.6667,2.6667,2.6667,2.6667,2.6667,2.6667,0,2.5,2.5,2.5,2.5,2.5,2.5,0,1,3
3,104.21,104.21,104.21,105.67,107.13,105.18,1.6844,37910,37910,37911,37911,37912,37911,1,4.8333,4.8333,5,5.0833,5.1667,5,0.16667,2.6667,2.6667,2.6667,2.6667,2.6667,2.6667,0,2.5,2.5,2.5,2.5,2.5,2.5,0,1,4
3,252.69,252.69,252.69,256.21,259.73,255.04,4.0656,37910,37910,37911,37911,37912,37911,1,4.8333,4.8333,5,5.0833,5.1667,5,0.16667,2.6667,2.6667,2.6667,2.6667,2.6667,2.6667,0,2.5,2.5,2.5,2.5,2.5,2.5,0,1,5
3,515.42,515.42,515.42,522.56,529.7,520.18,8.2465,37910,37910,37911,37911,37912,37911,1,4.8333,4.8333,5,5.0833,5.1667,5,0.16667,2.6667,2.6667,2.6667,2.6667,2.6667,2.6667,0,2.5,2.5,2.5,2.5,2.5,2.5,0,1,6
3,894.31,894.31,894.31,906.62,918.92,902.52,14.208,37910,37910,37911,37911,37912,37911,1,4.8333,4.8333,5,5.0833,5.1667,5,0.16667,2.6667,2.6667,2.6667,2.6667,2.6667,2.6667,0,2.5,2.5,2.5,2.5,2.5,2.5,0,1,7
3,1337.4,1337.4,1337.4,1355.6,1373.9,1349.5,21.087,37910,37910,37911,37911,37912,37911,1,4.8333,4.8333,5,5.0833,5.1667,5,0.16667,2.6667,2.6667,2.6667,2.6667,2.6667,2.6667,0,2.5,2.5,2.5,2.5,2.5,2.5,0,1,8
3,1556.1,1556.1,1561.4,1561.4,1561.4,1559.7,3.0785,37910,37910,37911,37911,37912,37911,1,4.8333,4.8333,5,5.0833,5.1667,5,0.16667,2.6667,2.6667,2.6667,2.6667,2.6667,2.6667,0,2.5,2.5,2.5,2.5,2.5,2.5,0,1,9
3,1834,1834,1834,1846.3,1858.5,1842.2,14.131,37910,37910,37911,37911,37912,37911,1,4.8333,4.8333,5,5.0833,5.1667,5,0.16667,2.6667,2.6667,2.6667,2.6667,2.6667,2.6667,0,2.5,2.5,2.5,2.5,2.5,2.5,0,1,10
3,1962.4,1962.4,1962.4,1994.6,2026.8,1983.9,37.185,37910,37910,37911,37911,37912,37911,1,4.8333,4.8333,5,5.0833,5.1667,5,0.16667,2.6667,2.6667,2.6667,2.6667,2.6667,2.6667,0,2.5,2.5,2.5,2.5,2.5,2.5,0,1,11
3,2010.1,2010.1,2010.1,2042.9,2075.8,2032,37.947,37910,37910,37911,37911,37912,37911,1,4.8333,4.8333,5,5.0833,5.1667,5,0.16667,2.6667,2.6667,2.6667,2.6667,2.6667,2.6667,0,2.5,2.5,2.5,2.5,2.5,2.5,0,1,12
3,1986.7,1986.7,1986.7,2017.5,2048.2,2007.2,35.48,37910,37910,37911,37911,37912,37911,1,4.8333,4.8333,5,5.0833,5.1667,5,0.16667,2.6667,2.6667,2.6667,2.6667,2.6667,2.6667,0,2.5,2.5,2.5,2.5,2.5,2.5,0,1,13
3,1928.2,1928.2,1928.2,1956.5,1984.8,1947.1,32.674,37910,37910,37911,37911,37912,37911,1,4.8333,4.8333,5,5.0833,5.1667,5,0.16667,2.6667,2.6667,2.6667,2.6667,2.6667,2.6667,0,2.5,2.5,2.5,2.5,2.5,2.5,0,1,14
3,1859.7,1859.7,1859.7,1885.3,1910.8,1876.7,29.505,37910,37910,37911,37911,37912,37911,1,4.8333,4.8333,5,5.0833,5.1667,5,0.16667,2.6667,2.6667,2.6667,2.6667,2.6667,2.6667,0,2.5,2.5,2.5,2.5,2.5,2.5,0,1,15
3,1793,1793,1793,1815.4,1837.8,1807.9,25.909,37910,37910,37911,37911,37912,37911,1,4.8333,4.8333,5,5.0833,5.1667,5,0.16667,2.6667,2.6667,2.6667,2.6667,2.6667,2.6667,0,2.5,2.5,2.5,2.5,2.5,2.5,0,1,16
3,1731.8,1731.8,1731.8,1750.9,1770.1,1744.6,22.067,37910,37910,37911,37911,37912,37911,1,4.8333,4.8333,5,5.0833,5.1667,5,0.16667,2.6667,2.6667,2.6667,2.6667,2.6667,2.6667,0,2.5,2.5,2.5,2.5,2.5,2.5,0,1,17
3,1676.9,1676.9,1676.9,1692.7,1708.5,1687.5,18.257,37910,37910,37911,37911,37912,37911,1,4.8333,4.8333,5,5.0833,5.1667,5,0.16667,2.6667,2.6667,2.6667,2.6667,2.6667,2.6667,0,2.5,2.5,2.5,2.5,2.5,2.5,0,1,18
3,1627.8,1627.8,1627.8,1640.5,1653.2,1636.2,14.662,37910,37910,37911,37911,37912,37911,1,4.8333,4.8333,5,5.0833,5.1667,5,0.16667,2.6667,2.6667,2.6667,2.6667,2.6667,2.6667,0,2.5,2.5,2.5,2.5,2.5,2.5,0,1,19
3,1585.8,1585.8,1585.8,1594.8,1603.8,1591.8,10.388,37910,37910,37911,37911,37912,37911,1,4.8333,4.8333,5,5.0833,5.1667,5,0.16667,2.6667,2.6667,2.6667,2.6667,2.6667,2.6667,0,2.5,2.5,2.5,2.5,2.5,2.5,0,1,20
3,1561.1,1561.1,1561.1,1562.2,1563.3,1561.8,1.2679,37910,37910,37911,37911,37912,37911,1,4.8333,4.8333,5,5.0833,5.1667,5,0.16667,2.6667,2.6667,2.6667,2.6667,2.6667,2.6667,0,2.5,2.5,2.5,2.5,2.5,2.5,0,1,21
3,1558.4,1558.4,1558.4,1559.5,1560.5,1559.1,1.2625,37910,37910,37911,37911,37912,37911,1,4.8333,4.8333,5,5.0833,5.1667,5,0.16667,2.6667,2.6667,2.6667,2.6667,2.6667,2.6667,0,2.5,2.5,2.5,2.5,2.5,2.5,0,1,22
3,1555.6,1555.6,1555.6,1556.7,1557.8,1556.3,1.2394,37910,37910,37911,37911,37912,37911,1,4.8333,4.8333,5,5.0833,5.1667,5,0.16667,2.6667,2.6667,2.6667,2.6667,2.6667,2.6667,0,2.5,2.5,2.5,2.5,2.5,2.5,0,1,23
3,1552.8,1552.8,1552.8,1553.9,1555,1553.6,1.2651,37910,37910,37911,37911,37912,37911,1,4.8333,4.8333,5,5.0833,5.1667,5,0.16667,2.6667,2.6667,2.6667,2.6667,2.6667,2.6667,0,2.5,2.5,2.5,2.5,2.5,2.5,0,1,24
3,1550,1550,1550,1551.2,1552.3,1550.8,1.3437,37910,37910,37911,37911,37912,37911,1,4.8333,4.8333,5,5.0833,5.1667,5,0.16667,2.6667,2.6667,2.6667,2.6667,2.6667,2.6667,0,2.5,2.5,2.5,2.5,2.5,2.5,0,1,25
3,1547.1,1547.1,1547.1,1548.4,1549.6,1547.9,1.475,37910,37910,37911,37911,37912,37911,1,4.8333,4.8333,5,5.0833,5.1667,5,0.16667,2.6667,2.6667,2.6667,2.6667,2.6667,2.6667,0,2.5,2.5,2.5,2.5,2.5,2.5,0,1,26
3,1544.1,1544.1,1544.1,1545.6,1547,1545.1,1.6567,37910,37910,37911,37911,37912,37911,1,4.8333,4.8333,5,5.0833,5.1667,5,0.16667,2.6667,2.6667,2.6667,2.6667,2.6667,2.6667,0,2.5,2.5,2.5,2.5,2.5,2.5,0,1,27
3,1541.1,1541.1,1541.1,1542.7,1544.4,1542.2,1.9097,37910,37910,37911,37911,37912,37911,1,4.8333,4.8333,5,5.0833,5.1667,5,0.16667,2.6667,2.6667,2.6667,2.6667,2.6667,2.6667,0,2.5,2.5,2.5,2.5,2.5,2.5,0,1,28
3,1536.9,1536.9,1536.9,1539.3,1541.8,1538.5,2.8299,37910,37910,37911,37911,37912,37911,1,4.8333,4.8333,5,5.0833,5.1667,5,0.16667,2.6667,2.6667,2.6667,2.6667,2.6667,2.6667,0,2.5,2.5,2.5,2.5,2.5,2.5,0,1,29
3,1531.7,1531.7,1531.7,1535.4,1539.1,1534.1,4.2717,37910,37910,37911,37911,37912,37911,1,4.8333,4.8333,5,5.0833,5.1667,5,0.16667,2.6667,2.6667,2.6667,2.6667,2.6667,2.6667,0,2.5,2.5,2.5,2.5,2.5,2.5,0,1,30
3,1525.9,1525.9,1525.9,1531.1,1536.3,1529.4,5.9851,37910,37910,37911,37911,37912,37911,1,4.8333,4.8333,5,5.0833,5.1667,5,0.16667,2.6667,2.6667,2.6667,2.6667,2.6667,2.6667,0,2.5,2.5,2.5,2.5,2.5,2.5,0,1,31
3,1519.8,1519.8,1519.8,1526.6,1533.4,1524.3,7.8283,37910,37910,37911,37911,37912,37911,1,4.8333,4.8333,5,5.0833,5.1667,5,0.16667,2.6667,2.6667,2.6667,2.6667,2.6667,2.6667,0,2.5,2.5,2.5,2.5,2.5,2.5,0,1,32
3,1494.3,1494.3,1494.3,1512.3,1530.3,1506.3,20.754,37910,37910,37911,37911,37912,37911,1,4.8333,4.8333,5,5.0833,5.1667,5,0.16667,2.6667,2.6667,2.6667,2.6667,2.6667,2.6667,0,2.5,2.5,2.5,2.5,2.5,2.5,0,1,33
3,1441.8,1441.8,1441.8,1483.5,1525.1,1469.6,48.099,37910,37910,37911,37911,37912,37911,1,4.8333,4.8333,5,5.0833,5.1667,5,0.16667,2.6667,2.6667,2.6667,2.6667,2.6667,2.6667,0,2.5,2.5,2.5,2.5,2.5,2.5,0,1,34
3,1406.3,1406.3,1406.3,1462.3,1518.3,1443.6,64.664,37910,37910,37911,37911,37912,37911,1,4.8333,4.8333,5,5.0833,5.1667,5,0.16667,2.6667,2.6667,2.6667,2.6667,2.6667,2.6667,0,2.5,2.5,2.5,2.5,2.5,2.5,0,1,35
3,1376,1376,1376,1420.7,1465.4,1405.8,51.618,37910,37910,37911,37911,37912,37911,1,4.8333,4.8333,5,5.0833,5.1667,5,0.16667,2.6667,2.6667,2.6667,2.6667,2.6667,2.6667,0,2.5,2.5,2.5,2.5,2.5,2.5,0,1,36
3,1338.4,1338.4,1338.4,1368.8,1399.2,1358.7,35.099,37910,37910,37911,37911,37912,37911,1,4.8333,4.8333,5,5.0833,5.1667,5,0.16667,2.6667,2.6667,2.6667,2.6667,2.6667,2.6667,0,2.5,2.5,2.5,2.5,2.5,2.5,0,1,37
3,1299.9,1299.9,1299.9,1322.9,1345.9,1315.2,26.556,37910,37910,37911,37911,37912,37911,1,4.8333,4.8333,5,5.0833,5.1667,5,0.16667,2.6667,2.6667,2.6667,2.6667,2.6667,2.6667,0,2.5,2.5,2.5,2.5,2.5,2.5,0,1,38
3,1262.8,1262.8,1262.8,1281.6,1300.4,1275.3,21.735,37910,37910,37911,37911,37912,37911,1,4.8333,4.8333,5,5.0833,5.1667,5,0.16667,2.6667,2.6667,2.6667,2.6667,2.6667,2.6667,0,2.5,2.5,2.5,2.5,2.5,2.5,0,1,39
3,1227.7,1227.7,1227.7,1243.9,1260,1238.5,18.69,37910,37910,37911,37911,37912,37911,1,4.8333,4.8333,5,5.0833,5.1667,5,0.16667,2.6667,2.6667,2.6667,2.6667,2.6667,2.6667,0,2.5,2.5,2.5,2.5,2.5,2.5,0,1,40
3,1194.7,1194.7,1194.7,1209,1223.4,1204.2,16.567,37910,37910,37911,37911,37912,37911,1,4.8333,4.8333,5,5.0833,5.1667,5,0.16667,2.6667,2.6667,2.6667,2.6667,2.6667,2.6667,0,2.5,2.5,2.5,2.5,2.5,2.5,0,1,41
3,1163.7,1163.7,1163.7,1176.6,1189.6,1172.3,14.974,37910,37910,37911,37911,37912,37911,1,4.8333,4.8333,5,5.0833,5.1667,5,0.16667,2.6667,2.6667,2.6667,2.6667,2.6667,2.6667,0,2.5,2.5,2.5,2.5,2.5,2.5,0,1,42
3,1134.4,1134.4,1134.4,1146.3,1158.2,1142.4,13.712,37910,37910,37911,37911,37912,37911,1,4.8333,4.8333,5,5.0833,5.1667,5,0.16667,2.6667,2.6667,2.6667,2.6667,2.6667,2.6667,0,2.5,2.5,2.5,2.5,2.5,2.5,0,1,43
3,1106.8,1106.8,1106.8,1117.8,1128.8,1114.2,12.676,37910,37910,37911,37911,37912,37911,1,4.8333,4.8333,5,5.0833,5.1667,5,0.16667,2.6667,2.6667,2.6667,2.6667,2.6667,2.6667,0,2.5,2.5,2.5,2.5,2.5,2.5,0,1,44
3,1080.7,1080.7,1080.7,1090.9,1101.2,1087.5,11.802,37910,37910,37911,37911,37912,37911,1,4.8333,4.8333,5,5.0833,5.1667,5,0.16667,2.6667,2.6667,2.6667,2.6667,2.6667,2.6667,0,2.5,2.5,2.5,2.5,2.5,2.5,0,1,45
3,1055.9,1055.9,1055.9,1065.5,1075.1,1062.3,11.05,37910,37910,37911,37911,37912,37911,1,4.8333,4.8333,5,5.0833,5.1667,5,0.16667,2.6667,2.6667,2.6667,2.6667,2.6667,2.6667,0,2.5,2.5,2.5,2.5,2.5,2.5,0,1,46
3,1032.3,1032.3,1032.3,1041.3,1050.3,1038.3,10.392,37910,37910,37911,37911,37912,37911,1,4.8333,4.8333,5,5.0833,5.1667,5,0.16667,2.6667,2.6667,2.6667,2.6667,2.6667,2.6667,0,2.5,2.5,2.5,2.5,2.5,2.5,0,1,47
3,1009.9,1009.9,1009.9,1018.4,1026.9,1015.5,9.8108,37910,37910,37911,37911,37912,37911,1,4.8333,4.8333,5,5.0833,5.1667,5,0.16667,2.6667,2.6667,2.6667,2.6667,2.6667,2.6667,0,2.5,2.5,2.5,2.5,2.5,2.5,0,1,48
3,988.42,988.42,988.42,996.47,1004.5,993.79,9.2915,37910,37910,37911,37911,37912,37911,1,4.8333,4.8333,5,5.0833,5.1667,5,0.16667,2.6667,2.6667,2.6667,2.6667,2.6667,2.6667,0,2.5,2.5,2.5,2.5,2.5,2.5,0,1,49
3,967.92,967.92,967.92,975.57,983.21,973.02,8.8238,37910,37910,37911,37911,37912,37911,1,4.8333,4.8333,5,5.0833,5.1667,5,0.16667,2.6667,2.6667,2.6667,2.6667,2.6667,2.6667,0,2.5,2.5,2.5,2.5,2.5,2.5,0,1,50
3,948.3,948.3,948.3,955.58,962.85,953.15,8.3997,37910,37910,37911,37911,37912,37911,1,4.8333,4.8333,5,5.0833,5.1667,5,0.16667,2.6667,2.6667,2.6667,2.6667,2.6667,2.6667,0,2.5,2.5,2.5,2.5,2.5,2.5,0,1,51
3,929.49,929.49,929.49,936.43,943.37,934.12,8.0127,37910,37910,37911,37911,37912,37911,1,4.8333,4.8333,5,5.0833,5.1667,5,0.16667,2.6667,2.6667,2.6667,2.6667,2.6667,2.6667,0,2.5,2.5,2.5,2.5,2.5,2.5,0,1,52
3,911.44,911.44,911.44,918.07,924.71,915.86,7.6578,37910,37910,37911,37911,37912,37911,1,4.8333,4.8333,5,5.0833,5.1667,5,0.16667,2.6667,2.6667,2.6667,2.6667,2.6667,2.6667,0,2.5,2.5,2.5,2.5,2.5,2.5,0,1,53
3,894.1,894.1,894.1,900.45,906.8,898.33,7.3309,37910,37910,37911,37911,37912,37911,1,4.8333,4.8333,5,5.0833,5.1667,5,0.16667,2.6667,2.6667,2.6667,2.6667,2.6667,2.6667,0,2.5,2.5,2.5,2.5,2.5,2.5,0,1,54
3,877.42,877.42,877.42,883.5,889.59,881.48,7.0285,37910,37910,37911,37911,37912,37911,1,4.8333,4.8333,5,5.0833,5.1667,5,0.16667,2.6667,2.6667,2.6667,2.6667,2.6667,2.6667,0,2.5,2.5,2.5,2.5,2.5,2.5,0,1,55
3,861.36,861.36,861.36,867.2,873.05,865.25,6.7479,37910,37910,37911,37911,37912,37911,1,4.8333,4.8333,5,5.0833,5.1667,5,0.16667,2.6667,2.6667,2.6667,2.6667,2.6667,2.6667,0,2.5,2.5,2.5,2.5,2.5,2.5,0,1,56
3,845.88,845.88,845.88,851.5,857.12,849.63,6.4865,37910,37910,37911,37911,37912,37911,1,4.8333,4.8333,5,5.0833,5.1667,5,0.16667,2.6667,2.6667,2.6667,2.6667,2.6667,2.6667,0,2.5,2.5,2.5,2.5,2.5,2.5,0,1,57
3,830.95,830.95,830.95,836.36,841.77,834.56,6.2424,37910,37910,37911,37911,37912,37911,1,4.8333,4.8333,5,5.0833,5.1667,5,0.16667,2.6667,2.6667,2.6667,2.6667,2.6667,2.6667,0,2.5,2.5,2.5,2.5,2.5,2.5,0,1,58
3,816.54,816.54,816.54,821.75,826.96,820.02,6.0139,37910,37910,37911,37911,37912,37911,1,4.8333,4.8333,5,5.0833,5.1667,5,0.16667,2.6667,2.6667,2.6667,2.6667,2.6667,2.6667,0,2.5,2.5,2.5,2.5,2.5,2.5,0,1,59
3,802.62,802.62,802.62,807.65,812.67,805.97,5.7994,37910,37910,37911,37911,37912,37911,1,4.8333,4.8333,5,5.0833,5.1667,5,0.16667,2.6667,2.6667,2.6667,2.6667,2.6667,2.6667,0,2.5,2.5,2.5,2.5,2.5,2.5,0,1,60
3,789.17,789.17,789.17,794.01,798.86,792.4,5.5977,37910,37910,37911,37911,37912,37911,1,4.8333,4.8333,5,5.0833,5.1667,5,0.16667,2.6667,2.6667,2.6667,2.6667,2.6667,2.6667,0,2.5,2.5,2.5,2.5,2.5,2.5,0,1,61
3,776.15,776.15,776.15,780.83,785.51,779.27,5.4076,37910,37910,37911,37911,37912,37911,1,4.8333,4.8333,5,5.0833,5.1667,5,0.16667,2.6667,2.6667,2.6667,2.6667,2.6667,2.6667,0,2.5,2.5,2.5,2.5,2.5,2.5,0,1,62
3,763.54,763.54,763.54,768.07,772.6,766.56,5.228,37910,37910,37911,37911,37912,37911,1,4.8333,4.8333,5,5.0833,5.1667,5,0.16667,2.6667,2.6667,2.6667,2.6667,2.6667,2.6667,0,2.5,2.5,2.5,2.5,2.5,2.5,0,1,63
3,751.33,751.33,751.33,755.71,760.09,754.25,5.0582,37910,37910,37911,37911,37912,37911,1,4.8333,4.8333,5,5.0833,5.1667,5,0.16667,2.6667,2.6667,2.6667,2.6667,2.6667,2.6667,0,2.5,2.5,2.5,2.5,2.5,2.5,0,1,64
3,739.49,739.49,739.49,743.74,747.98,742.32,4.8974,37910,37910,37911,37911,37912,37911,1,4.8333,4.8333,5,5.0833,5.1667,5,0.16667,2.6667,2.6667,2.6667,2.6667,2.6667,2.6667,0,2.5,2.5,2.5,2.5,2.5,2.5,0,1,65
3,728.01,728.01,728.01,732.12,736.23,730.75,4.7448,37910,37910,37911,37911,37912,37911,1,4.8333,4.8333,5,5.0833,5.1667,5,0.16667,2.6667,2.6667,2.6667,2.6667,2.6667,2.6667,0,2.5,2.5,2.5,2.5,2.5,2.5,0,1,66
3,716.87,716.87,716.87,720.86,724.84,719.53,4.5998,37910,37910,37911,37911,37912,37911,1,4.8333,4.8333,5,5.0833,5.1667,5,0.16667,2.6667,2.6667,2.6667,2.6667,2.6667,2.6667,0,2.5,2.5,2.5,2.5,2.5,2.5,0,1,67
3,706.05,706.05,706.05,709.92,713.78,708.63,4.4619,37910,37910,37911,37911,37912,37911,1,4.8333,4.8333,5,5.0833,5.1667,5,0.16667,2.6667,2.6667,2.6667,2.6667,2.6667,2.6667,0,2.5,2.5,2.5,2.5,2.5,2.5,0,1,68
3,695.54,695.54,695.54,699.29,703.04,698.04,4.3305,37910,37910,37911,37911,37912,37911,1,4.8333,4.8333,5,5.0833,5.1667,5,0.16667,2.6667,2.6667,2.6667,2.6667,2.6667,2.6667,0,2.5,2.5,2.5,2.5,2.5,2.5,0,1,69
3,685.33,685.33,685.33,688.97,692.61,687.76,4.2053,37910,37910,37911,37911,37912,37911,1,4.8333,4.8333,5,5.0833,5.1667,5,0.16667,2.6667,2.6667,2.6667,2.6667,2.6667,2.6667,0,2.5,2.5,2.5,2.5,2.5,2.5,0,1,70
3,675.39,675.39,675.39,678.93,682.47,677.75,4.0857,37910,37910,37911,37911,37912,37911,1,4.8333,4.8333,5,5.0833,5.1667,5,0.16667,2.6667,2.6667,2.6667,2.6667,2.6667,2.6667,0,2.5,2.5,2.5,2.5,2.5,2.5,0,1,71
3,665.73,665.73,665.73,669.17,672.61,668.02,3.9715,37910,37910,37911,37911,37912,37911,1,4.8333,4.8333,5,5.0833,5.1667,5,0.16667,2.6667,2.6667,2.6667,2.6667,2.6667,2.6667,0,2.5,2.5,2.5,2.5,2.5,2.5,0,1,72
3,656.32,656.32,656.32,659.66,663.01,658.55,3.8623,37910,37910,37911,37911,37912,37911,1,4.8333,4.8333,5,5.0833,5.1667,5,0.16667,2.6667,2.6667,2.6667,2.6667,2.6667,2.6667,0,2.5,2.5,2.5,2.5,2.5,2.5,0,1,73
3,647.16,647.16,647.16,650.41,653.67,649.33,3.7577,37910,37910,37911,37911,37912,37911,1,4.8333,4.8333,5,5.0833,5.1667,5,0.16667,2.6667,2.6667,2.6667,2.6667,2.6667,2.6667,0,2.5,2.5,2.5,2.5,2.5,2.5,0,1,74
3,638.23,638.23,638.23,641.4,644.57,640.34,3.6574,37910,37910,37911,37911,37912,37911,1,4.8333,4.8333,5,5.0833,5.1667,5,0.16667,2.6667,2.6667,2.6667,2.6667,2.6667,2.6667,0,2.5,2.5,2.5,2.5,2.5,2.5,0,1,75
3,629.53,629.53,629.53,632.62,635.7,631.59,3.5614,37910,37910,37911,37911,37912,37911,1,4.8333,4.8333,5,5.0833,5.1667,5,0.16667,2.6667,2.6667,2.6667,2.6667,2.6667,2.6667,0,2.5,2.5,2.5,2.5,2.5,2.5,0,1,76
3,621.05,621.05,621.05,624.05,627.06,623.05,3.4691,37910,37910,37911,37911,37912,37911,1,4.8333,4.8333,5,5.0833,5.1667,5,0.16667,2.6667,2.6667,2.6667,2.6667,2.6667,2.6667,0,2.5,2.5,2.5,2.5,2.5,2.5,0,1,77
3,612.78,612.78,612.78,615.71,618.63,614.73,3.3806,37910,37910,37911,37911,37912,37911,1,4.8333,4.8333,5,5.0833,5.1667,5,0.16667,2.6667,2.6667,2.6667,2.6667,2.6667,2.6667,0,2.5,2.5,2.5,2.5,2.5,2.5,0,1,78
3,604.71,604.71,604.71,607.56,610.41,606.61,3.2954,37910,37910,37911,37911,37912,37911,1,4.8333,4.8333,5,5.0833,5.1667,5,0.16667,2.6667,2.6667,2.6667,2.6667,2.6667,2.6667,0,2.5,2.5,2.5,2.5,2.5,2.5,0,1,79
3,596.83,596.83,596.83,599.61,602.39,598.68,3.2136,37910,37910,37911,37911,37912,37911,1,4.8333,4.8333,5,5.0833,5.1667,5,0.16667,2.6667,2.6667,2.6667,2.6667,2.6667,2.6667,0,2.5,2.5,2.5,2.5,2.5,2.5,0,1,80
3,589.13,589.13,589.13,591.85,594.56,590.94,3.1348,37910,37910,37911,37911,37912,37911,1,4.8333,4.8333,5,5.0833,5.1667,5,0.16667,2.6667,2.6667,2.6667,2.6667,2.6667,2.6667,0,2.5,2.5,2.5,2.5,2.5,2.5,0,1,81
3,581.62,581.62,581.62,584.27,586.92,583.39,3.0589,37910,37910,37911,37911,37912,37911,1,4.8333,4.8333,5,5.0833,5.1667,5,0.16667,2.6667,2.6667,2.6667,2.6667,2.6667,2.6667,0,2.5,2.5,2.5,2.5,2.5,2.5,0,1,82
3,574.28,574.28,574.28,576.86,579.45,576,2.9858,37910,37910,37911,37911,37912,37911,1,4.8333,4.8333,5,5.0833,5.1667,5,0.16667,2.6667,2.6667,2.6667,2.6667,2.6667,2.6667,0,2.5,2.5,2.5,2.5,2.5,2.5,0,1,83
3,567.1,567.1,567.1,569.63,572.15,568.78,2.9153,37910,37910,37911,37911,37912,37911,1,4.8333,4.8333,5,5.0833,5.1667,5,0.16667,2.6667,2.6667,2.6667,2.6667,2.6667,2.6667,0,2.5,2.5,2.5,2.5,2.5,2.5,0,1,84
3,560.08,560.08,560.08,562.55,565.02,561.73,2.8473,37910,37910,37911,37911,37912,37911,1,4.8333,4.8333,5,5.0833,5.1667,5,0.16667,2.6667,2.6667,2.6667,2.6667,2.6667,2.6667,0,2.5,2.5,2.5,2.5,2.5,2.5,0,1,85
3,553.22,553.22,553.22,555.63,558.04,554.83,2.7817,37910,37910,37911,37911,37912,37911,1,4.8333,4.8333,5,5.0833,5.1667,5,0.16667,2.6667,2.6667,2.6667,2.6667,2.6667,2.6667,0,2.5,2.5,2.5,2.5,2.5,2.5,0,1,86
3,546.51,546.51,546.51,548.86,551.22,548.08,2.7183,37910,37910,37911,37911,37912,37911,1,4.8333,4.8333,5,5.0833,5.1667,5,0.16667,2.6667,2.6667,2.6667,2.6667,2.6667,2.6667,0,2.5,2.5,2.5,2.5,2.5,2.5,0,1,87
3,539.94,539.94,539.94,542.24,544.54,541.47,2.6571,37910,37910,37911,37911,37912,37911,1,4.8333,4.8333,5,5.0833,5.1667,5,0.16667,2.6667,2.6667,2.6667,2.6667,2.6667,2.6667,0,2.5,2.5,2.5,2.5,2.5,2.5,0,1,88
3,533.51,533.51,533.51,535.76,538.01,535.01,2.5979,37910,37910,37911,37911,37912,37911,1,4.8333,4.8333,5,5.0833,5.1667,5,0.16667,2.6667,2.6667,2.6667,2.6667,2.6667,2.6667,0,2.5,2.5,2.5,2.5,2.5,2.5,0,1,89
3,527.21,527.21,527.21,529.41,531.61,528.68,2.5407,37910,37910,37911,37911,37912,37911,1,4.8333,4.8333,5,5.0833,5.1667,5,0.16667,2.6667,2.6667,2.6667,2.6667,2.6667,2.6667,0,2.5,2.5,2.5,2.5,2.5,2.5,0,1,90
3,521.05,521.05,521.05,523.2,525.35,522.48,2.4853,37910,37910,37911,37911,37912,37911,1,4.8333,4.8333,5,5.0833,5.1667,5,0.16667,2.6667,2.6667,2.6667,2.6667,2.6667,2.6667,0,2.5,2.5,2.5,2.5,2.5,2.5,0,1,91
3,515.01,515.01,515.01,517.11,519.22,516.41,2.4317,37910,37910,37911,37911,37912,37911,1,4.8333,4.8333,5,5.0833,5.1667,5,0.16667,2.6667,2.6667,2.6667,2.6667,2.6667,2.6667,0,2.5,2.5,2.5,2.5,2.5,2.5,0,1,92
3,509.09,509.09,509.09,511.15,513.21,510.46,2.3797,37910,37910,37911,37911,37912,37911,1,4.8333,4.8333,5,5.0833,5.1667,5,0.16667,2.6667,2.6667,2.6667,2.6667,2.6667,2.6667,0,2.5,2.5,2.5,2.5,2.5,2.5,0,1,93
3,503.28,503.28,503.28,505.3,507.32,504.63,2.3294,37910,37910,37911,37911,37912,37911,1,4.8333,4.8333,5,5.0833,5.1667,5,0.16667,2.6667,2.6667,2.6667,2.6667,2.6667,2.6667,0,2.5,2.5,2.5,2.5,2.5,2.5,0,1,94
3,497.6,497.6,497.6,499.57,501.55,498.91,2.2807,37910,37910,37911,37911,37912,37911,1,4.8333,4.8333,5,5.0833,5.1667,5,0.16667,2.6667,2.6667,2.6667,2.6667,2.6667,2.6667,0,2.5,2.5,2.5,2.5,2.5,2.5,0,1,95
3,492.02,492.02,492.02,493.95,495.89,493.31,2.2334,37910,37910,37911,37911,37912,37911,1,4.8333,4.8333,5,5.0833,5.1667,5,0.16667,2.6667,2.6667,2.6667,2.6667,2.6667,2.6667,0,2.5,2.5,2.5,2.5,2.5,2.5,0,1,96
3,486.55,486.55,486.55,488.44,490.34,487.81,2.1876,37910,37910,37911,37911,37912,37911,1,4.8333,4.8333,5,5.0833,5.1667,5,0.16667,2.6667,2.6667,2.6667,2.6667,2.6667,2.6667,0,2.5,2.5,2.5,2.5,2.5,2.5,0,1,97
3,481.18,481.18,481.18,483.04,484.89,482.42,2.1431,37910,37910,37911,37911,37912,37911,1,4.8333,4.8333,5,5.0833,5.1667,5,0.16667,2.6667,2.6667,2.6667,2.6667,2.6667,2.6667,0,2.5,2.5,2.5,2.5,2.5,2.5,0,1,98
3,475.91,475.91,475.91,477.73,479.55,477.13,2.1,37910,37910,37911,37911,37912,37911,1,4.8333,4.8333,5,5.0833,5.1667,5,0.16667,2.6667,2.6667,2.6667,2.6667,2.6667,2.6667,0,2.5,2.5,2.5,2.5,2.5,2.5,0,1,99
3,470.74,470.74,470.74,472.53,474.31,471.93,2.0581,37910,37910,37911,37911,37912,37911,1,4.8333,4.8333,5,5.0833,5.1667,5,0.16667,2.6667,2.6667,2.6667,2.6667,2.6667,2.6667,0,2.5,2.5,2.5,2.5,2.5,2.5,0,1,100
3,465.67,465.67,465.67,467.42,469.16,466.83,2.0174,37910,37910,37911,37911,37912,37911,1,4.8333,4.8333,5,5.0833,5.1667,5,0.16667,2.6667,2.6667,2.6667,2.6667,2.6667,2.6667,0,2.5,2.5,2.5,2.5,2.5,2.5,0,1,101
3,460.69,460.69,460.69,462.4,464.11,461.83,1.9778,37910,37910,37911,37911,37912,37911,1,4.8333,4.8333,5,5.0833,5.1667,5,0.16667,2.6667,2.6667,2.6667,2.6667,2.6667,2.6667,0,2.5,2.5,2.5,2.5,2.5,2.5,0,1,102
3,455.79,455.79,455.79,457.47,459.15,456.91,1.9394,37910,37910,37911,37911,37912,37911,1,4.8333,4.8333,5,5.0833,5.1667,5,0.16667,2.6667,2.6667,2.6667,2.6667,2.6667,2.6667,0,2.5,2.5,2.5,2.5,2.5,2.5,0,1,103
3,450.99,450.99,450.99,452.63,454.28,452.08,1.902,37910,37910,37911,37911,37912,37911,1,4.8333,4.8333,5,5.0833,5.1667,5,0.16667,2.6667,2.6667,2.6667,2.6667,2.6667,2.6667,0,2.5,2.5,2.5,2.5,2.5,2.5,0,1,104
3,446.26,446.26,446.26,447.88,449.5,447.34,1.8657,37910,37910,37911,37911,37912,37911,1,4.8333,4.8333,5,5.0833,5.1667,5,0.16667,2.6667,2.6667,2.6667,2.6667,2.6667,2.6667,0,2.5,2.5,2.5,2.5,2.5,2.5,0,1,105
3,441.62,441.62,441.62,443.21,444.79,442.68,1.8303,37910,37910,37911,37911,37912,37911,1,4.8333,4.8333,5,5.0833,5.1667,5,0.16667,2.6667,2.6667,2.6667,2.6667,2.6667,2.6667,0,2.5,2.5,2.5,2.5,2.5,2.5,0,1,106
3,437.06,437.06,437.06,438.62,440.17,438.1,1.7959,37910,37910,37911,37911,37912,37911,1,4.8333,4.8333,5,5.0833,5.1667,5,0.16667,2.6667,2.6667,2.6667,2.6667,2.6667,2.6667,0,2.5,2.5,2.5,2.5,2.5,2.5,0,1,107
3,432.58,432.58,432.58,434.1,435.63,433.6,1.7625,37910,37910,37911,37911,37912,37911,1,4.8333,4.8333,5,5.0833,5.1667,5,0.16667,2.6667,2.6667,2.6667,2.6667,2.6667,2.6667,0,2.5,2.5,2.5,2.5,2.5,2.5,0,1,108
3,428.17,428.17,428.17,429.67,431.17,429.17,1.7299,37910,37910,37911,37911,37912,37911,1,4.8333,4.8333,5,5.0833,5.1667,5,0.16667,2.6667,2.6667,2.6667,2.6667,2.6667,2.6667,0,2.5,2.5,2.5,2.5,2.5,2.5,0,1,109
3,423.83,423.83,423.83,425.31,426.78,424.82,1.6981,37910,37910,37911,37911,37912,37911,1,4.8333,4.8333,5,5.0833,5.1667,5,0.16667,2.6667,2.6667,2.6667,2.6667,2.6667,2.6667,0,2.5,2.5,2.5,2.5,2.5,2.5,0,1,110
3,419.57,419.57,419.57,421.01,422.46,420.53,1.6672,37910,37910,37911,37911,37912,37911,1,4.8333,4.8333,5,5.0833,5.1667,5,0.16667,2.6667,2.6667,2.6667,2.6667,2.6667,2.6667,0,2.5,2.5,2.5,2.5,2.5,2.5,0,1,111
3,415.38,415.38,415.38,416.79,418.21,416.32,1.6371,37910,37910,37911,37911,37912,37911,1,4.8333,4.8333,5,5.0833,5.1667,5,0.16667,2.6667,2.6667,2.6667,2.6667,2.6667,2.6667,0,2.5,2.5,2.5,2.5,2.5,2.5,0,1,112
3,411.25,411.25,411.25,412.64,414.03,412.18,1.6078,37910,37910,37911,37911,37912,37911,1,4.8333,4.8333,5,5.0833,5.1667,5,0.16667,2.6667,2.6667,2.6667,2.6667,2.6667,2.6667,0,2.5,2.5,2.5,2.5,2.5,2.5,0,1,113
3,407.19,407.19,407.19,408.56,409.92,408.1,1.5791,37910,37910,37911,37911,37912,37911,1,4.8333,4.8333,5,5.0833,5.1667,5,0.16667,2.6667,2.6667,2.6667,2.6667,2.6667,2.6667,0,2.5,2.5,2.5,2.5,2.5,2.5,0,1,114
3,403.19,403.19,403.19,404.54,405.88,404.09,1.5512,37910,37910,37911,37911,37912,37911,1,4.8333,4.8333,5,5.0833,5.1667,5,0.16667,2.6667,2.6667,2.6667,2.6667,2.6667,2.6667,0,2.5,2.5,2.5,2.5,2.5,2.5,0,1,115
3,399.26,399.26,399.26,400.58,401.9,400.14,1.524,37910,37910,37911,37911,37912,37911,1,4.8333,4.8333,5,5.0833,5.1667,5,0.16667,2.6667,2.6667,2.6667,2.6667,2.6667,2.6667,0,2.5,2.5,2.5,2.5,2.5,2.5,0,1,116
3,395.39,395.39,395.39,396.68,397.98,396.25,1.4975,37910,37910,37911,37911,37912,37911,1,4.8333,4.8333,5,5.0833,5.1667,5,0.16667,2.6667,2.6667,2.6667,2.6667,2.6667,2.6667,0,2.5,2.5,2.5,2.5,2.5,2.5,0,1,117
3,391.57,391.57,391.57,392.85,394.12,392.42,1.4716,37910,37910,37911,37911,37912,37911,1,4.8333,4.8333,5,5.0833,5.1667,5,0.16667,2.6667,2.6667,2.6667,2.6667,2.6667,2.6667,0,2.5,2.5,2.5,2.5,2.5,2.5,0,1,118
3,387.82,387.82,387.82,389.07,390.32,388.65,1.4463,37910,37910,37911,37911,37912,37911,1,4.8333,4.8333,5,5.0833,5.1667,5,0.16667,2.6667,2.6667,2.6667,2.6667,2.6667,2.6667,0,2.5,2.5,2.5,2.5,2.5,2.5,0,1,119
3,384.12,384.12,384.12,385.35,386.58,384.94,1.4216,37910,37910,37911,37911,37912,37911,1,4.8333,4.8333,5,5.0833,5.1667,5,0.16667,2.6667,2.6667,2.6667,2.6667,2.6667,2.6667,0,2.5,2.5,2.5,2.5,2.5,2.5,0,1,120
3,380.48,380.48,380.48,381.69,382.9,381.28,1.3975,37910,37910,37911,37911,37912,37911,1,4.8333,4.8333,5,5.0833,5.1667,5,0.16667,2.6667,2.6667,2.6667,2.6667,2.6667,2.6667,0,2.5,2.5,2.5,2.5,2.5,2.5,0,1,121
3,376.89,376.89,376.89,378.08,379.27,377.68,1.374,37910,37910,37911,37911,37912,37911,1,4.8333,4.8333,5,5.0833,5.1667,5,0.16667,2.6667,2.6667,2.6667,2.6667,2.6667,2.6667,0,2.5,2.5,2.5,2.5,2.5,2.5,0,1,122
3,373.35,373.35,373.35,374.52,375.69,374.13,1.351,37910,37910,37911,37911,37912,37911,1,4.8333,4.8333,5,5.0833,5.1667,5,0.16667,2.6667,2.6667,2.6667,2.6667,2.6667,2.6667,0,2.5,2.5,2.5,2.5,2.5,2.5,0,1,123
3,369.86,369.86,369.86,371.02,372.17,370.63,1.3286,37910,37910,37911,37911,37912,37911,1,4.8333,4.8333,5,5.0833,5.1667,5,0.16667,2.6667,2.6667,2.6667,2.6667,2.6667,2.6667,0,2.5,2.5,2.5,2.5,2.5,2.5,0,1,124
3,366.43,366.43,366.43,367.56,368.69,367.18,1.3066,37910,37910,37911,37911,37912,37911,1,4.8333,4.8333,5,5.0833,5.1667,5,0.16667,2.6667,2.6667,2.6667,2.6667,2.6667,2.6667,0,2.5,2.5,2.5,2.5,2.5,2.5,0,1,125
3,363.04,363.04,363.04,364.16,365.27,363.79,1.2852,37910,37910,37911,37911,37912,37911,1,4.8333,4.8333,5,5.0833,5.1667,5,0.16667,2.6667,2.6667,2.6667,2.6667,2.6667,2.6667,0,2.5,2.5,2.5,2.5,2.5,2.5,0,1,126
3,359.71,359.71,359.71,360.8,361.9,360.44,1.2643,37910,37910,37911,37911,37912,37911,1,4.8333,4.8333,5,5.0833,5.1667,5,0.16667,2.6667,2.6667,2.6667,2.6667,2.6667,2.6667,0,2.5,2.5,2.5,2.5,2.5,2.5,0,1,127
3,356.42,356.42,356.42,357.49,358.57,357.13,1.2438,37910,37910,37911,37911,37912,37911,1,4.8333,4.8333,5,5.0833,5.1667,5,0.16667,2.6667,2.6667,2.6667,2.6667,2.6667,2.6667,0,2.5,2.5,2.5,2.5,2.5,2.5,0,1,128
3,353.17,353.17,353.17,354.23,355.29,353.88,1.2237,37910,37910,37911,37911,37912,37911,1,4.8333,4.8333,5,5.0833,5.1667,5,0.16667,2.6667,2.6667,2.6667,2.6667,2.6667,2.6667,0,2.5,2.5,2.5,2.5,2.5,2.5,0,1,129
3,349.97,349.97,349.97,351.01,352.06,350.67,1.2042,37910,37910,37911,37911,37912,37911,1,4.8333,4.8333,5,5.0833,5.1667,5,0.16667,2.6667,2.6667,2.6667,2.6667,2.6667,2.6667,0,2.5,2.5,2.5,2.5,2.5,2.5,0,1,130
3,346.82,346.82,346.82,347.84,348.87,347.5,1.185,37910,37910,37911,37911,37912,37911,1,4.8333,4.8333,5,5.0833,5.1667,5,0.16667,2.6667,2.6667,2.6667,2.6667,2.6667,2.6667,0,2.5,2.5,2.5,2.5,2.5,2.5,0,1,131
3,343.7,343.7,343.7,344.71,345.72,344.38,1.1663,37910,37910,37911,37911,37912,37911,1,4.8333,4.8333,5,5.0833,5.1667,5,0.16667,2.6667,2.6667,2.6667,2.6667,2.6667,2.6667,0,2.5,2.5,2.5,2.5,2.5,2.5,0,1,132
3,340.63,340.63,340.63,341.63,342.62,341.29,1.1479,37910,37910,37911,37911,37912,37911,1,4.8333,4.8333,5,5.0833,5.1667,5,0.16667,2.6667,2.6667,2.6667,2.6667,2.6667,2.6667,0,2.5,2.5,2.5,2.5,2.5,2.5,0,1,133
3,337.6,337.6,337.6,338.58,339.56,338.25,1.13,37910,37910,37911,37911,37912,37911,1,4.8333,4.8333,5,5.0833,5.1667,5,0.16667,2.6667,2.6667,2.6667,2.6667,2.6667,2.6667,0,2.5,2.5,2.5,2.5,2.5,2.5,0,1,134
3,334.61,334.61,334.61,335.58,336.54,335.25,1.1124,37910,37910,37911,37911,37912,37911,1,4.8333,4.8333,5,5.0833,5.1667,5,0.16667,2.6667,2.6667,2.6667,2.6667,2.6667,2.6667,0,2.5,2.5,2.5,2.5,2.5,2.5,0,1,135
3,331.66,331.66,331.66,332.61,333.56,332.29,1.0952,37910,37910,37911,37911,37912,37911,1,4.8333,4.8333,5,5.0833,5.1667,5,0.16667,2.6667,2.6667,2.6667,2.6667,2.6667,2.6667,0,2.5,2.5,2.5,2.5,2.5,2.5,0,1,136
3,328.75,328.75,328.75,329.68,330.62,329.37,1.0783,37910,37910,37911,37911,37912,37911,1,4.8333,4.8333,5,5.0833,5.1667,5,0.16667,2.6667,2.6667,2.6667,2.6667,2.6667,2.6667,0,2.5,2.5,2.5,2.5,2.5,2.5,0,1,137
3,325.88,325.88,325.88,326.8,327.72,326.49,1.0619,37910,37910,37911,37911,37912,37911,1,4.8333,4.8333,5,5.0833,5.1667,5,0.16667,2.6667,2.6667,2.6667,2.6667,2.6667,2.6667,0,2.5,2.5,2.5,2.5,2.5,2.5,0,1,138
3,323.04,323.04,323.04,323.95,324.85,323.64,1.0457,37910,37910,37911,37911,37912,37911,1,4.8333,4.8333,5,5.0833,5.1667,5,0.16667,2.6667,2.6667,2.6667,2.6667,2.6667,2.6667,0,2.5,2.5,2.5,2.5,2.5,2.5,0,1,139
3,320.24,320.24,320.24,321.13,322.02,320.83,1.0299,37910,37910,37911,37911,37912,37911,1,4.8333,4.8333,5,5.0833,5.1667,5,0.16667,2.6667,2.6667,2.6667,2.6667,2.6667,2.6667,0,2.5,2.5,2.5,2.5,2.5,2.5,0,1,140
3,317.48,317.48,317.48,318.35,319.23,318.06,1.0144,37910,37910,37911,37911,37912,37911,1,4.8333,4.8333,5,5.0833,5.1667,5,0.16667,2.6667,2.6667,2.6667,2.6667,2.6667,2.6667,0,2.5,2.5,2.5,2.5,2.5,2.5,0,1,141
3,314.75,314.75,314.75,315.61,316.48,315.32,0.9992,37910,37910,37911,37911,37912,37911,1,4.8333,4.8333,5,5.0833,5.1667,5,0.16667,2.6667,2.6667,2.6667,2.6667,2.6667,2.6667,0,2.5,2.5,2.5,2.5,2.5,2.5,0,1,142
3,312.05,312.05,312.05,312.9,313.75,312.62,0.98431,37910,37910,37911,37911,37912,37911,1,4.8333,4.8333,5,5.0833,5.1667,5,0.16667,2.6667,2.6667,2.6667,2.6667,2.6667,2.6667,0,2.5,2.5,2.5,2.5,2.5,2.5,0,1,143
3,309.39,309.39,309.39,310.23,311.07,309.95,0.96973,37910,37910,37911,37911,37912,37911,1,4.8333,4.8333,5,5.0833,5.1667,5,0.16667,2.6667,2.6667,2.6667,2.6667,2.6667,2.6667,0,2.5,2.5,2.5,2.5,2.5,2.5,0,1,144
3,306.76,306.76,306.76,307.59,308.41,307.31,0.95543,37910,37910,37911,37911,37912,37911,1,4.8333,4.8333,5,5.0833,5.1667,5,0.16667,2.6667,2.6667,2.6667,2.6667,2.6667,2.6667,0,2.5,2.5,2.5,2.5,2.5,2.5,0,1,145
3,304.16,304.16,304.16,304.98,305.79,304.7,0.94141,37910,37910,37911,37911,37912,37911,1,4.8333,4.8333,5,5.0833,5.1667,5,0.16667,2.6667,2.6667,2.6667,2.6667,2.6667,2.6667,0,2.5,2.5,2.5,2.5,2.5,2.5,0,1,146
3,301.59,301.59,301.59,302.4,303.2,302.13,0.92767,37910,37910,37911,37911,37912,37911,1,4.8333,4.8333,5,5.0833,5.1667,5,0.16667,2.6667,2.6667,2.6667,2.6667,2.6667,2.6667,0,2.5,2.5,2.5,2.5,2.5,2.5,0,1,147
3,299.06,299.06,299.06,299.85,300.64,299.59,0.9142,37910,37910,37911,37911,37912,37911,1,4.8333,4.8333,5,5.0833,5.1667,5,0.16667,2.6667,2.6667,2.6667,2.6667,2.6667,2.6667,0,2.5,2.5,2.5,2.5,2.5,2.5,0,1,148
3,296.56,296.56,296.56,297.34,298.12,297.08,0.90098,37910,37910,37911,37911,37912,37911,1,4.8333,4.8333,5,5.0833,5.1667,5,0.16667,2.6667,2.6667,2.6667,2.6667,2.6667,2.6667,0,2.5,2.5,2.5,2.5,2.5,2.5,0,1,149
3,294.08,294.08,294.08,294.85,295.62,294.59,0.88802,37910,37910,37911,37911,37912,37911,1,4.8333,4.8333,5,5.0833,5.1667,5,0.16667,2.6667,2.6667,2.6667,2.6667,2.6667,2.6667,0,2.5,2.5,2.5,2.5,2.5,2.5,0,1,150
3,291.64,291.64,291.64,292.4,293.15,292.14,0.8753,37910,37910,37911,37911,37912,37911,1,4.8333,4.8333,5,5.0833,5.1667,5,0.16667,2.6667,2.6667,2.6667,2.6667,2.6667,2.6667,0,2.5,2.5,2.5,2.5,2.5,2.5,0,1,151
3,289.22,289.22,289.22,289.97,290.72,289.72,0.86283,37910,37910,37911,37911,37912,37911,1,4.8333,4.8333,5,5.0833,5.1667,5,0.16667,2.6667,2.6667,2.6667,2.6667,2.6667,2.6667,0,2.5,2.5,2.5,2.5,2.5,2.5,0,1,152
3,286.83,286.83,286.83,287.57,288.31,287.32,0.85059,37910,37910,37911,37911,37912,37911,1,4.8333,4.8333,5,5.0833,5.1667,5,0.16667,2.6667,2.6667,2.6667,2.6667,2.6667,2.6667,0,2.5,2.5,2.5,2.5,2.5,2.5,0,1,153
3,284.47,284.47,284.47,285.2,285.93,284.96,0.83858,37910,37910,37911,37911,37912,37911,1,4.8333,4.8333,5,5.0833,5.1667,5,0.16667,2.6667,2.6667,2.6667,2.6667,2.6667,2.6667,0,2.5,2.5,2.5,2.5,2.5,2.5,0,1,154
3,282.14,282.14,282.14,282.86,283.57,282.62,0.82679,37910,37910,37911,37911,37912,37911,1,4.8333,4.8333,5,5.0833,5.1667,5,0.16667,2.6667,2.6667,2.6667,2.6667,2.6667,2.6667,0,2.5,2.5,2.5,2.5,2.5,2.5,0,1,155
3,279.83,279.83,279.83,280.54,281.25,280.31,0.81522,37910,37910,37911,37911,37912,37911,1,4.8333,4.8333,5,5.0833,5.1667,5,0.16667,2.6667,2.6667,2.6667,2.6667,2.6667,2.6667,0,2.5,2.5,2.5,2.5,2.5,2.5,0,1,156
3,277.55,277.55,277.55,278.25,278.95,278.02,0.80386,37910,37910,37911,37911,37912,37911,1,4.8333,4.8333,5,5.0833,5.1667,5,0.16667,2.6667,2.6667,2.6667,2.6667,2.6667,2.6667,0,2.5,2.5,2.5,2.5,2.5,2.5,0,1,157
3,275.3,275.3,275.3,275.99,276.67,275.76,0.79271,37910,37910,37911,37911,37912,37911,1,4.8333,4.8333,5,5.0833,5.1667,5,0.16667,2.6667,2.6667,2.6667,2.6667,2.6667,2.6667,0,2.5,2.5,2.5,2.5,2.5,2.5,0,1,158
3,273.07,273.07,273.07,273.75,274.43,273.52,0.78177,37910,37910,37911,37911,37912,37911,1,4.8333,4.8333,5,5.0833,5.1667,5,0.16667,2.6667,2.6667,2.6667,2.6667,2.6667,2.6667,0,2.5,2.5,2.5,2.5,2.5,2.5,0,1,159
3,270.87,270.87,270.87,271.54,272.2,271.31,0.77102,37910,37910,37911,37911,37912,37911,1,4.8333,4.8333,5,5.0833,5.1667,5,0.16667,2.6667,2.6667,2.6667,2.6667,2.6667,2.6667,0,2.5,2.5,2.5,2.5,2.5,2.5,0,1,160
3,268.69,268.69,268.69,269.35,270.01,269.13,0.76046,37910,37910,37911,37911,37912,37911,1,4.8333,4.8333,5,5.0833,5.1667,5,0.16667,2.6667,2.6667,2.6667,2.6667,2.6667,2.6667,0,2.5,2.5,2.5,2.5,2.5,2.5,0,1,161
3,266.54,266.54,266.54,267.19,267.84,266.97,0.75009,37910,37910,37911,37911,37912,37911,1,4.8333,4.8333,5,5.0833,5.1667,5,0.16667,2.6667,2.6667,2.6667,2.6667,2.6667,2.6667,0,2.5,2.5,2.5,2.5,2.5,2.5,0,1,162
3,264.41,264.41,264.41,265.05,265.69,264.83,0.73991,37910,37910,37911,37911,37912,37911,1,4.8333,4.8333,5,5.0833,5.1667,5,0.16667,2.6667,2.6667,2.6667,2.6667,2.6667,2.6667,0,2.5,2.5,2.5,2.5,2.5,2.5,0,1,163
3,262.3,262.3,262.3,262.93,263.56,262.72,0.72991,37910,37910,37911,37911,37912,37911,1,4.8333,4.8333,5,5.0833,5.1667,5,0.16667,2.6667,2.6667,2.6667,2.6667,2.6667,2.6667,0,2.5,2.5,2.5,2.5,2.5,2.5,0,1,164
3,260.21,260.21,260.21,260.84,261.46,260.63,0.72008,37910,37910,37911,37911,37912,37911,1,4.8333,4.8333,5,5.0833,5.1667,5,0.16667,2.6667,2.6667,2.6667,2.6667,2.6667,2.6667,0,2.5,2.5,2.5,2.5,2.5,2.5,0,1,165
3,258.15,258.15,258.15,258.77,259.38,258.56,0.71043,37910,37910,37911,37911,37912,37911,1,4.8333,4.8333,5,5.0833,5.1667,5,0.16667,2.6667,2.6667,2.6667,2.6667,2.6667,2.6667,0,2.5,2.5,2.5,2.5,2.5,2.5,0,1,166
3,256.11,256.11,256.11,256.72,257.33,256.52,0.70094,37910,37910,37911,37911,37912,37911,1,4.8333,4.8333,5,5.0833,5.1667,5,0.16667,2.6667,2.6667,2.6667,2.6667,2.6667,2.6667,0,2.5,2.5,2.5,2.5,2.5,2.5,0,1,167
3,254.09,254.09,254.09,254.69,255.29,254.49,0.69161,37910,37910,37911,37911,37912,37911,1,4.8333,4.8333,5,5.0833,5.1667,5,0.16667,2.6667,2.6667,2.6667,2.6667,2.6667,2.6667,0,2.5,2.5,2.5,2.5,2.5,2.5,0,1,168
3,252.1,252.1,252.1,252.69,253.28,252.49,0.68245,37910,37910,37911,37911,37912,37911,1,4.8333,4.8333,5,5.0833,5.1667,5,0.16667,2.6667,2.6667,2.6667,2.6667,2.6667,2.6667,0,2.5,2.5,2.5,2.5,2.5,2.5,0,1,169
3,250.12,250.12,250.12,250.71,251.29,250.51,0.67345,37910,37910,37911,37911,37912,37911,1,4.8333,4.8333,5,5.0833,5.1667,5,0.16667,2.6667,2.6667,2.6667,2.6667,2.6667,2.6667,0,2.5,2.5,2.5,2.5,2.5,2.5,0,1,170
3,248.17,248.17,248.17,248.74,249.32,248.55,0.66459,37910,37910,37911,37911,37912,37911,1,4.8333,4.8333,5,5.0833,5.1667,5,0.16667,2.6667,2.6667,2.6667,2.6667,2.6667,2.6667,0,2.5,2.5,2.5,2.5,2.5,2.5,0,1,171
3,246.23,246.23,246.23,246.8,247.37,246.61,0.65589,37910,37910,37911,37911,37912,37911,1,4.8333,4.8333,5,5.0833,5.1667,5,0.16667,2.6667,2.6667,2.6667,2.6667,2.6667,2.6667,0,2.5,2.5,2.5,2.5,2.5,2.5,0,1,172
3,244.32,244.32,244.32,244.88,245.44,244.69,0.64734,37910,37910,37911,37911,37912,37911,1,4.8333,4.8333,5,5.0833,5.1667,5,0.16667,2.6667,2.6667,2.6667,2.6667,2.6667,2.6667,0,2.5,2.5,2.5,2.5,2.5,2.5,0,1,173
3,242.43,242.43,242.43,242.98,243.53,242.8,0.63892,37910,37910,37911,37911,37912,37911,1,4.8333,4.8333,5,5.0833,5.1667,5,0.16667,2.6667,2.6667,2.6667,2.6667,2.6667,2.6667,0,2.5,2.5,2.5,2.5,2.5,2.5,0,1,174
3,240.55,240.55,240.55,241.1,241.65,240.92,0.63065,37910,37910,37911,37911,37912,37911,1,4.8333,4.8333,5,5.0833,5.1667,5,0.16667,2.6667,2.6667,2.6667,2.6667,2.6667,2.6667,0,2.5,2.5,2.5,2.5,2.5,2.5,0,1,175
3,238.7,238.7,238.7,239.24,239.78,239.06,0.62252,37910,37910,37911,37911,37912,37911,1,4.8333,4.8333,5,5.0833,5.1667,5,0.16667,2.6667,2.6667,2.6667,2.6667,2.6667,2.6667,0,2.5,2.5,2.5,2.5,2.5,2.5,0,1,176
3,236.86,236.86,236.86,237.39,237.93,237.22,0.61452,37910,37910,37911,37911,37912,37911,1,4.8333,4.8333,5,5.0833,5.1667,5,0.16667,2.6667,2.6667,2.6667,2.6667,2.6667,2.6667,0,2.5,2.5,2.5,2.5,2.5,2.5,0,1,177
3,235.05,235.05,235.05,235.57,236.1,235.4,0.60665,37910,37910,37911,37911,37912,37911,1,4.8333,4.8333,5,5.0833,5.1667,5,0.16667,2.6667,2.6667,2.6667,2.6667,2.6667,2.6667,0,2.5,2.5,2.5,2.5,2.5,2.5,0,1,178
3,233.25,233.25,233.25,233.77,234.28,233.59,0.59891,37910,37910,37911,37911,37912,37911,1,4.8333,4.8333,5,5.0833,5.1667,5,0.16667,2.6667,2.6667,2.6667,2.6667,2.6667,2.6667,0,2.5,2.5,2.5,2.5,2.5,2.5,0,1,179
3,231.47,231.47,231.47,231.98,232.49,231.81,0.5913,37910,37910,37911,37911,37912,37911,1,4.8333,4.8333,5,5.0833,5.1667,5,0.16667,2.6667,2.6667,2.6667,2.6667,2.6667,2.6667,0,2.5,2.5,2.5,2.5,2.5,2.5,0,1,180
3,229.7,229.7,229.7,230.21,230.72,230.04,0.58381,37910,37910,37911,37911,37912,37911,1,4.8333,4.8333,5,5.0833,5.1667,5,0.16667,2.6667,2.6667,2.6667,2.6667,2.6667,2.6667,0,2.5,2.5,2.5,2.5,2.5,2.5,0,1,181
3,227.96,227.96,227.96,228.46,228.96,228.29,0.57644,37910,37910,37911,37911,37912,37911,1,4.8333,4.8333,5,5.0833,5.1667,5,0.16667,2.6667,2.6667,2.6667,2.6667,2.6667,2.6667,0,2.5,2.5,2.5,2.5,2.5,2.5,0,1,182
3,226.23,226.23,226.23,226.73,227.22,226.56,0.56919,37910,37910,37911,37911,37912,37911,1,4.8333,4.8333,5,5.0833,5.1667,5,0.16667,2.6667,2.6667,2.6667,2.6667,2.6667,2.6667,0,2.5,2.5,2.5,2.5,2.5,2.5,0,1,183
3,224.52,224.52,224.52,225.01,225.5,224.85,0.56206,37910,37910,37911,37911,37912,37911,1,4.8333,4.8333,5,5.0833,5.1667,5,0.16667,2.6667,2.6667,2.6667,2.6667,2.6667,2.6667,0,2.5,2.5,2.5,2.5,2.5,2.5,0,1,184
3,222.83,222.83,222.83,223.31,223.79,223.15,0.55504,37910,37910,37911,37911,37912,37911,1,4.8333,4.8333,5,5.0833,5.1667,5,0.16667,2.6667,2.6667,2.6667,2.6667,2.6667,2.6667,0,2.5,2.5,2.5,2.5,2.5,2.5,0,1,185
3,221.15,221.15,221.15,221.63,222.1,221.47,0.54813,37910,37910,37911,37911,37912,37911,1,4.8333,4.8333,5,5.0833,5.1667,5,0.16667,2.6667,2.6667,2.6667,2.6667,2.6667,2.6667,0,2.5,2.5,2.5,2.5,2.5,2.5,0,1,186
3,219.49,219.49,219.49,219.96,220.43,219.8,0.54133,37910,37910,37911,37911,37912,37911,1,4.8333,4.8333,5,5.0833,5.1667,5,0.16667,2.6667,2.6667,2.6667,2.6667,2.6667,2.6667,0,2.5,2.5,2.5,2.5,2.5,2.5,0,1,187
3,217.85,217.85,217.85,218.31,218.77,218.16,0.53464,37910,37910,37911,37911,37912,37911,1,4.8333,4.8333,5,5.0833,5.1667,5,0.16667,2.6667,2.6667,2.6667,2.6667,2.6667,2.6667,0,2.5,2.5,2.5,2.5,2.5,2.5,0,1,188
3,216.22,216.22,216.22,216.68,217.13,216.52,0.52805,37910,37910,37911,37911,37912,37911,1,4.8333,4.8333,5,5.0833,5.1667,5,0.16667,2.6667,2.6667,2.6667,2.6667,2.6667,2.6667,0,2.5,2.5,2.5,2.5,2.5,2.5,0,1,189
3,214.61,214.61,214.61,215.06,215.51,214.91,0.52157,37910,37910,37911,37911,37912,37911,1,4.8333,4.8333,5,5.0833,5.1667,5,0.16667,2.6667,2.6667,2.6667,2.6667,2.6667,2.6667,0,2.5,2.5,2.5,2.5,2.5,2.5,0,1,190
3,213.01,213.01,213.01,213.46,213.9,213.31,0.51519,37910,37910,37911,37911,37912,37911,1,4.8333,4.8333,5,5.0833,5.1667,5,0.16667,2.6667,2.6667,2.6667,2.6667,2.6667,2.6667,0,2.5,2.5,2.5,2.5,2.5,2.5,0,1,191
3,211.43,211.43,211.43,211.87,212.31,211.72,0.5089,37910,37910,37911,37911,37912,37911,1,4.8333,4.8333,5,5.0833,5.1667,5,0.16667,2.6667,2.6667,2.6667,2.6667,2.6667,2.6667,0,2.5,2.5,2.5,2.5,2.5,2.5,0,1,192
3,209.86,209.86,209.86,210.3,210.73,210.15,0.50271,37910,37910,37911,37911,37912,37911,1,4.8333,4.8333,5,5.0833,5.1667,5,0.16667,2.6667,2.6667,2.6667,2.6667,2.6667,2.6667,0,2.5,2.5,2.5,2.5,2.5,2.5,0,1,193
3,208.31,208.31,208.31,208.74,209.17,208.6,0.49662,37910,37910,37911,37911,37912,37911,1,4.8333,4.8333,5,5.0833,5.1667,5,0.16667,2.6667,2.6667,2.6667,2.6667,2.6667,2.6667,0,2.5,2.5,2.5,2.5,2.5,2.5,0,1,194
3,206.77,206.77,206.77,207.2,207.62,207.06,0.49062,37910,37910,37911,37911,37912,37911,1,4.8333,4.8333,5,5.0833,5.1667,5,0.16667,2.6667,2.6667,2.6667,2.6667,2.6667,2.6667,0,2.5,2.5,2.5,2.5,2.5,2.5,0,1,195
3,205.25,205.25,205.25,205.67,206.09,205.53,0.48471,37910,37910,37911,37911,37912,37911,1,4.8333,4.8333,5,5.0833,5.1667,5,0.16667,2.6667,2.6667,2.6667,2.6667,2.6667,2.6667,0,2.5,2.5,2.5,2.5,2.5,2.5,0,1,196
3,203.75,203.75,203.75,204.16,204.57,204.02,0.47889,37910,37910,37911,37911,37912,37911,1,4.8333,4.8333,5,5.0833,5.1667,5,0.16667,2.6667,2.6667,2.6667,2.6667,2.6667,2.6667,0,2.5,2.5,2.5,2.5,2.5,2.5,0,1,197
3,202.25,202.25,202.25,202.66,203.07,202.52,0.47316,37910,37910,37911,37911,37912,37911,1,4.8333,4.8333,5,5.0833,5.1667,5,0.16667,2.6667,2.6667,2.6667,2.6667,2.6667,2.6667,0,2.5,2.5,2.5,2.5,2.5,2.5,0,1,198
3,200.77,200.77,200.77,201.18,201.58,201.04,0.46751,37910,37910,37911,37911,37912,37911,1,4.8333,4.8333,5,5.0833,5.1667,5,0.16667,2.6667,2.6667,2.6667,2.6667,2.6667,2.6667,0,2.5,2.5,2.5,2.5,2.5,2.5,0,1,199
3,199.31,199.31,199.31,199.71,200.11,199.57,0.46195,37910,37910,37911,37911,37912,37911,1,4.8333,4.8333,5,5.0833,5.1667,5,0.16667,2.6667,2.6667,2.6667,2.6667,2.6667,2.6667,0,2.5,2.5,2.5,2.5,2.5,2.5,0,1,200
3,197.85,197.85,197.85,198.25,198.64,198.12,0.45647,37910,37910,37911,37911,37912,37911,1,4.8333,4.8333,5,5.0833,5.1667,5,0.16667,2.6667,2.6667,2.6667,2.6667,2.6667,2.6667,0,2.5,2.5,2.5,2.5,2.5,2.5,0,1,201
3,196.41,196.41,196.41,196.81,197.2,196.67,0.45107,37910,37910,37911,37911,37912,37911,1,4.8333,4.8333,5,5.0833,5.1667,5,0.16667,2.6667,2.6667,2.6667,2.6667,2.6667,2.6667,0,2.5,2.5,2.5,2.5,2.5,2.5,0,1,202
3,194.99,194.99,194.99,195.37,195.76,195.25,0.44576,37910,37910,37911,37911,37912,37911,1,4.8333,4.8333,5,5.0833,5.1667,5,0.16667,2.6667,2.6667,2.6667,2.6667,2.6667,2.6667,0,2.5,2.5,2.5,2.5,2.5,2.5,0,1,203
3,193.58,193.58,193.58,193.96,194.34,193.83,0.44052,37910,37910,37911,37911,37912,37911,1,4.8333,4.8333,5,5.0833,5.1667,5,0.16667,2.6667,2.6667,2.6667,2.6667,2.6667,2.6667,0,2.5,2.5,2.5,2.5,2.5,2.5,0,1,204
3,192.18,192.18,192.18,192.55,192.93,192.43,0.43536,37910,37910,37911,37911,37912,37911,1,4.8333,4.8333,5,5.0833,5.1667,5,0.16667,2.6667,2.6667,2.6667,2.6667,2.6667,2.6667,0,2.5,2.5,2.5,2.5,2.5,2.5,0,1,205
3,190.79,190.79,190.79,191.16,191.54,191.04,0.43027,37910,37910,37911,37911,37912,37911,1,4.8333,4.8333,5,5.0833,5.1667,5,0.16667,2.6667,2.6667,2.6667,2.6667,2.6667,2.6667,0,2.5,2.5,2.5,2.5,2.5,2.5,0,1,206
3,189.42,189.42,189.42,189.78,190.15,189.66,0.42526,37910,37910,37911,37911,37912,37911,1,4.8333,4.8333,5,5.0833,5.1667,5,0.16667,2.6667,2.6667,2.6667,2.6667,2.6667,2.6667,0,2.5,2.5,2.5,2.5,2.5,2.5,0,1,207
3,188.05,188.05,188.05,188.42,188.78,188.3,0.42032,37910,37910,37911,37911,37912,37911,1,4.8333,4.8333,5,5.0833,5.1667,5,0.16667,2.6667,2.6667,2.6667,2.6667,2.6667,2.6667,0,2.5,2.5,2.5,2.5,2.5,2.5,0,1,208
3,186.7,186.7,186.7,187.06,187.42,186.94,0.41545,37910,37910,37911,37911,37912,37911,1,4.8333,4.8333,5,5.0833,5.1667,5,0.16667,2.6667,2.6667,2.6667,2.6667,2.6667,2.6667,0,2.5,2.5,2.5,2.5,2.5,2.5,0,1,209
3,185.37,185.37,185.37,185.72,186.08,185.6,0.41065,37910,37910,37911,37911,37912,37911,1,4.8333,4.8333,5,5.0833,5.1667,5,0.16667,2.6667,2.6667,2.6667,2.6667,2.6667,2.6667,0,2.5,2.5,2.5,2.5,2.5,2.5,0,1,210
3,184.04,184.04,184.04,184.39,184.74,184.28,0.40592,37910,37910,37911,37911,37912,37911,1,4.8333,4.8333,5,5.0833,5.1667,5,0.16667,2.6667,2.6667,2.6667,2.6667,2.6667,2.6667,0,2.5,2.5,2.5,2.5,2.5,2.5,0,1,211
3,182.73,182.73,182.73,183.08,183.42,182.96,0.40126,37910,37910,37911,37911,37912,37911,1,4.8333,4.8333,5,5.0833,5.1667,5,0.16667,2.6667,2.6667,2.6667,2.6667,2.6667,2.6667,0,2.5,2.5,2.5,2.5,2.5,2.5,0,1,212
3,181.43,181.43,181.43,181.77,182.11,181.66,0.39667,37910,37910,37911,37911,37912,37911,1,4.8333,4.8333,5,5.0833,5.1667,5,0.16667,2.6667,2.6667,2.6667,2.6667,2.6667,2.6667,0,2.5,2.5,2.5,2.5,2.5,2.5,0,1,213
3,180.14,180.14,180.14,180.48,180.82,180.36,0.39214,37910,37910,37911,37911,37912,37911,1,4.8333,4.8333,5,5.0833,5.1667,5,0.16667,2.6667,2.6667,2.6667,2.6667,2.6667,2.6667,0,2.5,2.5,2.5,2.5,2.5,2.5,0,1,214
3,178.86,178.86,178.86,179.19,179.53,179.08,0.38767,37910,37910,37911,37911,37912,37911,1,4.8333,4.8333,5,5.0833,5.1667,5,0.16667,2.6667,2.6667,2.6667,2.6667,2.6667,2.6667,0,2.5,2.5,2.5,2.5,2.5,2.5,0,1,215
3,177.59,177.59,177.59,177.92,178.25,177.81,0.38327,37910,37910,37911,37911,37912,37911,1,4.8333,4.8333,5,5.0833,5.1667,5,0.16667,2.6667,2.6667,2.6667,2.6667,2.6667,2.6667,0,2.5,2.5,2.5,2.5,2.5,2.5,0,1,216
3,176.33,176.33,176.33,176.66,176.99,176.55,0.37893,37910,37910,37911,37911,37912,37911,1,4.8333,4.8333,5,5.0833,5.1667,5,0.16667,2.6667,2.6667,2.6667,2.6667,2.6667,2.6667,0,2.5,2.5,2.5,2.5,2.5,2.5,0,1,217
3,175.09,175.09,175.09,175.41,175.74,175.3,0.37465,37910,37910,37911,37911,37912,37911,1,4.8333,4.8333,5,5.0833,5.1667,5,0.16667,2.6667,2.6667,2.6667,2.6667,2.6667,2.6667,0,2.5,2.5,2.5,2.5,2.5,2.5,0,1,218
3,173.85,173.85,173.85,174.17,174.49,174.07,0.37043,37910,37910,37911,37911,37912,37911,1,4.8333,4.8333,5,5.0833,5.1667,5,0.16667,2.6667,2.6667,2.6667,2.6667,2.6667,2.6667,0,2.5,2.5,2.5,2.5,2.5,2.5,0,1,219
3,172.63,172.63,172.63,172.95,173.26,172.84,0.36627,37910,37910,37911,37911,37912,37911,1,4.8333,4.8333,5,5.0833,5.1667,5,0.16667,2.6667,2.6667,2.6667,2.6667,2.6667,2.6667,0,2.5,2.5,2.5,2.5,2.5,2.5,0,1,220
3,171.42,171.42,171.42,171.73,172.04,171.63,0.36217,37910,37910,37911,37911,37912,37911,1,4.8333,4.8333,5,5.0833,5.1667,5,0.16667,2.6667,2.6667,2.6667,2.6667,2.6667,2.6667,0,2.5,2.5,2.5,2.5,2.5,2.5,0,1,221
3,170.21,170.21,170.21,170.52,170.83,170.42,0.35812,37910,37910,37911,37911,37912,37911,1,4.8333,4.8333,5,5.0833,5.1667,5,0.16667,2.6667,2.6667,2.6667,2.6667,2.6667,2.6667,0,2.5,2.5,2.5,2.5,2.5,2.5,0,1,222
3,169.02,169.02,169.02,169.33,169.63,169.23,0.35413,37910,37910,37911,37911,37912,37911,1,4.8333,4.8333,5,5.0833,5.1667,5,0.16667,2.6667,2.6667,2.6667,2.6667,2.6667,2.6667,0,2.5,2.5,2.5,2.5,2.5,2.5,0,1,223
3,167.84,167.84,167.84,168.14,168.45,168.04,0.35019,37910,37910,37911,37911,37912,37911,1,4.8333,4.8333,5,5.0833,5.1667,5,0.16667,2.6667,2.6667,2.6667,2.6667,2.6667,2.6667,0,2.5,2.5,2.5,2.5,2.5,2.5,0,1,224
3,166.67,166.67,166.67,166.97,167.27,166.87,0.34631,37910,37910,37911,37911,37912,37911,1,4.8333,4.8333,5,5.0833,5.1667,5,0.16667,2.6667,2.6667,2.6667,2.6667,2.6667,2.6667,0,2.5,2.5,2.5,2.5,2.5,2.5,0,1,225
3,165.51,165.51,165.51,165.8,166.1,165.7,0.34248,37910,37910,37911,37911,37912,37911,1,4.8333,4.8333,5,5.0833,5.1667,5,0.16667,2.6667,2.6667,2.6667,2.6667,2.6667,2.6667,0,2.5,2.5,2.5,2.5,2.5,2.5,0,1,226
3,164.35,164.35,164.35,164.65,164.94,164.55,0.3387,37910,37910,37911,37911,37912,37911,1,4.8333,4.8333,5,5.0833,5.1667,5,0.16667,2.6667,2.6667,2.6667,2.6667,2.6667,2.6667,0,2.5,2.5,2.5,2.5,2.5,2.5,0,1,227
3,163.21,163.21,163.21,163.5,163.79,163.41,0.33498,37910,37910,37911,37911,37912,37911,1,4.8333,4.8333,5,5.0833,5.1667,5,0.16667,2.6667,2.6667,2.6667,2.6667,2.6667,2.6667,0,2.5,2.5,2.5,2.5,2.5,2.5,0,1,228
3,162.08,162.08,162.08,162.37,162.65,162.27,0.3313,37910,37910,37911,37911,37912,37911,1,4.8333,4.8333,5,5.0833,5.1667,5,0.16667,2.6667,2.6667,2.6667,2.6667,2.6667,2.6667,0,2.5,2.5,2.5,2.5,2.5,2.5,0,1,229
3,160.96,160.96,160.96,161.24,161.53,161.15,0.32767,37910,37910,37911,37911,37912,37911,1,4.8333,4.8333,5,5.0833,5.1667,5,0.16667,2.6667,2.6667,2.6667,2.6667,2.6667,2.6667,0,2.5,2.5,2.5,2.5,2.5,2.5,0,1,230
3,159.84,159.84,159.84,160.13,160.41,160.03,0.3241,37910,37910,37911,37911,37912,37911,1,4.8333,4.8333,5,5.0833,5.1667,5,0.16667,2.6667,2.6667,2.6667,2.6667,2.6667,2.6667,0,2.5,2.5,2.5,2.5,2.5,2.5,0,1,231
3,158.74,158.74,158.74,159.02,159.3,158.93,0.32057,37910,37910,37911,37911,37912,37911,1,4.8333,4.8333,5,5.0833,5.1667,5,0.16667,2.6667,2.6667,2.6667,2.6667,2.6667,2.6667,0,2.5,2.5,2.5,2.5,2.5,2.5,0,1,232
3,157.65,157.65,157.65,157.92,158.2,157.83,0.31708,37910,37910,37911,37911,37912,37911,1,4.8333,4.8333,5,5.0833,5.1667,5,0.16667,2.6667,2.6667,2.6667,2.6667,2.6667,2.6667,0,2.5,2.5,2.5,2.5,2.5,2.5,0,1,233
3,156.56,156.56,156.56,156.83,157.1,156.74,0.31365,37910,37910,37911,37911,37912,37911,1,4.8333,4.8333,5,5.0833,5.1667,5,0.16667,2.6667,2.6667,2.6667,2.6667,2.6667,2.6667,0,2.5,2.5,2.5,2.5,2.5,2.5,0,1,234
3,155.49,155.49,155.49,155.75,156.02,155.66,0.31026,37910,37910,37911,37911,37912,37911,1,4.8333,4.8333,5,5.0833,5.1667,5,0.16667,2.6667,2.6667,2.6667,2.6667,2.6667,2.6667,0,2.5,2.5,2.5,2.5,2.5,2.5,0,1,235
3,154.42,154.42,154.42,154.68,154.95,154.6,0.30691,37910,37910,37911,37911,37912,37911,1,4.8333,4.8333,5,5.0833,5.1667,5,0.16667,2.6667,2.6667,2.6667,2.6667,2.6667,2.6667,0,2.5,2.5,2.5,2.5,2.5,2.5,0,1,236
3,153.36,153.36,153.36,153.62,153.89,153.54,0.30361,37910,37910,37911,37911,37912,37911,1,4.8333,4.8333,5,5.0833,5.1667,5,0.16667,2.6667,2.6667,2.6667,2.6667,2.6667,2.6667,0,2.5,2.5,2.5,2.5,2.5,2.5,0,1,237
3,152.31,152.31,152.31,152.57,152.83,152.48,0.30035,37910,37910,37911,37911,37912,37911,1,4.8333,4.8333,5,5.0833,5.1667,5,0.16667,2.6667,2.6667,2.6667,2.6667,2.6667,2.6667,0,2.5,2.5,2.5,2.5,2.5,2.5,0,1,238
3,151.27,151.27,151.27,151.53,151.78,151.44,0.29714,37910,37910,37911,37911,37912,37911,1,4.8333,4.8333,5,5.0833,5.1667,5,0.16667,2.6667,2.6667,2.6667,2.6667,2.6667,2.6667,0,2.5,2.5,2.5,2.5,2.5,2.5,0,1,239
3,150.24,150.24,150.24,150.49,150.75,150.41,0.29396,37910,37910,37911,37911,37912,37911,1,4.8333,4.8333,5,5.0833,5.1667,5,0.16667,2.6667,2.6667,2.6667,2.6667,2.6667,2.6667,0,2.5,2.5,2.5,2.5,2.5,2.5,0,1,240
3,149.21,149.21,149.21,149.47,149.72,149.38,0.29083,37910,37910,37911,37911,37912,37911,1,4.8333,4.8333,5,5.0833,5.1667,5,0.16667,2.6667,2.6667,2.6667,2.6667,2.6667,2.6667,0,2.5,2.5,2.5,2.5,2.5,2.5,0,1,241
3,148.2,148.2,148.2,148.45,148.7,148.36,0.28774,37910,37910,37911,37911,37912,37911,1,4.8333,4.8333,5,5.0833,5.1667,5,0.16667,2.6667,2.6667,2.6667,2.6667,2.6667,2.6667,0,2.5,2.5,2.5,2.5,2.5,2.5,0,1,242
3,147.19,147.19,147.19,147.44,147.68,147.36,0.28469,37910,37910,37911,37911,37912,37911,1,4.8333,4.8333,5,5.0833,5.1667,5,0.16667,2.6667,2.6667,2.6667,2.6667,2.6667,2.6667,0,2.5,2.5,2.5,2.5,2.5,2.5,0,1,243
3,146.19,146.19,146.19,146.44,146.68,146.36,0.28168,37910,37910,37911,37911,37912,37911,1,4.8333,4.8333,5,5.0833,5.1667,5,0.16667,2.6667,2.6667,2.6667,2.6667,2.6667,2.6667,0,2.5,2.5,2.5,2.5,2.5,2.5,0,1,244
3,145.2,145.2,145.2,145.44,145.69,145.36,0.2787,37910,37910,37911,37911,37912,37911,1,4.8333,4.8333,5,5.0833,5.1667,5,0.16667,2.6667,2.6667,2.6667,2.6667,2.6667,2.6667,0,2.5,2.5,2.5,2.5,2.5,2.5,0,1,245
3,144.22,144.22,144.22,144.46,144.7,144.38,0.27577,37910,37910,37911,37911,37912,37911,1,4.8333,4.8333,5,5.0833,5.1667,5,0.16667,2.6667,2.6667,2.6667,2.6667,2.6667,2.6667,0,2.5,2.5,2.5,2.5,2.5,2.5,0,1,246
3,143.25,143.25,143.25,143.48,143.72,143.4,0.27287,37910,37910,37911,37911,37912,37911,1,4.8333,4.8333,5,5.0833,5.1667,5,0.16667,2.6667,2.6667,2.6667,2.6667,2.6667,2.6667,0,2.5,2.5,2.5,2.5,2.5,2.5,0,1,247
3,142.28,142.28,142.28,142.51,142.75,142.43,0.27001,37910,37910,37911,37911,37912,37911,1,4.8333,4.8333,5,5.0833,5.1667,5,0.16667,2.6667,2.6667,2.6667,2.6667,2.6667,2.6667,0,2.5,2.5,2.5,2.5,2.5,2.5,0,1,248
3,141.32,141.32,141.32,141.55,141.78,141.47,0.26719,37910,37910,37911,37911,37912,37911,1,4.8333,4.8333,5,5.0833,5.1667,5,0.16667,2.6667,2.6667,2.6667,2.6667,2.6667,2.6667,0,2.5,2.5,2.5,2.5,2.5,2.5,0,1,249
