"N","min(Temp)","q1(Temp)","med(Temp)","q3(Temp)","max(Temp)","avg(Temp)","std(Temp)","min(vtkOriginalPointIds)","q1(vtkOriginalPointIds)","med(vtkOriginalPointIds)","q3(vtkOriginalPointIds)","max(vtkOriginalPointIds)","avg(vtkOriginalPointIds)","std(vtkOriginalPointIds)","min(X)","q1(X)","med(X)","q3(X)","max(X)","avg(X)","std(X)","min(Y)","q1(Y)","med(Y)","q3(Y)","max(Y)","avg(Y)","std(Y)","min(Z)","q1(Z)","med(Z)","q3(Z)","max(Z)","avg(Z)","std(Z)","vtkValidPointMask","Time"
3,0,0,0,0,0,0,0,37910,37910,37911,37911,37912,37911,1,4.8333,4.8333,5,5.0833,5.1667,5,0.16667,2.6667,2.6667,2.6667,2.6667,2.6667,2.6667,0,2.5,2.5,2.5,2.5,2.5,2.5,0,1,0
3,11.395,11.395,11.395,11.507,11.619,11.469,0.12964,37910,37910,37911,37911,37912,37911,1,4.8333,4.8333,5,5.0833,5.1667,5,0.16667,2.6667,2.6667,2.6667,2.6667,2.6667,2.6667,0,2.5,2.5,2.5,2.5,2.5,2.5,0,1,1
3,41.667,41.667,41.667,42.075,42.482,41.939,0.47074,37910,37910,37911,37911,37912,37911,1,4.8333,4.8333,5,5.0833,5.1667,5,0.16667,2.6667,2.6667,2.6667,2.6667,2.6667,2.6667,0,2.5,2.5,2.5,2.5,2.5,2.5,0,1,2
3,110.59,110.59,110.59,111.67,112.74,111.31,1.2429,37910,37910,37911,37911,37912,37911,1,4.8333,4.8333,5,5.0833,5.1667,5,0.16667,2.6667,2.6667,2.6667,2.6667,2.6667,2.6667,0,2.5,2.5,2.5,2.5,2.5,2.5,0,1,3
3,246.33,246.33,246.33,248.71,251.1,247.92,2.7561,37910,37910,37911,37911,37912,37911,1,4.8333,4.8333,5,5.0833,5.1667,5,0.16667,2.6667,2.6667,2.6667,2.6667,2.6667,2.6667,0,2.5,2.5,2.5,2.5,2.5,2.5,0,1,4
3,478.08,478.08,478.08,482.69,487.3,481.15,5.3252,37910,37910,37911,37911,37912,37911,1,4.8333,4.8333,5,5.0833,5.1667,5,0.16667,2.6667,2.6667,2.6667,2.6667,2.6667,2.6667,0,2.5,2.5,2.5,2.5,2.5,2.5,0,1,5
3,821.04,821.04,821.04,828.92,836.8,826.29,9.0997,37910,37910,37911,37911,37912,37911,1,4.8333,4.8333,5,5.0833,5.1667,5,0.16667,2.6667,2.6667,2.6667,2.6667,2.6667,2.6667,0,2.5,2.5,2.5,2.5,2.5,2.5,0,1,6
3,1260.1,1260.1,1260.1,1271.9,1283.8,1268,13.655,37910,37910,37911,37911,37912,37911,1,4.8333,4.8333,5,5.0833,5.1667,5,0.16667,2.6667,2.6667,2.6667,2.6667,2.6667,2.6667,0,2.5,2.5,2.5,2.5,2.5,2.5,0,1,7
3,1534,1534,1634.5,1634.5,1634.5,1601,58.026,37910,37910,37911,37911,37912,37911,1,4.8333,4.8333,5,5.0833,5.1667,5,0.16667,2.6667,2.6667,2.6667,2.6667,2.6667,2.6667,0,2.5,2.5,2.5,2.5,2.5,2.5,0,1,8
3,1857.6,1857.6,1968,1968,1968,1931.2,63.733,37910,37910,37911,37911,37912,37911,1,4.8333,4.8333,5,5.0833,5.1667,5,0.16667,2.6667,2.6667,2.6667,2.6667,2.6667,2.6667,0,2.5,2.5,2.5,2.5,2.5,2.5,0,1,9
3,2299,2299,2299,2316.3,2333.6,2310.5,19.951,37910,37910,37911,37911,37912,37911,1,4.8333,4.8333,5,5.0833,5.1667,5,0.16667,2.6667,2.6667,2.6667,2.6667,2.6667,2.6667,0,2.5,2.5,2.5,2.5,2.5,2.5,0,1,10
3,2540.2,2540.2,2540.2,2568.3,2596.4,2558.9,32.468,37910,37910,37911,37911,37912,37911,1,4.8333,4.8333,5,5.0833,5.1667,5,0.16667,2.6667,2.6667,2.6667,2.6667,2.6667,2.6667,0,2.5,2.5,2.5,2.5,2.5,2.5,0,1,11
3,2655.1,2655.1,2655.1,2685,2715,2675,34.563,37910,37910,37911,37911,37912,37911,1,4.8333,4.8333,5,5.0833,5.1667,5,0.16667,2.6667,2.6667,2.6667,2.6667,2.6667,2.6667,0,2.5,2.5,2.5,2.5,2.5,2.5,0,1,12
3,2670.3,2670.3,2670.3,2700,2729.7,2690.1,34.283,37910,37910,37911,37911,37912,37911,1,4.8333,4.8333,5,5.0833,5.1667,5,0.16667,2.6667,2.6667,2.6667,2.6667,2.6667,2.6667,0,2.5,2.5,2.5,2.5,2.5,2.5,0,1,13
3,2623.4,2623.4,2623.4,2651.9,2680.4,2642.4,32.91,37910,37910,37911,37911,37912,37911,1,4.8333,4.8333,5,5.0833,5.1667,5,0.16667,2.6667,2.6667,2.6667,2.6667,2.6667,2.6667,0,2.5,2.5,2.5,2.5,2.5,2.5,0,1,14
3,2545.6,2545.6,2545.6,2572.5,2599.4,2563.5,31.106,37910,37910,37911,37911,37912,37911,1,4.8333,4.8333,5,5.0833,5.1667,5,0.16667,2.6667,2.6667,2.6667,2.6667,2.6667,2.6667,0,2.5,2.5,2.5,2.5,2.5,2.5,0,1,15
3,2456.7,2456.7,2456.7,2482,2507.3,2473.6,29.216,37910,37910,37911,37911,37912,37911,1,4.8333,4.8333,5,5.0833,5.1667,5,0.16667,2.6667,2.6667,2.6667,2.6667,2.6667,2.6667,0,2.5,2.5,2.5,2.5,2.5,2.5,0,1,16
3,2367.2,2367.2,2367.2,2390.9,2414.6,2383,27.357,37910,37910,37911,37911,37912,37911,1,4.8333,4.8333,5,5.0833,5.1667,5,0.16667,2.6667,2.6667,2.6667,2.6667,2.6667,2.6667,0,2.5,2.5,2.5,2.5,2.5,2.5,0,1,17
3,2281.4,2281.4,2281.4,2303.6,2325.7,2296.2,25.544,37910,37910,37911,37911,37912,37911,1,4.8333,4.8333,5,5.0833,5.1667,5,0.16667,2.6667,2.6667,2.6667,2.6667,2.6667,2.6667,0,2.5,2.5,2.5,2.5,2.5,2.5,0,1,18
3,2200.8,2200.8,2200.8,2221.4,2242,2214.5,23.773,37910,37910,37911,37911,37912,37911,1,4.8333,4.8333,5,5.0833,5.1667,5,0.16667,2.6667,2.6667,2.6667,2.6667,2.6667,2.6667,0,2.5,2.5,2.5,2.5,2.5,2.5,0,1,19
3,2125.5,2125.5,2125.5,2144.6,2163.7,2138.2,22.042,37910,37910,37911,37911,37912,37911,1,4.8333,4.8333,5,5.0833,5.1667,5,0.16667,2.6667,2.6667,2.6667,2.6667,2.6667,2.6667,0,2.5,2.5,2.5,2.5,2.5,2.5,0,1,20
3,2055.3,2055.3,2055.3,2073,2090.6,2067.1,20.359,37910,37910,37911,37911,37912,37911,1,4.8333,4.8333,5,5.0833,5.1667,5,0.16667,2.6667,2.6667,2.6667,2.6667,2.6667,2.6667,0,2.5,2.5,2.5,2.5,2.5,2.5,0,1,21
3,1990,1990,1990,2006.2,2022.4,2000.8,18.732,37910,37910,37911,37911,37912,37911,1,4.8333,4.8333,5,5.0833,5.1667,5,0.16667,2.6667,2.6667,2.6667,2.6667,2.6667,2.6667,0,2.5,2.5,2.5,2.5,2.5,2.5,0,1,22
3,1929.1,1929.1,1929.1,1944,1958.9,1939.1,17.172,37910,37910,37911,37911,37912,37911,1,4.8333,4.8333,5,5.0833,5.1667,5,0.16667,2.6667,2.6667,2.6667,2.6667,2.6667,2.6667,0,2.5,2.5,2.5,2.5,2.5,2.5,0,1,23
3,1872.4,1872.4,1872.4,1886,1899.6,1881.5,15.685,37910,37910,37911,37911,37912,37911,1,4.8333,4.8333,5,5.0833,5.1667,5,0.16667,2.6667,2.6667,2.6667,2.6667,2.6667,2.6667,0,2.5,2.5,2.5,2.5,2.5,2.5,0,1,24
3,1819.6,1819.6,1819.6,1831.9,1844.3,1827.8,14.277,37910,37910,37911,37911,37912,37911,1,4.8333,4.8333,5,5.0833,5.1667,5,0.16667,2.6667,2.6667,2.6667,2.6667,2.6667,2.6667,0,2.5,2.5,2.5,2.5,2.5,2.5,0,1,25
3,1770.3,1770.3,1770.3,1781.5,1792.7,1777.8,12.941,37910,37910,37911,37911,37912,37911,1,4.8333,4.8333,5,5.0833,5.1667,5,0.16667,2.6667,2.6667,2.6667,2.6667,2.6667,2.6667,0,2.5,2.5,2.5,2.5,2.5,2.5,0,1,26
3,1724.5,1724.5,1724.5,1734.5,1744.6,1731.2,11.622,37910,37910,37911,37911,37912,37911,1,4.8333,4.8333,5,5.0833,5.1667,5,0.16667,2.6667,2.6667,2.6667,2.6667,2.6667,2.6667,0,2.5,2.5,2.5,2.5,2.5,2.5,0,1,27
3,1682,1682,1682,1690.9,1699.8,1687.9,10.29,37910,37910,37911,37911,37912,37911,1,4.8333,4.8333,5,5.0833,5.1667,5,0.16667,2.6667,2.6667,2.6667,2.6667,2.6667,2.6667,0,2.5,2.5,2.5,2.5,2.5,2.5,0,1,28
3,1642.7,1642.7,1642.7,1650.4,1658.2,1647.9,8.9376,37910,37910,37911,37911,37912,37911,1,4.8333,4.8333,5,5.0833,5.1667,5,0.16667,2.6667,2.6667,2.6667,2.6667,2.6667,2.6667,0,2.5,2.5,2.5,2.5,2.5,2.5,0,1,29
3,1607,1607,1607,1613.4,1619.8,1611.2,7.3842,37910,37910,37911,37911,37912,37911,1,4.8333,4.8333,5,5.0833,5.1667,5,0.16667,2.6667,2.6667,2.6667,2.6667,2.6667,2.6667,0,2.5,2.5,2.5,2.5,2.5,2.5,0,1,30
3,1575.9,1575.9,1575.9,1580.4,1584.9,1578.9,5.232,37910,37910,37911,37911,37912,37911,1,4.8333,4.8333,5,5.0833,5.1667,5,0.16667,2.6667,2.6667,2.6667,2.6667,2.6667,2.6667,0,2.5,2.5,2.5,2.5,2.5,2.5,0,1,31
3,1563.3,1563.3,1563.3,1563.3,1563.4,1563.3,0.0053931,37910,37910,37911,37911,37912,37911,1,4.8333,4.8333,5,5.0833,5.1667,5,0.16667,2.6667,2.6667,2.6667,2.6667,2.6667,2.6667,0,2.5,2.5,2.5,2.5,2.5,2.5,0,1,32
3,1561.3,1561.3,1561.3,1561.4,1561.4,1561.4,0.052232,37910,37910,37911,37911,37912,37911,1,4.8333,4.8333,5,5.0833,5.1667,5,0.16667,2.6667,2.6667,2.6667,2.6667,2.6667,2.6667,0,2.5,2.5,2.5,2.5,2.5,2.5,0,1,33
3,1559.3,1559.3,1559.3,1559.4,1559.5,1559.4,0.075585,37910,37910,37911,37911,37912,37911,1,4.8333,4.8333,5,5.0833,5.1667,5,0.16667,2.6667,2.6667,2.6667,2.6667,2.6667,2.6667,0,2.5,2.5,2.5,2.5,2.5,2.5,0,1,34
3,1557.3,1557.3,1557.3,1557.4,1557.5,1557.4,0.10154,37910,37910,37911,37911,37912,37911,1,4.8333,4.8333,5,5.0833,5.1667,5,0.16667,2.6667,2.6667,2.6667,2.6667,2.6667,2.6667,0,2.5,2.5,2.5,2.5,2.5,2.5,0,1,35
3,1555.3,1555.3,1555.3,1555.4,1555.6,1555.4,0.1303,37910,37910,37911,37911,37912,37911,1,4.8333,4.8333,5,5.0833,5.1667,5,0.16667,2.6667,2.6667,2.6667,2.6667,2.6667,2.6667,0,2.5,2.5,2.5,2.5,2.5,2.5,0,1,36
3,1553.3,1553.3,1553.3,1553.5,1553.6,1553.4,0.16224,37910,37910,37911,37911,37912,37911,1,4.8333,4.8333,5,5.0833,5.1667,5,0.16667,2.6667,2.6667,2.6667,2.6667,2.6667,2.6667,0,2.5,2.5,2.5,2.5,2.5,2.5,0,1,37
3,1551.4,1551.4,1551.4,1551.5,1551.7,1551.5,0.19783,37910,37910,37911,37911,37912,37911,1,4.8333,4.8333,5,5.0833,5.1667,5,0.16667,2.6667,2.6667,2.6667,2.6667,2.6667,2.6667,0,2.5,2.5,2.5,2.5,2.5,2.5,0,1,38
3,1549.4,1549.4,1549.4,1549.6,1549.8,1549.5,0.23752,37910,37910,37911,37911,37912,37911,1,4.8333,4.8333,5,5.0833,5.1667,5,0.16667,2.6667,2.6667,2.6667,2.6667,2.6667,2.6667,0,2.5,2.5,2.5,2.5,2.5,2.5,0,1,39
3,1547.4,1547.4,1547.4,1547.7,1547.9,1547.6,0.2818,37910,37910,37911,37911,37912,37911,1,4.8333,4.8333,5,5.0833,5.1667,5,0.16667,2.6667,2.6667,2.6667,2.6667,2.6667,2.6667,0,2.5,2.5,2.5,2.5,2.5,2.5,0,1,40
3,1545.4,1545.4,1545.4,1545.7,1546,1545.6,0.33691,37910,37910,37911,37911,37912,37911,1,4.8333,4.8333,5,5.0833,5.1667,5,0.16667,2.6667,2.6667,2.6667,2.6667,2.6667,2.6667,0,2.5,2.5,2.5,2.5,2.5,2.5,0,1,41
3,1543.4,1543.4,1543.4,1543.8,1544.1,1543.6,0.41624,37910,37910,37911,37911,37912,37911,1,4.8333,4.8333,5,5.0833,5.1667,5,0.16667,2.6667,2.6667,2.6667,2.6667,2.6667,2.6667,0,2.5,2.5,2.5,2.5,2.5,2.5,0,1,42
3,1541.3,1541.3,1541.3,1541.8,1542.2,1541.6,0.52625,37910,37910,37911,37911,37912,37911,1,4.8333,4.8333,5,5.0833,5.1667,5,0.16667,2.6667,2.6667,2.6667,2.6667,2.6667,2.6667,0,2.5,2.5,2.5,2.5,2.5,2.5,0,1,43
3,1539.2,1539.2,1539.2,1539.8,1540.4,1539.6,0.6692,37910,37910,37911,37911,37912,37911,1,4.8333,4.8333,5,5.0833,5.1667,5,0.16667,2.6667,2.6667,2.6667,2.6667,2.6667,2.6667,0,2.5,2.5,2.5,2.5,2.5,2.5,0,1,44
3,1537,1537,1537,1537.7,1538.5,1537.5,0.84511,37910,37910,37911,37911,37912,37911,1,4.8333,4.8333,5,5.0833,5.1667,5,0.16667,2.6667,2.6667,2.6667,2.6667,2.6667,2.6667,0,2.5,2.5,2.5,2.5,2.5,2.5,0,1,45
3,1534.7,1534.7,1534.7,1535.7,1536.6,1535.3,1.0781,37910,37910,37911,37911,37912,37911,1,4.8333,4.8333,5,5.0833,5.1667,5,0.16667,2.6667,2.6667,2.6667,2.6667,2.6667,2.6667,0,2.5,2.5,2.5,2.5,2.5,2.5,0,1,46
3,1531.4,1531.4,1531.4,1533.1,1534.7,1532.5,1.869,37910,37910,37911,37911,37912,37911,1,4.8333,4.8333,5,5.0833,5.1667,5,0.16667,2.6667,2.6667,2.6667,2.6667,2.6667,2.6667,0,2.5,2.5,2.5,2.5,2.5,2.5,0,1,47
3,1527.4,1527.4,1527.4,1530,1532.7,1529.2,3.0587,37910,37910,37911,37911,37912,37911,1,4.8333,4.8333,5,5.0833,5.1667,5,0.16667,2.6667,2.6667,2.6667,2.6667,2.6667,2.6667,0,2.5,2.5,2.5,2.5,2.5,2.5,0,1,48
3,1522.9,1522.9,1522.9,1526.7,1530.6,1525.5,4.4543,37910,37910,37911,37911,37912,37911,1,4.8333,4.8333,5,5.0833,5.1667,5,0.16667,2.6667,2.6667,2.6667,2.6667,2.6667,2.6667,0,2.5,2.5,2.5,2.5,2.5,2.5,0,1,49
3,1518,1518,1518,1523.2,1528.4,1521.5,6.0022,37910,37910,37911,37911,37912,37911,1,4.8333,4.8333,5,5.0833,5.1667,5,0.16667,2.6667,2.6667,2.6667,2.6667,2.6667,2.6667,0,2.5,2.5,2.5,2.5,2.5,2.5,0,1,50
3,1487.7,1487.7,1487.7,1506.8,1525.9,1500.4,22.052,37910,37910,37911,37911,37912,37911,1,4.8333,4.8333,5,5.0833,5.1667,5,0.16667,2.6667,2.6667,2.6667,2.6667,2.6667,2.6667,0,2.5,2.5,2.5,2.5,2.5,2.5,0,1,51
3,1447.4,1447.4,1447.4,1484.4,1521.4,1472.1,42.724,37910,37910,37911,37911,37912,37911,1,4.8333,4.8333,5,5.0833,5.1667,5,0.16667,2.6667,2.6667,2.6667,2.6667,2.6667,2.6667,0,2.5,2.5,2.5,2.5,2.5,2.5,0,1,52
3,1418.7,1418.7,1418.7,1466.7,1514.7,1450.7,55.45,37910,37910,37911,37911,37912,37911,1,4.8333,4.8333,5,5.0833,5.1667,5,0.16667,2.6667,2.6667,2.6667,2.6667,2.6667,2.6667,0,2.5,2.5,2.5,2.5,2.5,2.5,0,1,53
3,1386.5,1386.5,1386.5,1413.7,1441,1404.6,31.485,37910,37910,37911,37911,37912,37911,1,4.8333,4.8333,5,5.0833,5.1667,5,0.16667,2.6667,2.6667,2.6667,2.6667,2.6667,2.6667,0,2.5,2.5,2.5,2.5,2.5,2.5,0,1,54
3,1352.4,1352.4,1352.4,1372.2,1392.1,1365.6,22.868,37910,37910,37911,37911,37912,37911,1,4.8333,4.8333,5,5.0833,5.1667,5,0.16667,2.6667,2.6667,2.6667,2.6667,2.6667,2.6667,0,2.5,2.5,2.5,2.5,2.5,2.5,0,1,55
3,1319.3,1319.3,1319.3,1334.8,1350.4,1329.6,18.006,37910,37910,37911,37911,37912,37911,1,4.8333,4.8333,5,5.0833,5.1667,5,0.16667,2.6667,2.6667,2.6667,2.6667,2.6667,2.6667,0,2.5,2.5,2.5,2.5,2.5,2.5,0,1,56
3,1287.7,1287.7,1287.7,1300.8,1313.9,1296.4,15.112,37910,37910,37911,37911,37912,37911,1,4.8333,4.8333,5,5.0833,5.1667,5,0.16667,2.6667,2.6667,2.6667,2.6667,2.6667,2.6667,0,2.5,2.5,2.5,2.5,2.5,2.5,0,1,57
3,1258,1258,1258,1269.4,1280.9,1265.6,13.215,37910,37910,37911,37911,37912,37911,1,4.8333,4.8333,5,5.0833,5.1667,5,0.16667,2.6667,2.6667,2.6667,2.6667,2.6667,2.6667,0,2.5,2.5,2.5,2.5,2.5,2.5,0,1,58
3,1230,1230,1230,1240.2,1250.5,1236.8,11.857,37910,37910,37911,37911,37912,37911,1,4.8333,4.8333,5,5.0833,5.1667,5,0.16667,2.6667,2.6667,2.6667,2.6667,2.6667,2.6667,0,2.5,2.5,2.5,2.5,2.5,2.5,0,1,59
3,1203.6,1203.6,1203.6,1212.9,1222.3,1209.8,10.819,37910,37910,37911,37911,37912,37911,1,4.8333,4.8333,5,5.0833,5.1667,5,0.16667,2.6667,2.6667,2.6667,2.6667,2.6667,2.6667,0,2.5,2.5,2.5,2.5,2.5,2.5,0,1,60
3,1178.6,1178.6,1178.6,1187.2,1195.9,1184.3,9.9876,37910,37910,37911,37911,37912,37911,1,4.8333,4.8333,5,5.0833,5.1667,5,0.16667,2.6667,2.6667,2.6667,2.6667,2.6667,2.6667,0,2.5,2.5,2.5,2.5,2.5,2.5,0,1,61
3,1154.9,1154.9,1154.9,1162.9,1171,1160.2,9.2989,37910,37910,37911,37911,37912,37911,1,4.8333,4.8333,5,5.0833,5.1667,5,0.16667,2.6667,2.6667,2.6667,2.6667,2.6667,2.6667,0,2.5,2.5,2.5,2.5,2.5,2.5,0,1,62
3,1132.3,1132.3,1132.3,1139.8,1147.4,1137.3,8.7146,37910,37910,37911,37911,37912,37911,1,4.8333,4.8333,5,5.0833,5.1667,5,0.16667,2.6667,2.6667,2.6667,2.6667,2.6667,2.6667,0,2.5,2.5,2.5,2.5,2.5,2.5,0,1,63
3,1110.8,1110.8,1110.8,1117.9,1125,1115.5,8.2097,37910,37910,37911,37911,37912,37911,1,4.8333,4.8333,5,5.0833,5.1667,5,0.16667,2.6667,2.6667,2.6667,2.6667,2.6667,2.6667,0,2.5,2.5,2.5,2.5,2.5,2.5,0,1,64
3,1090.2,1090.2,1090.2,1096.9,1103.6,1094.7,7.767,37910,37910,37911,37911,37912,37911,1,4.8333,4.8333,5,5.0833,5.1667,5,0.16667,2.6667,2.6667,2.6667,2.6667,2.6667,2.6667,0,2.5,2.5,2.5,2.5,2.5,2.5,0,1,65
3,1070.5,1070.5,1070.5,1076.9,1083.2,1074.7,7.3743,37910,37910,37911,37911,37912,37911,1,4.8333,4.8333,5,5.0833,5.1667,5,0.16667,2.6667,2.6667,2.6667,2.6667,2.6667,2.6667,0,2.5,2.5,2.5,2.5,2.5,2.5,0,1,66
3,1051.6,1051.6,1051.6,1057.6,1063.7,1055.6,7.0225,37910,37910,37911,37911,37912,37911,1,4.8333,4.8333,5,5.0833,5.1667,5,0.16667,2.6667,2.6667,2.6667,2.6667,2.6667,2.6667,0,2.5,2.5,2.5,2.5,2.5,2.5,0,1,67
3,1033.4,1033.4,1033.4,1039.2,1045,1037.3,6.7049,37910,37910,37911,37911,37912,37911,1,4.8333,4.8333,5,5.0833,5.1667,5,0.16667,2.6667,2.6667,2.6667,2.6667,2.6667,2.6667,0,2.5,2.5,2.5,2.5,2.5,2.5,0,1,68
3,1015.9,1015.9,1015.9,1021.4,1027,1019.6,6.416,37910,37910,37911,37911,37912,37911,1,4.8333,4.8333,5,5.0833,5.1667,5,0.16667,2.6667,2.6667,2.6667,2.6667,2.6667,2.6667,0,2.5,2.5,2.5,2.5,2.5,2.5,0,1,69
3,999.03,999.03,999.03,1004.4,1009.7,1002.6,6.1517,37910,37910,37911,37911,37912,37911,1,4.8333,4.8333,5,5.0833,5.1667,5,0.16667,2.6667,2.6667,2.6667,2.6667,2.6667,2.6667,0,2.5,2.5,2.5,2.5,2.5,2.5,0,1,70
3,982.77,982.77,982.77,987.89,993.01,986.18,5.9087,37910,37910,37911,37911,37912,37911,1,4.8333,4.8333,5,5.0833,5.1667,5,0.16667,2.6667,2.6667,2.6667,2.6667,2.6667,2.6667,0,2.5,2.5,2.5,2.5,2.5,2.5,0,1,71
3,967.07,967.07,967.07,971.99,976.91,970.35,5.6841,37910,37910,37911,37911,37912,37911,1,4.8333,4.8333,5,5.0833,5.1667,5,0.16667,2.6667,2.6667,2.6667,2.6667,2.6667,2.6667,0,2.5,2.5,2.5,2.5,2.5,2.5,0,1,72
3,951.89,951.89,951.89,956.63,961.37,955.05,5.4758,37910,37910,37911,37911,37912,37911,1,4.8333,4.8333,5,5.0833,5.1667,5,0.16667,2.6667,2.6667,2.6667,2.6667,2.6667,2.6667,0,2.5,2.5,2.5,2.5,2.5,2.5,0,1,73
3,937.2,937.2,937.2,941.77,946.34,940.25,5.2818,37910,37910,37911,37911,37912,37911,1,4.8333,4.8333,5,5.0833,5.1667,5,0.16667,2.6667,2.6667,2.6667,2.6667,2.6667,2.6667,0,2.5,2.5,2.5,2.5,2.5,2.5,0,1,74
3,922.97,922.97,922.97,927.39,931.8,925.91,5.1005,37910,37910,37911,37911,37912,37911,1,4.8333,4.8333,5,5.0833,5.1667,5,0.16667,2.6667,2.6667,2.6667,2.6667,2.6667,2.6667,0,2.5,2.5,2.5,2.5,2.5,2.5,0,1,75
3,909.18,909.18,909.18,913.45,917.72,912.03,4.9307,37910,37910,37911,37911,37912,37911,1,4.8333,4.8333,5,5.0833,5.1667,5,0.16667,2.6667,2.6667,2.6667,2.6667,2.6667,2.6667,0,2.5,2.5,2.5,2.5,2.5,2.5,0,1,76
3,895.8,895.8,895.8,899.93,904.07,898.56,4.7712,37910,37910,37911,37911,37912,37911,1,4.8333,4.8333,5,5.0833,5.1667,5,0.16667,2.6667,2.6667,2.6667,2.6667,2.6667,2.6667,0,2.5,2.5,2.5,2.5,2.5,2.5,0,1,77
3,882.82,882.82,882.82,886.82,890.82,885.49,4.6209,37910,37910,37911,37911,37912,37911,1,4.8333,4.8333,5,5.0833,5.1667,5,0.16667,2.6667,2.6667,2.6667,2.6667,2.6667,2.6667,0,2.5,2.5,2.5,2.5,2.5,2.5,0,1,78
3,870.2,870.2,870.2,874.08,877.96,872.79,4.4791,37910,37910,37911,37911,37912,37911,1,4.8333,4.8333,5,5.0833,5.1667,5,0.16667,2.6667,2.6667,2.6667,2.6667,2.6667,2.6667,0,2.5,2.5,2.5,2.5,2.5,2.5,0,1,79
3,857.94,857.94,857.94,861.71,865.47,860.45,4.3449,37910,37910,37911,37911,37912,37911,1,4.8333,4.8333,5,5.0833,5.1667,5,0.16667,2.6667,2.6667,2.6667,2.6667,2.6667,2.6667,0,2.5,2.5,2.5,2.5,2.5,2.5,0,1,80
3,846.02,846.02,846.02,849.67,853.32,848.45,4.2178,37910,37910,37911,37911,37912,37911,1,4.8333,4.8333,5,5.0833,5.1667,5,0.16667,2.6667,2.6667,2.6667,2.6667,2.6667,2.6667,0,2.5,2.5,2.5,2.5,2.5,2.5,0,1,81
3,834.41,834.41,834.41,837.96,841.51,836.78,4.0971,37910,37910,37911,37911,37912,37911,1,4.8333,4.8333,5,5.0833,5.1667,5,0.16667,2.6667,2.6667,2.6667,2.6667,2.6667,2.6667,0,2.5,2.5,2.5,2.5,2.5,2.5,0,1,82
3,823.11,823.11,823.11,826.56,830.01,825.41,3.9823,37910,37910,37911,37911,37912,37911,1,4.8333,4.8333,5,5.0833,5.1667,5,0.16667,2.6667,2.6667,2.6667,2.6667,2.6667,2.6667,0,2.5,2.5,2.5,2.5,2.5,2.5,0,1,83
3,812.1,812.1,812.1,815.46,818.81,814.34,3.873,37910,37910,37911,37911,37912,37911,1,4.8333,4.8333,5,5.0833,5.1667,5,0.16667,2.6667,2.6667,2.6667,2.6667,2.6667,2.6667,0,2.5,2.5,2.5,2.5,2.5,2.5,0,1,84
3,801.37,801.37,801.37,804.63,807.9,803.55,3.7688,37910,37910,37911,37911,37912,37911,1,4.8333,4.8333,5,5.0833,5.1667,5,0.16667,2.6667,2.6667,2.6667,2.6667,2.6667,2.6667,0,2.5,2.5,2.5,2.5,2.5,2.5,0,1,85
3,790.9,790.9,790.9,794.08,797.26,793.02,3.6692,37910,37910,37911,37911,37912,37911,1,4.8333,4.8333,5,5.0833,5.1667,5,0.16667,2.6667,2.6667,2.6667,2.6667,2.6667,2.6667,0,2.5,2.5,2.5,2.5,2.5,2.5,0,1,86
3,780.69,780.69,780.69,783.79,786.88,782.76,3.5741,37910,37910,37911,37911,37912,37911,1,4.8333,4.8333,5,5.0833,5.1667,5,0.16667,2.6667,2.6667,2.6667,2.6667,2.6667,2.6667,0,2.5,2.5,2.5,2.5,2.5,2.5,0,1,87
3,770.73,770.73,770.73,773.74,776.76,772.74,3.483,37910,37910,37911,37911,37912,37911,1,4.8333,4.8333,5,5.0833,5.1667,5,0.16667,2.6667,2.6667,2.6667,2.6667,2.6667,2.6667,0,2.5,2.5,2.5,2.5,2.5,2.5,0,1,88
3,760.99,760.99,760.99,763.93,766.87,762.95,3.3957,37910,37910,37911,37911,37912,37911,1,4.8333,4.8333,5,5.0833,5.1667,5,0.16667,2.6667,2.6667,2.6667,2.6667,2.6667,2.6667,0,2.5,2.5,2.5,2.5,2.5,2.5,0,1,89
3,751.49,751.49,751.49,754.35,757.22,753.4,3.312,37910,37910,37911,37911,37912,37911,1,4.8333,4.8333,5,5.0833,5.1667,5,0.16667,2.6667,2.6667,2.6667,2.6667,2.6667,2.6667,0,2.5,2.5,2.5,2.5,2.5,2.5,0,1,90
3,742.19,742.19,742.19,744.99,747.79,744.06,3.2316,37910,37910,37911,37911,37912,37911,1,4.8333,4.8333,5,5.0833,5.1667,5,0.16667,2.6667,2.6667,2.6667,2.6667,2.6667,2.6667,0,2.5,2.5,2.5,2.5,2.5,2.5,0,1,91
3,733.11,733.11,733.11,735.84,738.57,734.93,3.1544,37910,37910,37911,37911,37912,37911,1,4.8333,4.8333,5,5.0833,5.1667,5,0.16667,2.6667,2.6667,2.6667,2.6667,2.6667,2.6667,0,2.5,2.5,2.5,2.5,2.5,2.5,0,1,92
3,724.22,724.22,724.22,726.89,729.56,726,3.0801,37910,37910,37911,37911,37912,37911,1,4.8333,4.8333,5,5.0833,5.1667,5,0.16667,2.6667,2.6667,2.6667,2.6667,2.6667,2.6667,0,2.5,2.5,2.5,2.5,2.5,2.5,0,1,93
3,715.53,715.53,715.53,718.14,720.74,717.27,3.0086,37910,37910,37911,37911,37912,37911,1,4.8333,4.8333,5,5.0833,5.1667,5,0.16667,2.6667,2.6667,2.6667,2.6667,2.6667,2.6667,0,2.5,2.5,2.5,2.5,2.5,2.5,0,1,94
3,707.02,707.02,707.02,709.57,712.11,708.72,2.9397,37910,37910,37911,37911,37912,37911,1,4.8333,4.8333,5,5.0833,5.1667,5,0.16667,2.6667,2.6667,2.6667,2.6667,2.6667,2.6667,0,2.5,2.5,2.5,2.5,2.5,2.5,0,1,95
3,698.69,698.69,698.69,701.18,703.67,700.35,2.8733,37910,37910,37911,37911,37912,37911,1,4.8333,4.8333,5,5.0833,5.1667,5,0.16667,2.6667,2.6667,2.6667,2.6667,2.6667,2.6667,0,2.5,2.5,2.5,2.5,2.5,2.5,0,1,96
3,690.54,690.54,690.54,692.97,695.4,692.16,2.8092,37910,37910,37911,37911,37912,37911,1,4.8333,4.8333,5,5.0833,5.1667,5,0.16667,2.6667,2.6667,2.6667,2.6667,2.6667,2.6667,0,2.5,2.5,2.5,2.5,2.5,2.5,0,1,97
3,682.54,682.54,682.54,684.92,687.3,684.13,2.7474,37910,37910,37911,37911,37912,37911,1,4.8333,4.8333,5,5.0833,5.1667,5,0.16667,2.6667,2.6667,2.6667,2.6667,2.6667,2.6667,0,2.5,2.5,2.5,2.5,2.5,2.5,0,1,98
3,674.71,674.71,674.71,677.04,679.37,676.27,2.6877,37910,37910,37911,37911,37912,37911,1,4.8333,4.8333,5,5.0833,5.1667,5,0.16667,2.6667,2.6667,2.6667,2.6667,2.6667,2.6667,0,2.5,2.5,2.5,2.5,2.5,2.5,0,1,99
3,667.04,667.04,667.04,669.32,671.59,668.56,2.6299,37910,37910,37911,37911,37912,37911,1,4.8333,4.8333,5,5.0833,5.1667,5,0.16667,2.6667,2.6667,2.6667,2.6667,2.6667,2.6667,0,2.5,2.5,2.5,2.5,2.5,2.5,0,1,100
3,659.51,659.51,659.51,661.74,663.97,661,2.5741,37910,37910,37911,37911,37912,37911,1,4.8333,4.8333,5,5.0833,5.1667,5,0.16667,2.6667,2.6667,2.6667,2.6667,2.6667,2.6667,0,2.5,2.5,2.5,2.5,2.5,2.5,0,1,101
3,652.13,652.13,652.13,654.32,656.5,653.59,2.5201,37910,37910,37911,37911,37912,37911,1,4.8333,4.8333,5,5.0833,5.1667,5,0.16667,2.6667,2.6667,2.6667,2.6667,2.6667,2.6667,0,2.5,2.5,2.5,2.5,2.5,2.5,0,1,102
3,644.89,644.89,644.89,647.03,649.17,646.32,2.4678,37910,37910,37911,37911,37912,37911,1,4.8333,4.8333,5,5.0833,5.1667,5,0.16667,2.6667,2.6667,2.6667,2.6667,2.6667,2.6667,0,2.5,2.5,2.5,2.5,2.5,2.5,0,1,103
3,637.79,637.79,637.79,639.88,641.97,639.18,2.4171,37910,37910,37911,37911,37912,37911,1,4.8333,4.8333,5,5.0833,5.1667,5,0.16667,2.6667,2.6667,2.6667,2.6667,2.6667,2.6667,0,2.5,2.5,2.5,2.5,2.5,2.5,0,1,104
3,630.82,630.82,630.82,632.87,634.92,632.18,2.3681,37910,37910,37911,37911,37912,37911,1,4.8333,4.8333,5,5.0833,5.1667,5,0.16667,2.6667,2.6667,2.6667,2.6667,2.6667,2.6667,0,2.5,2.5,2.5,2.5,2.5,2.5,0,1,105
3,623.97,623.97,623.97,625.98,627.99,625.31,2.3205,37910,37910,37911,37911,37912,37911,1,4.8333,4.8333,5,5.0833,5.1667,5,0.16667,2.6667,2.6667,2.6667,2.6667,2.6667,2.6667,0,2.5,2.5,2.5,2.5,2.5,2.5,0,1,106
3,617.25,617.25,617.25,619.22,621.19,618.56,2.2743,37910,37910,37911,37911,37912,37911,1,4.8333,4.8333,5,5.0833,5.1667,5,0.16667,2.6667,2.6667,2.6667,2.6667,2.6667,2.6667,0,2.5,2.5,2.5,2.5,2.5,2.5,0,1,107
3,610.65,610.65,610.65,612.58,614.51,611.93,2.2295,37910,37910,37911,37911,37912,37911,1,4.8333,4.8333,5,5.0833,5.1667,5,0.16667,2.6667,2.6667,2.6667,2.6667,2.6667,2.6667,0,2.5,2.5,2.5,2.5,2.5,2.5,0,1,108
3,604.16,604.16,604.16,606.05,607.95,605.42,2.186,37910,37910,37911,37911,37912,37911,1,4.8333,4.8333,5,5.0833,5.1667,5,0.16667,2.6667,2.6667,2.6667,2.6667,2.6667,2.6667,0,2.5,2.5,2.5,2.5,2.5,2.5,0,1,109
3,597.79,597.79,597.79,599.64,601.5,599.02,2.1438,37910,37910,37911,37911,37912,37911,1,4.8333,4.8333,5,5.0833,5.1667,5,0.16667,2.6667,2.6667,2.6667,2.6667,2.6667,2.6667,0,2.5,2.5,2.5,2.5,2.5,2.5,0,1,110
3,591.52,591.52,591.52,593.34,595.17,592.74,2.1027,37910,37910,37911,37911,37912,37911,1,4.8333,4.8333,5,5.0833,5.1667,5,0.16667,2.6667,2.6667,2.6667,2.6667,2.6667,2.6667,0,2.5,2.5,2.5,2.5,2.5,2.5,0,1,111
3,585.37,585.37,585.37,587.15,588.94,586.56,2.0628,37910,37910,37911,37911,37912,37911,1,4.8333,4.8333,5,5.0833,5.1667,5,0.16667,2.6667,2.6667,2.6667,2.6667,2.6667,2.6667,0,2.5,2.5,2.5,2.5,2.5,2.5,0,1,112
3,579.31,579.31,579.31,581.07,582.82,580.48,2.024,37910,37910,37911,37911,37912,37911,1,4.8333,4.8333,5,5.0833,5.1667,5,0.16667,2.6667,2.6667,2.6667,2.6667,2.6667,2.6667,0,2.5,2.5,2.5,2.5,2.5,2.5,0,1,113
3,573.36,573.36,573.36,575.08,576.8,574.51,1.9863,37910,37910,37911,37911,37912,37911,1,4.8333,4.8333,5,5.0833,5.1667,5,0.16667,2.6667,2.6667,2.6667,2.6667,2.6667,2.6667,0,2.5,2.5,2.5,2.5,2.5,2.5,0,1,114
3,567.51,567.51,567.51,569.19,570.88,568.63,1.9496,37910,37910,37911,37911,37912,37911,1,4.8333,4.8333,5,5.0833,5.1667,5,0.16667,2.6667,2.6667,2.6667,2.6667,2.6667,2.6667,0,2.5,2.5,2.5,2.5,2.5,2.5,0,1,115
3,561.75,561.75,561.75,563.4,565.06,562.85,1.9139,37910,37910,37911,37911,37912,37911,1,4.8333,4.8333,5,5.0833,5.1667,5,0.16667,2.6667,2.6667,2.6667,2.6667,2.6667,2.6667,0,2.5,2.5,2.5,2.5,2.5,2.5,0,1,116
3,556.08,556.08,556.08,557.71,559.33,557.16,1.8791,37910,37910,37911,37911,37912,37911,1,4.8333,4.8333,5,5.0833,5.1667,5,0.16667,2.6667,2.6667,2.6667,2.6667,2.6667,2.6667,0,2.5,2.5,2.5,2.5,2.5,2.5,0,1,117
3,550.5,550.5,550.5,552.1,553.7,551.57,1.8452,37910,37910,37911,37911,37912,37911,1,4.8333,4.8333,5,5.0833,5.1667,5,0.16667,2.6667,2.6667,2.6667,2.6667,2.6667,2.6667,0,2.5,2.5,2.5,2.5,2.5,2.5,0,1,118
3,545.01,545.01,545.01,546.58,548.15,546.06,1.8122,37910,37910,37911,37911,37912,37911,1,4.8333,4.8333,5,5.0833,5.1667,5,0.16667,2.6667,2.6667,2.6667,2.6667,2.6667,2.6667,0,2.5,2.5,2.5,2.5,2.5,2.5,0,1,119
3,539.61,539.61,539.61,541.15,542.69,540.64,1.7801,37910,37910,37911,37911,37912,37911,1,4.8333,4.8333,5,5.0833,5.1667,5,0.16667,2.6667,2.6667,2.6667,2.6667,2.6667,2.6667,0,2.5,2.5,2.5,2.5,2.5,2.5,0,1,120
3,534.29,534.29,534.29,535.8,537.32,535.3,1.7487,37910,37910,37911,37911,37912,37911,1,4.8333,4.8333,5,5.0833,5.1667,5,0.16667,2.6667,2.6667,2.6667,2.6667,2.6667,2.6667,0,2.5,2.5,2.5,2.5,2.5,2.5,0,1,121
3,529.05,529.05,529.05,530.54,532.02,530.04,1.7182,37910,37910,37911,37911,37912,37911,1,4.8333,4.8333,5,5.0833,5.1667,5,0.16667,2.6667,2.6667,2.6667,2.6667,2.6667,2.6667,0,2.5,2.5,2.5,2.5,2.5,2.5,0,1,122
3,523.89,523.89,523.89,525.35,526.81,524.86,1.6884,37910,37910,37911,37911,37912,37911,1,4.8333,4.8333,5,5.0833,5.1667,5,0.16667,2.6667,2.6667,2.6667,2.6667,2.6667,2.6667,0,2.5,2.5,2.5,2.5,2.5,2.5,0,1,123
3,518.81,518.81,518.81,520.24,521.68,519.76,1.6593,37910,37910,37911,37911,37912,37911,1,4.8333,4.8333,5,5.0833,5.1667,5,0.16667,2.6667,2.6667,2.6667,2.6667,2.6667,2.6667,0,2.5,2.5,2.5,2.5,2.5,2.5,0,1,124
3,513.8,513.8,513.8,515.21,516.62,514.74,1.6309,37910,37910,37911,37911,37912,37911,1,4.8333,4.8333,5,5.0833,5.1667,5,0.16667,2.6667,2.6667,2.6667,2.6667,2.6667,2.6667,0,2.5,2.5,2.5,2.5,2.5,2.5,0,1,125
3,508.87,508.87,508.87,510.25,511.64,509.79,1.6032,37910,37910,37911,37911,37912,37911,1,4.8333,4.8333,5,5.0833,5.1667,5,0.16667,2.6667,2.6667,2.6667,2.6667,2.6667,2.6667,0,2.5,2.5,2.5,2.5,2.5,2.5,0,1,126
3,504,504,504,505.37,506.73,504.91,1.5762,37910,37910,37911,37911,37912,37911,1,4.8333,4.8333,5,5.0833,5.1667,5,0.16667,2.6667,2.6667,2.6667,2.6667,2.6667,2.6667,0,2.5,2.5,2.5,2.5,2.5,2.5,0,1,127
3,499.21,499.21,499.21,500.55,501.9,500.11,1.5498,37910,37910,37911,37911,37912,37911,1,4.8333,4.8333,5,5.0833,5.1667,5,0.16667,2.6667,2.6667,2.6667,2.6667,2.6667,2.6667,0,2.5,2.5,2.5,2.5,2.5,2.5,0,1,128
3,494.49,494.49,494.49,495.81,497.13,495.37,1.524,37910,37910,37911,37911,37912,37911,1,4.8333,4.8333,5,5.0833,5.1667,5,0.16667,2.6667,2.6667,2.6667,2.6667,2.6667,2.6667,0,2.5,2.5,2.5,2.5,2.5,2.5,0,1,129
3,489.83,489.83,489.83,491.13,492.43,490.7,1.4988,37910,37910,37911,37911,37912,37911,1,4.8333,4.8333,5,5.0833,5.1667,5,0.16667,2.6667,2.6667,2.6667,2.6667,2.6667,2.6667,0,2.5,2.5,2.5,2.5,2.5,2.5,0,1,130
3,485.24,485.24,485.24,486.52,487.79,486.09,1.4742,37910,37910,37911,37911,37912,37911,1,4.8333,4.8333,5,5.0833,5.1667,5,0.16667,2.6667,2.6667,2.6667,2.6667,2.6667,2.6667,0,2.5,2.5,2.5,2.5,2.5,2.5,0,1,131
3,480.71,480.71,480.71,481.97,483.22,481.55,1.4502,37910,37910,37911,37911,37912,37911,1,4.8333,4.8333,5,5.0833,5.1667,5,0.16667,2.6667,2.6667,2.6667,2.6667,2.6667,2.6667,0,2.5,2.5,2.5,2.5,2.5,2.5,0,1,132
3,476.25,476.25,476.25,477.48,478.72,477.07,1.4267,37910,37910,37911,37911,37912,37911,1,4.8333,4.8333,5,5.0833,5.1667,5,0.16667,2.6667,2.6667,2.6667,2.6667,2.6667,2.6667,0,2.5,2.5,2.5,2.5,2.5,2.5,0,1,133
3,471.84,471.84,471.84,473.06,474.28,472.65,1.4037,37910,37910,37911,37911,37912,37911,1,4.8333,4.8333,5,5.0833,5.1667,5,0.16667,2.6667,2.6667,2.6667,2.6667,2.6667,2.6667,0,2.5,2.5,2.5,2.5,2.5,2.5,0,1,134
3,467.5,467.5,467.5,468.7,469.89,468.3,1.3812,37910,37910,37911,37911,37912,37911,1,4.8333,4.8333,5,5.0833,5.1667,5,0.16667,2.6667,2.6667,2.6667,2.6667,2.6667,2.6667,0,2.5,2.5,2.5,2.5,2.5,2.5,0,1,135
3,463.21,463.21,463.21,464.39,465.57,464,1.3592,37910,37910,37911,37911,37912,37911,1,4.8333,4.8333,5,5.0833,5.1667,5,0.16667,2.6667,2.6667,2.6667,2.6667,2.6667,2.6667,0,2.5,2.5,2.5,2.5,2.5,2.5,0,1,136
3,458.99,458.99,458.99,460.14,461.3,459.76,1.3377,37910,37910,37911,37911,37912,37911,1,4.8333,4.8333,5,5.0833,5.1667,5,0.16667,2.6667,2.6667,2.6667,2.6667,2.6667,2.6667,0,2.5,2.5,2.5,2.5,2.5,2.5,0,1,137
3,454.81,454.81,454.81,455.95,457.09,455.57,1.3166,37910,37910,37911,37911,37912,37911,1,4.8333,4.8333,5,5.0833,5.1667,5,0.16667,2.6667,2.6667,2.6667,2.6667,2.6667,2.6667,0,2.5,2.5,2.5,2.5,2.5,2.5,0,1,138
3,450.7,450.7,450.7,451.82,452.94,451.44,1.296,37910,37910,37911,37911,37912,37911,1,4.8333,4.8333,5,5.0833,5.1667,5,0.16667,2.6667,2.6667,2.6667,2.6667,2.6667,2.6667,0,2.5,2.5,2.5,2.5,2.5,2.5,0,1,139
3,446.63,446.63,446.63,447.74,448.84,447.37,1.2759,37910,37910,37911,37911,37912,37911,1,4.8333,4.8333,5,5.0833,5.1667,5,0.16667,2.6667,2.6667,2.6667,2.6667,2.6667,2.6667,0,2.5,2.5,2.5,2.5,2.5,2.5,0,1,140
3,442.62,442.62,442.62,443.71,444.8,443.34,1.2561,37910,37910,37911,37911,37912,37911,1,4.8333,4.8333,5,5.0833,5.1667,5,0.16667,2.6667,2.6667,2.6667,2.6667,2.6667,2.6667,0,2.5,2.5,2.5,2.5,2.5,2.5,0,1,141
3,438.66,438.66,438.66,439.73,440.8,439.37,1.2368,37910,37910,37911,37911,37912,37911,1,4.8333,4.8333,5,5.0833,5.1667,5,0.16667,2.6667,2.6667,2.6667,2.6667,2.6667,2.6667,0,2.5,2.5,2.5,2.5,2.5,2.5,0,1,142
3,434.75,434.75,434.75,435.8,436.86,435.45,1.2179,37910,37910,37911,37911,37912,37911,1,4.8333,4.8333,5,5.0833,5.1667,5,0.16667,2.6667,2.6667,2.6667,2.6667,2.6667,2.6667,0,2.5,2.5,2.5,2.5,2.5,2.5,0,1,143
3,430.89,430.89,430.89,431.93,432.97,431.58,1.1993,37910,37910,37911,37911,37912,37911,1,4.8333,4.8333,5,5.0833,5.1667,5,0.16667,2.6667,2.6667,2.6667,2.6667,2.6667,2.6667,0,2.5,2.5,2.5,2.5,2.5,2.5,0,1,144
3,427.08,427.08,427.08,428.1,429.12,427.76,1.1812,37910,37910,37911,37911,37912,37911,1,4.8333,4.8333,5,5.0833,5.1667,5,0.16667,2.6667,2.6667,2.6667,2.6667,2.6667,2.6667,0,2.5,2.5,2.5,2.5,2.5,2.5,0,1,145
3,423.31,423.31,423.31,424.32,425.33,423.99,1.1634,37910,37910,37911,37911,37912,37911,1,4.8333,4.8333,5,5.0833,5.1667,5,0.16667,2.6667,2.6667,2.6667,2.6667,2.6667,2.6667,0,2.5,2.5,2.5,2.5,2.5,2.5,0,1,146
3,419.6,419.6,419.6,420.59,421.58,420.26,1.146,37910,37910,37911,37911,37912,37911,1,4.8333,4.8333,5,5.0833,5.1667,5,0.16667,2.6667,2.6667,2.6667,2.6667,2.6667,2.6667,0,2.5,2.5,2.5,2.5,2.5,2.5,0,1,147
3,415.92,415.92,415.92,416.9,417.88,416.58,1.1289,37910,37910,37911,37911,37912,37911,1,4.8333,4.8333,5,5.0833,5.1667,5,0.16667,2.6667,2.6667,2.6667,2.6667,2.6667,2.6667,0,2.5,2.5,2.5,2.5,2.5,2.5,0,1,148
3,412.3,412.3,412.3,413.26,414.22,412.94,1.1121,37910,37910,37911,37911,37912,37911,1,4.8333,4.8333,5,5.0833,5.1667,5,0.16667,2.6667,2.6667,2.6667,2.6667,2.6667,2.6667,0,2.5,2.5,2.5,2.5,2.5,2.5,0,1,149
3,408.71,408.71,408.71,409.66,410.61,409.35,1.0957,37910,37910,37911,37911,37912,37911,1,4.8333,4.8333,5,5.0833,5.1667,5,0.16667,2.6667,2.6667,2.6667,2.6667,2.6667,2.6667,0,2.5,2.5,2.5,2.5,2.5,2.5,0,1,150
3,405.17,405.17,405.17,406.11,407.04,405.8,1.0796,37910,37910,37911,37911,37912,37911,1,4.8333,4.8333,5,5.0833,5.1667,5,0.16667,2.6667,2.6667,2.6667,2.6667,2.6667,2.6667,0,2.5,2.5,2.5,2.5,2.5,2.5,0,1,151
3,401.68,401.68,401.68,402.6,403.52,402.29,1.0638,37910,37910,37911,37911,37912,37911,1,4.8333,4.8333,5,5.0833,5.1667,5,0.16667,2.6667,2.6667,2.6667,2.6667,2.6667,2.6667,0,2.5,2.5,2.5,2.5,2.5,2.5,0,1,152
3,398.22,398.22,398.22,399.13,400.04,398.82,1.0484,37910,37910,37911,37911,37912,37911,1,4.8333,4.8333,5,5.0833,5.1667,5,0.16667,2.6667,2.6667,2.6667,2.6667,2.6667,2.6667,0,2.5,2.5,2.5,2.5,2.5,2.5,0,1,153
3,394.8,394.8,394.8,395.7,396.59,395.4,1.0332,37910,37910,37911,37911,37912,37911,1,4.8333,4.8333,5,5.0833,5.1667,5,0.16667,2.6667,2.6667,2.6667,2.6667,2.6667,2.6667,0,2.5,2.5,2.5,2.5,2.5,2.5,0,1,154
3,391.43,391.43,391.43,392.31,393.19,392.02,1.0183,37910,37910,37911,37911,37912,37911,1,4.8333,4.8333,5,5.0833,5.1667,5,0.16667,2.6667,2.6667,2.6667,2.6667,2.6667,2.6667,0,2.5,2.5,2.5,2.5,2.5,2.5,0,1,155
3,388.09,388.09,388.09,388.96,389.83,388.67,1.0037,37910,37910,37911,37911,37912,37911,1,4.8333,4.8333,5,5.0833,5.1667,5,0.16667,2.6667,2.6667,2.6667,2.6667,2.6667,2.6667,0,2.5,2.5,2.5,2.5,2.5,2.5,0,1,156
3,384.8,384.8,384.8,385.65,386.51,385.37,0.98935,37910,37910,37911,37911,37912,37911,1,4.8333,4.8333,5,5.0833,5.1667,5,0.16667,2.6667,2.6667,2.6667,2.6667,2.6667,2.6667,0,2.5,2.5,2.5,2.5,2.5,2.5,0,1,157
3,381.54,381.54,381.54,382.38,383.23,382.1,0.97529,37910,37910,37911,37911,37912,37911,1,4.8333,4.8333,5,5.0833,5.1667,5,0.16667,2.6667,2.6667,2.6667,2.6667,2.6667,2.6667,0,2.5,2.5,2.5,2.5,2.5,2.5,0,1,158
3,378.31,378.31,378.31,379.15,379.98,378.87,0.96148,37910,37910,37911,37911,37912,37911,1,4.8333,4.8333,5,5.0833,5.1667,5,0.16667,2.6667,2.6667,2.6667,2.6667,2.6667,2.6667,0,2.5,2.5,2.5,2.5,2.5,2.5,0,1,159
3,375.13,375.13,375.13,375.95,376.77,375.68,0.94793,37910,37910,37911,37911,37912,37911,1,4.8333,4.8333,5,5.0833,5.1667,5,0.16667,2.6667,2.6667,2.6667,2.6667,2.6667,2.6667,0,2.5,2.5,2.5,2.5,2.5,2.5,0,1,160
3,371.98,371.98,371.98,372.79,373.6,372.52,0.93463,37910,37910,37911,37911,37912,37911,1,4.8333,4.8333,5,5.0833,5.1667,5,0.16667,2.6667,2.6667,2.6667,2.6667,2.6667,2.6667,0,2.5,2.5,2.5,2.5,2.5,2.5,0,1,161
3,368.87,368.87,368.87,369.66,370.46,369.4,0.92157,37910,37910,37911,37911,37912,37911,1,4.8333,4.8333,5,5.0833,5.1667,5,0.16667,2.6667,2.6667,2.6667,2.6667,2.6667,2.6667,0,2.5,2.5,2.5,2.5,2.5,2.5,0,1,162
3,365.79,365.79,365.79,366.57,367.36,366.31,0.90875,37910,37910,37911,37911,37912,37911,1,4.8333,4.8333,5,5.0833,5.1667,5,0.16667,2.6667,2.6667,2.6667,2.6667,2.6667,2.6667,0,2.5,2.5,2.5,2.5,2.5,2.5,0,1,163
3,362.74,362.74,362.74,363.52,364.3,363.26,0.89616,37910,37910,37911,37911,37912,37911,1,4.8333,4.8333,5,5.0833,5.1667,5,0.16667,2.6667,2.6667,2.6667,2.6667,2.6667,2.6667,0,2.5,2.5,2.5,2.5,2.5,2.5,0,1,164
3,359.73,359.73,359.73,360.5,361.26,360.24,0.88379,37910,37910,37911,37911,37912,37911,1,4.8333,4.8333,5,5.0833,5.1667,5,0.16667,2.6667,2.6667,2.6667,2.6667,2.6667,2.6667,0,2.5,2.5,2.5,2.5,2.5,2.5,0,1,165
3,356.75,356.75,356.75,357.51,358.26,357.26,0.87165,37910,37910,37911,37911,37912,37911,1,4.8333,4.8333,5,5.0833,5.1667,5,0.16667,2.6667,2.6667,2.6667,2.6667,2.6667,2.6667,0,2.5,2.5,2.5,2.5,2.5,2.5,0,1,166
3,353.81,353.81,353.81,354.55,355.3,354.31,0.85972,37910,37910,37911,37911,37912,37911,1,4.8333,4.8333,5,5.0833,5.1667,5,0.16667,2.6667,2.6667,2.6667,2.6667,2.6667,2.6667,0,2.5,2.5,2.5,2.5,2.5,2.5,0,1,167
3,350.9,350.9,350.9,351.63,352.37,351.39,0.848,37910,37910,37911,37911,37912,37911,1,4.8333,4.8333,5,5.0833,5.1667,5,0.16667,2.6667,2.6667,2.6667,2.6667,2.6667,2.6667,0,2.5,2.5,2.5,2.5,2.5,2.5,0,1,168
3,348.02,348.02,348.02,348.74,349.46,348.5,0.83649,37910,37910,37911,37911,37912,37911,1,4.8333,4.8333,5,5.0833,5.1667,5,0.16667,2.6667,2.6667,2.6667,2.6667,2.6667,2.6667,0,2.5,2.5,2.5,2.5,2.5,2.5,0,1,169
3,345.17,345.17,345.17,345.88,346.59,345.64,0.82518,37910,37910,37911,37911,37912,37911,1,4.8333,4.8333,5,5.0833,5.1667,5,0.16667,2.6667,2.6667,2.6667,2.6667,2.6667,2.6667,0,2.5,2.5,2.5,2.5,2.5,2.5,0,1,170
3,342.35,342.35,342.35,343.05,343.76,342.82,0.81406,37910,37910,37911,37911,37912,37911,1,4.8333,4.8333,5,5.0833,5.1667,5,0.16667,2.6667,2.6667,2.6667,2.6667,2.6667,2.6667,0,2.5,2.5,2.5,2.5,2.5,2.5,0,1,171
3,339.56,339.56,339.56,340.25,340.95,340.02,0.80314,37910,37910,37911,37911,37912,37911,1,4.8333,4.8333,5,5.0833,5.1667,5,0.16667,2.6667,2.6667,2.6667,2.6667,2.6667,2.6667,0,2.5,2.5,2.5,2.5,2.5,2.5,0,1,172
3,336.8,336.8,336.8,337.48,338.17,337.25,0.7924,37910,37910,37911,37911,37912,37911,1,4.8333,4.8333,5,5.0833,5.1667,5,0.16667,2.6667,2.6667,2.6667,2.6667,2.6667,2.6667,0,2.5,2.5,2.5,2.5,2.5,2.5,0,1,173
3,334.07,334.07,334.07,334.74,335.42,334.52,0.78185,37910,37910,37911,37911,37912,37911,1,4.8333,4.8333,5,5.0833,5.1667,5,0.16667,2.6667,2.6667,2.6667,2.6667,2.6667,2.6667,0,2.5,2.5,2.5,2.5,2.5,2.5,0,1,174
3,331.36,331.36,331.36,332.03,332.7,331.81,0.77148,37910,37910,37911,37911,37912,37911,1,4.8333,4.8333,5,5.0833,5.1667,5,0.16667,2.6667,2.6667,2.6667,2.6667,2.6667,2.6667,0,2.5,2.5,2.5,2.5,2.5,2.5,0,1,175
3,328.69,328.69,328.69,329.35,330.01,329.13,0.76128,37910,37910,37911,37911,37912,37911,1,4.8333,4.8333,5,5.0833,5.1667,5,0.16667,2.6667,2.6667,2.6667,2.6667,2.6667,2.6667,0,2.5,2.5,2.5,2.5,2.5,2.5,0,1,176
3,326.04,326.04,326.04,326.69,327.35,326.48,0.75125,37910,37910,37911,37911,37912,37911,1,4.8333,4.8333,5,5.0833,5.1667,5,0.16667,2.6667,2.6667,2.6667,2.6667,2.6667,2.6667,0,2.5,2.5,2.5,2.5,2.5,2.5,0,1,177
3,323.43,323.43,323.43,324.07,324.71,323.85,0.7414,37910,37910,37911,37911,37912,37911,1,4.8333,4.8333,5,5.0833,5.1667,5,0.16667,2.6667,2.6667,2.6667,2.6667,2.6667,2.6667,0,2.5,2.5,2.5,2.5,2.5,2.5,0,1,178
3,320.83,320.83,320.83,321.47,322.1,321.26,0.7317,37910,37910,37911,37911,37912,37911,1,4.8333,4.8333,5,5.0833,5.1667,5,0.16667,2.6667,2.6667,2.6667,2.6667,2.6667,2.6667,0,2.5,2.5,2.5,2.5,2.5,2.5,0,1,179
3,318.27,318.27,318.27,318.9,319.52,318.69,0.72217,37910,37910,37911,37911,37912,37911,1,4.8333,4.8333,5,5.0833,5.1667,5,0.16667,2.6667,2.6667,2.6667,2.6667,2.6667,2.6667,0,2.5,2.5,2.5,2.5,2.5,2.5,0,1,180
3,315.73,315.73,315.73,316.35,316.97,316.14,0.71279,37910,37910,37911,37911,37912,37911,1,4.8333,4.8333,5,5.0833,5.1667,5,0.16667,2.6667,2.6667,2.6667,2.6667,2.6667,2.6667,0,2.5,2.5,2.5,2.5,2.5,2.5,0,1,181
3,313.22,313.22,313.22,313.83,314.44,313.63,0.70357,37910,37910,37911,37911,37912,37911,1,4.8333,4.8333,5,5.0833,5.1667,5,0.16667,2.6667,2.6667,2.6667,2.6667,2.6667,2.6667,0,2.5,2.5,2.5,2.5,2.5,2.5,0,1,182
3,310.73,310.73,310.73,311.33,311.94,311.13,0.6945,37910,37910,37911,37911,37912,37911,1,4.8333,4.8333,5,5.0833,5.1667,5,0.16667,2.6667,2.6667,2.6667,2.6667,2.6667,2.6667,0,2.5,2.5,2.5,2.5,2.5,2.5,0,1,183
3,308.27,308.27,308.27,308.87,309.46,308.67,0.68558,37910,37910,37911,37911,37912,37911,1,4.8333,4.8333,5,5.0833,5.1667,5,0.16667,2.6667,2.6667,2.6667,2.6667,2.6667,2.6667,0,2.5,2.5,2.5,2.5,2.5,2.5,0,1,184
3,305.83,305.83,305.83,306.42,307.01,306.23,0.6768,37910,37910,37911,37911,37912,37911,1,4.8333,4.8333,5,5.0833,5.1667,5,0.16667,2.6667,2.6667,2.6667,2.6667,2.6667,2.6667,0,2.5,2.5,2.5,2.5,2.5,2.5,0,1,185
3,303.42,303.42,303.42,304,304.58,303.81,0.66816,37910,37910,37911,37911,37912,37911,1,4.8333,4.8333,5,5.0833,5.1667,5,0.16667,2.6667,2.6667,2.6667,2.6667,2.6667,2.6667,0,2.5,2.5,2.5,2.5,2.5,2.5,0,1,186
3,301.03,301.03,301.03,301.61,302.18,301.41,0.65966,37910,37910,37911,37911,37912,37911,1,4.8333,4.8333,5,5.0833,5.1667,5,0.16667,2.6667,2.6667,2.6667,2.6667,2.6667,2.6667,0,2.5,2.5,2.5,2.5,2.5,2.5,0,1,187
3,298.67,298.67,298.67,299.23,299.8,299.05,0.6513,37910,37910,37911,37911,37912,37911,1,4.8333,4.8333,5,5.0833,5.1667,5,0.16667,2.6667,2.6667,2.6667,2.6667,2.6667,2.6667,0,2.5,2.5,2.5,2.5,2.5,2.5,0,1,188
3,296.33,296.33,296.33,296.89,297.44,296.7,0.64307,37910,37910,37911,37911,37912,37911,1,4.8333,4.8333,5,5.0833,5.1667,5,0.16667,2.6667,2.6667,2.6667,2.6667,2.6667,2.6667,0,2.5,2.5,2.5,2.5,2.5,2.5,0,1,189
3,294.01,294.01,294.01,294.56,295.11,294.38,0.63497,37910,37910,37911,37911,37912,37911,1,4.8333,4.8333,5,5.0833,5.1667,5,0.16667,2.6667,2.6667,2.6667,2.6667,2.6667,2.6667,0,2.5,2.5,2.5,2.5,2.5,2.5,0,1,190
3,291.72,291.72,291.72,292.26,292.8,292.08,0.627,37910,37910,37911,37911,37912,37911,1,4.8333,4.8333,5,5.0833,5.1667,5,0.16667,2.6667,2.6667,2.6667,2.6667,2.6667,2.6667,0,2.5,2.5,2.5,2.5,2.5,2.5,0,1,191
3,289.44,289.44,289.44,289.98,290.52,289.8,0.61916,37910,37910,37911,37911,37912,37911,1,4.8333,4.8333,5,5.0833,5.1667,5,0.16667,2.6667,2.6667,2.6667,2.6667,2.6667,2.6667,0,2.5,2.5,2.5,2.5,2.5,2.5,0,1,192
3,287.19,287.19,287.19,287.72,288.25,287.55,0.61144,37910,37910,37911,37911,37912,37911,1,4.8333,4.8333,5,5.0833,5.1667,5,0.16667,2.6667,2.6667,2.6667,2.6667,2.6667,2.6667,0,2.5,2.5,2.5,2.5,2.5,2.5,0,1,193
3,284.96,284.96,284.96,285.49,286.01,285.31,0.60383,37910,37910,37911,37911,37912,37911,1,4.8333,4.8333,5,5.0833,5.1667,5,0.16667,2.6667,2.6667,2.6667,2.6667,2.6667,2.6667,0,2.5,2.5,2.5,2.5,2.5,2.5,0,1,194
3,282.76,282.76,282.76,283.27,283.79,283.1,0.59635,37910,37910,37911,37911,37912,37911,1,4.8333,4.8333,5,5.0833,5.1667,5,0.16667,2.6667,2.6667,2.6667,2.6667,2.6667,2.6667,0,2.5,2.5,2.5,2.5,2.5,2.5,0,1,195
3,280.57,280.57,280.57,281.08,281.59,280.91,0.58898,37910,37910,37911,37911,37912,37911,1,4.8333,4.8333,5,5.0833,5.1667,5,0.16667,2.6667,2.6667,2.6667,2.6667,2.6667,2.6667,0,2.5,2.5,2.5,2.5,2.5,2.5,0,1,196
3,278.41,278.41,278.41,278.91,279.41,278.74,0.58172,37910,37910,37911,37911,37912,37911,1,4.8333,4.8333,5,5.0833,5.1667,5,0.16667,2.6667,2.6667,2.6667,2.6667,2.6667,2.6667,0,2.5,2.5,2.5,2.5,2.5,2.5,0,1,197
3,276.26,276.26,276.26,276.76,277.26,276.59,0.57458,37910,37910,37911,37911,37912,37911,1,4.8333,4.8333,5,5.0833,5.1667,5,0.16667,2.6667,2.6667,2.6667,2.6667,2.6667,2.6667,0,2.5,2.5,2.5,2.5,2.5,2.5,0,1,198
3,274.14,274.14,274.14,274.63,275.12,274.47,0.56754,37910,37910,37911,37911,37912,37911,1,4.8333,4.8333,5,5.0833,5.1667,5,0.16667,2.6667,2.6667,2.6667,2.6667,2.6667,2.6667,0,2.5,2.5,2.5,2.5,2.5,2.5,0,1,199
3,272.04,272.04,272.04,272.52,273.01,272.36,0.56062,37910,37910,37911,37911,37912,37911,1,4.8333,4.8333,5,5.0833,5.1667,5,0.16667,2.6667,2.6667,2.6667,2.6667,2.6667,2.6667,0,2.5,2.5,2.5,2.5,2.5,2.5,0,1,200
3,269.95,269.95,269.95,270.43,270.91,270.27,0.55379,37910,37910,37911,37911,37912,37911,1,4.8333,4.8333,5,5.0833,5.1667,5,0.16667,2.6667,2.6667,2.6667,2.6667,2.6667,2.6667,0,2.5,2.5,2.5,2.5,2.5,2.5,0,1,201
3,267.89,267.89,267.89,268.36,268.84,268.21,0.54707,37910,37910,37911,37911,37912,37911,1,4.8333,4.8333,5,5.0833,5.1667,5,0.16667,2.6667,2.6667,2.6667,2.6667,2.6667,2.6667,0,2.5,2.5,2.5,2.5,2.5,2.5,0,1,202
3,265.85,265.85,265.85,266.31,266.78,266.16,0.54046,37910,37910,37911,37911,37912,37911,1,4.8333,4.8333,5,5.0833,5.1667,5,0.16667,2.6667,2.6667,2.6667,2.6667,2.6667,2.6667,0,2.5,2.5,2.5,2.5,2.5,2.5,0,1,203
3,263.82,263.82,263.82,264.28,264.75,264.13,0.53394,37910,37910,37911,37911,37912,37911,1,4.8333,4.8333,5,5.0833,5.1667,5,0.16667,2.6667,2.6667,2.6667,2.6667,2.6667,2.6667,0,2.5,2.5,2.5,2.5,2.5,2.5,0,1,204
3,261.82,261.82,261.82,262.27,262.73,262.12,0.52751,37910,37910,37911,37911,37912,37911,1,4.8333,4.8333,5,5.0833,5.1667,5,0.16667,2.6667,2.6667,2.6667,2.6667,2.6667,2.6667,0,2.5,2.5,2.5,2.5,2.5,2.5,0,1,205
3,259.83,259.83,259.83,260.28,260.73,260.13,0.52119,37910,37910,37911,37911,37912,37911,1,4.8333,4.8333,5,5.0833,5.1667,5,0.16667,2.6667,2.6667,2.6667,2.6667,2.6667,2.6667,0,2.5,2.5,2.5,2.5,2.5,2.5,0,1,206
3,257.86,257.86,257.86,258.31,258.75,258.16,0.51495,37910,37910,37911,37911,37912,37911,1,4.8333,4.8333,5,5.0833,5.1667,5,0.16667,2.6667,2.6667,2.6667,2.6667,2.6667,2.6667,0,2.5,2.5,2.5,2.5,2.5,2.5,0,1,207
3,255.91,255.91,255.91,256.35,256.79,256.2,0.50881,37910,37910,37911,37911,37912,37911,1,4.8333,4.8333,5,5.0833,5.1667,5,0.16667,2.6667,2.6667,2.6667,2.6667,2.6667,2.6667,0,2.5,2.5,2.5,2.5,2.5,2.5,0,1,208
3,253.98,253.98,253.98,254.41,254.85,254.27,0.50276,37910,37910,37911,37911,37912,37911,1,4.8333,4.8333,5,5.0833,5.1667,5,0.16667,2.6667,2.6667,2.6667,2.6667,2.6667,2.6667,0,2.5,2.5,2.5,2.5,2.5,2.5,0,1,209
3,252.06,252.06,252.06,252.49,252.92,252.35,0.4968,37910,37910,37911,37911,37912,37911,1,4.8333,4.8333,5,5.0833,5.1667,5,0.16667,2.6667,2.6667,2.6667,2.6667,2.6667,2.6667,0,2.5,2.5,2.5,2.5,2.5,2.5,0,1,210
3,250.17,250.17,250.17,250.59,251.02,250.45,0.49092,37910,37910,37911,37911,37912,37911,1,4.8333,4.8333,5,5.0833,5.1667,5,0.16667,2.6667,2.6667,2.6667,2.6667,2.6667,2.6667,0,2.5,2.5,2.5,2.5,2.5,2.5,0,1,211
3,248.29,248.29,248.29,248.71,249.13,248.57,0.48513,37910,37910,37911,37911,37912,37911,1,4.8333,4.8333,5,5.0833,5.1667,5,0.16667,2.6667,2.6667,2.6667,2.6667,2.6667,2.6667,0,2.5,2.5,2.5,2.5,2.5,2.5,0,1,212
3,246.43,246.43,246.43,246.84,247.26,246.7,0.47943,37910,37910,37911,37911,37912,37911,1,4.8333,4.8333,5,5.0833,5.1667,5,0.16667,2.6667,2.6667,2.6667,2.6667,2.6667,2.6667,0,2.5,2.5,2.5,2.5,2.5,2.5,0,1,213
3,244.58,244.58,244.58,244.99,245.4,244.85,0.47381,37910,37910,37911,37911,37912,37911,1,4.8333,4.8333,5,5.0833,5.1667,5,0.16667,2.6667,2.6667,2.6667,2.6667,2.6667,2.6667,0,2.5,2.5,2.5,2.5,2.5,2.5,0,1,214
3,242.75,242.75,242.75,243.16,243.56,243.02,0.46826,37910,37910,37911,37911,37912,37911,1,4.8333,4.8333,5,5.0833,5.1667,5,0.16667,2.6667,2.6667,2.6667,2.6667,2.6667,2.6667,0,2.5,2.5,2.5,2.5,2.5,2.5,0,1,215
3,240.94,240.94,240.94,241.34,241.74,241.21,0.4628,37910,37910,37911,37911,37912,37911,1,4.8333,4.8333,5,5.0833,5.1667,5,0.16667,2.6667,2.6667,2.6667,2.6667,2.6667,2.6667,0,2.5,2.5,2.5,2.5,2.5,2.5,0,1,216
3,239.15,239.15,239.15,239.54,239.94,239.41,0.45742,37910,37910,37911,37911,37912,37911,1,4.8333,4.8333,5,5.0833,5.1667,5,0.16667,2.6667,2.6667,2.6667,2.6667,2.6667,2.6667,0,2.5,2.5,2.5,2.5,2.5,2.5,0,1,217
3,237.37,237.37,237.37,237.76,238.15,237.63,0.45211,37910,37910,37911,37911,37912,37911,1,4.8333,4.8333,5,5.0833,5.1667,5,0.16667,2.6667,2.6667,2.6667,2.6667,2.6667,2.6667,0,2.5,2.5,2.5,2.5,2.5,2.5,0,1,218
3,235.6,235.6,235.6,235.99,236.38,235.86,0.44688,37910,37910,37911,37911,37912,37911,1,4.8333,4.8333,5,5.0833,5.1667,5,0.16667,2.6667,2.6667,2.6667,2.6667,2.6667,2.6667,0,2.5,2.5,2.5,2.5,2.5,2.5,0,1,219
3,233.86,233.86,233.86,234.24,234.62,234.11,0.44172,37910,37910,37911,37911,37912,37911,1,4.8333,4.8333,5,5.0833,5.1667,5,0.16667,2.6667,2.6667,2.6667,2.6667,2.6667,2.6667,0,2.5,2.5,2.5,2.5,2.5,2.5,0,1,220
3,232.12,232.12,232.12,232.5,232.88,232.38,0.43663,37910,37910,37911,37911,37912,37911,1,4.8333,4.8333,5,5.0833,5.1667,5,0.16667,2.6667,2.6667,2.6667,2.6667,2.6667,2.6667,0,2.5,2.5,2.5,2.5,2.5,2.5,0,1,221
3,230.41,230.41,230.41,230.78,231.16,230.66,0.43162,37910,37910,37911,37911,37912,37911,1,4.8333,4.8333,5,5.0833,5.1667,5,0.16667,2.6667,2.6667,2.6667,2.6667,2.6667,2.6667,0,2.5,2.5,2.5,2.5,2.5,2.5,0,1,222
3,228.71,228.71,228.71,229.08,229.45,228.95,0.42667,37910,37910,37911,37911,37912,37911,1,4.8333,4.8333,5,5.0833,5.1667,5,0.16667,2.6667,2.6667,2.6667,2.6667,2.6667,2.6667,0,2.5,2.5,2.5,2.5,2.5,2.5,0,1,223
3,227.02,227.02,227.02,227.39,227.75,227.26,0.4218,37910,37910,37911,37911,37912,37911,1,4.8333,4.8333,5,5.0833,5.1667,5,0.16667,2.6667,2.6667,2.6667,2.6667,2.6667,2.6667,0,2.5,2.5,2.5,2.5,2.5,2.5,0,1,224
3,225.35,225.35,225.35,225.71,226.07,225.59,0.41699,37910,37910,37911,37911,37912,37911,1,4.8333,4.8333,5,5.0833,5.1667,5,0.16667,2.6667,2.6667,2.6667,2.6667,2.6667,2.6667,0,2.5,2.5,2.5,2.5,2.5,2.5,0,1,225
3,223.69,223.69,223.69,224.05,224.41,223.93,0.41225,37910,37910,37911,37911,37912,37911,1,4.8333,4.8333,5,5.0833,5.1667,5,0.16667,2.6667,2.6667,2.6667,2.6667,2.6667,2.6667,0,2.5,2.5,2.5,2.5,2.5,2.5,0,1,226
3,222.05,222.05,222.05,222.41,222.76,222.29,0.40758,37910,37910,37911,37911,37912,37911,1,4.8333,4.8333,5,5.0833,5.1667,5,0.16667,2.6667,2.6667,2.6667,2.6667,2.6667,2.6667,0,2.5,2.5,2.5,2.5,2.5,2.5,0,1,227
3,220.42,220.42,220.42,220.77,221.12,220.66,0.40297,37910,37910,37911,37911,37912,37911,1,4.8333,4.8333,5,5.0833,5.1667,5,0.16667,2.6667,2.6667,2.6667,2.6667,2.6667,2.6667,0,2.5,2.5,2.5,2.5,2.5,2.5,0,1,228
3,218.81,218.81,218.81,219.16,219.5,219.04,0.39842,37910,37910,37911,37911,37912,37911,1,4.8333,4.8333,5,5.0833,5.1667,5,0.16667,2.6667,2.6667,2.6667,2.6667,2.6667,2.6667,0,2.5,2.5,2.5,2.5,2.5,2.5,0,1,229
3,217.21,217.21,217.21,217.55,217.9,217.44,0.39394,37910,37910,37911,37911,37912,37911,1,4.8333,4.8333,5,5.0833,5.1667,5,0.16667,2.6667,2.6667,2.6667,2.6667,2.6667,2.6667,0,2.5,2.5,2.5,2.5,2.5,2.5,0,1,230
3,215.63,215.63,215.63,215.97,216.3,215.85,0.38952,37910,37910,37911,37911,37912,37911,1,4.8333,4.8333,5,5.0833,5.1667,5,0.16667,2.6667,2.6667,2.6667,2.6667,2.6667,2.6667,0,2.5,2.5,2.5,2.5,2.5,2.5,0,1,231
3,214.06,214.06,214.06,214.39,214.72,214.28,0.38516,37910,37910,37911,37911,37912,37911,1,4.8333,4.8333,5,5.0833,5.1667,5,0.16667,2.6667,2.6667,2.6667,2.6667,2.6667,2.6667,0,2.5,2.5,2.5,2.5,2.5,2.5,0,1,232
3,212.5,212.5,212.5,212.83,213.16,212.72,0.38085,37910,37910,37911,37911,37912,37911,1,4.8333,4.8333,5,5.0833,5.1667,5,0.16667,2.6667,2.6667,2.6667,2.6667,2.6667,2.6667,0,2.5,2.5,2.5,2.5,2.5,2.5,0,1,233
3,210.96,210.96,210.96,211.28,211.61,211.17,0.37661,37910,37910,37911,37911,37912,37911,1,4.8333,4.8333,5,5.0833,5.1667,5,0.16667,2.6667,2.6667,2.6667,2.6667,2.6667,2.6667,0,2.5,2.5,2.5,2.5,2.5,2.5,0,1,234
3,209.43,209.43,209.43,209.75,210.07,209.64,0.37242,37910,37910,37911,37911,37912,37911,1,4.8333,4.8333,5,5.0833,5.1667,5,0.16667,2.6667,2.6667,2.6667,2.6667,2.6667,2.6667,0,2.5,2.5,2.5,2.5,2.5,2.5,0,1,235
3,207.91,207.91,207.91,208.23,208.55,208.12,0.36829,37910,37910,37911,37911,37912,37911,1,4.8333,4.8333,5,5.0833,5.1667,5,0.16667,2.6667,2.6667,2.6667,2.6667,2.6667,2.6667,0,2.5,2.5,2.5,2.5,2.5,2.5,0,1,236
3,206.4,206.4,206.4,206.72,207.03,206.61,0.36422,37910,37910,37911,37911,37912,37911,1,4.8333,4.8333,5,5.0833,5.1667,5,0.16667,2.6667,2.6667,2.6667,2.6667,2.6667,2.6667,0,2.5,2.5,2.5,2.5,2.5,2.5,0,1,237
3,204.91,204.91,204.91,205.22,205.54,205.12,0.3602,37910,37910,37911,37911,37912,37911,1,4.8333,4.8333,5,5.0833,5.1667,5,0.16667,2.6667,2.6667,2.6667,2.6667,2.6667,2.6667,0,2.5,2.5,2.5,2.5,2.5,2.5,0,1,238
3,203.43,203.43,203.43,203.74,204.05,203.64,0.35623,37910,37910,37911,37911,37912,37911,1,4.8333,4.8333,5,5.0833,5.1667,5,0.16667,2.6667,2.6667,2.6667,2.6667,2.6667,2.6667,0,2.5,2.5,2.5,2.5,2.5,2.5,0,1,239
3,201.97,201.97,201.97,202.27,202.58,202.17,0.35232,37910,37910,37911,37911,37912,37911,1,4.8333,4.8333,5,5.0833,5.1667,5,0.16667,2.6667,2.6667,2.6667,2.6667,2.6667,2.6667,0,2.5,2.5,2.5,2.5,2.5,2.5,0,1,240
3,200.51,200.51,200.51,200.82,201.12,200.71,0.34846,37910,37910,37911,37911,37912,37911,1,4.8333,4.8333,5,5.0833,5.1667,5,0.16667,2.6667,2.6667,2.6667,2.6667,2.6667,2.6667,0,2.5,2.5,2.5,2.5,2.5,2.5,0,1,241
3,199.07,199.07,199.07,199.37,199.67,199.27,0.34465,37910,37910,37911,37911,37912,37911,1,4.8333,4.8333,5,5.0833,5.1667,5,0.16667,2.6667,2.6667,2.6667,2.6667,2.6667,2.6667,0,2.5,2.5,2.5,2.5,2.5,2.5,0,1,242
3,197.64,197.64,197.64,197.94,198.23,197.84,0.34089,37910,37910,37911,37911,37912,37911,1,4.8333,4.8333,5,5.0833,5.1667,5,0.16667,2.6667,2.6667,2.6667,2.6667,2.6667,2.6667,0,2.5,2.5,2.5,2.5,2.5,2.5,0,1,243
3,196.23,196.23,196.23,196.52,196.81,196.42,0.33718,37910,37910,37911,37911,37912,37911,1,4.8333,4.8333,5,5.0833,5.1667,5,0.16667,2.6667,2.6667,2.6667,2.6667,2.6667,2.6667,0,2.5,2.5,2.5,2.5,2.5,2.5,0,1,244
3,194.82,194.82,194.82,195.11,195.4,195.01,0.33351,37910,37910,37911,37911,37912,37911,1,4.8333,4.8333,5,5.0833,5.1667,5,0.16667,2.6667,2.6667,2.6667,2.6667,2.6667,2.6667,0,2.5,2.5,2.5,2.5,2.5,2.5,0,1,245
3,193.43,193.43,193.43,193.71,194,193.62,0.3299,37910,37910,37911,37911,37912,37911,1,4.8333,4.8333,5,5.0833,5.1667,5,0.16667,2.6667,2.6667,2.6667,2.6667,2.6667,2.6667,0,2.5,2.5,2.5,2.5,2.5,2.5,0,1,246
3,192.05,192.05,192.05,192.33,192.61,192.24,0.32633,37910,37910,37911,37911,37912,37911,1,4.8333,4.8333,5,5.0833,5.1667,5,0.16667,2.6667,2.6667,2.6667,2.6667,2.6667,2.6667,0,2.5,2.5,2.5,2.5,2.5,2.5,0,1,247
3,190.68,190.68,190.68,190.96,191.24,190.86,0.32281,37910,37910,37911,37911,37912,37911,1,4.8333,4.8333,5,5.0833,5.1667,5,0.16667,2.6667,2.6667,2.6667,2.6667,2.6667,2.6667,0,2.5,2.5,2.5,2.5,2.5,2.5,0,1,248
3,189.32,189.32,189.32,189.6,189.87,189.5,0.31934,37910,37910,37911,37911,37912,37911,1,4.8333,4.8333,5,5.0833,5.1667,5,0.16667,2.6667,2.6667,2.6667,2.6667,2.6667,2.6667,0,2.5,2.5,2.5,2.5,2.5,2.5,0,1,249
